"FormatVersion","v1.0"
"Disclaimer","This pricing list is for informational purposes only. All prices are subject to the additional terms included in the pricing pages on http://aws.amazon.com. All Free Tier prices are also subject to the terms included at https://aws.amazon.com/free/"
"Publication Date","2017-11-22T19:44:08Z"
"Version","20171122194408"
"OfferCode","AmazonRekognition"
"SKU","OfferTermCode","RateCode","TermType","PriceDescription","EffectiveDate","StartingRange","EndingRange","Unit","PricePerUnit","Currency","RelatedTo","Product Family","serviceCode","Location","Location Type","Group","Group Description","usageType","operation","serviceName"
"BNVT6AWJCPFW9Z97","JRTCKXETXF","BNVT6AWJCPFW9Z97.JRTCKXETXF.6YS6EN2CT7","OnDemand","Storage: 0.01 USD per 1000 Faces stored per month","2017-11-01","0","Inf","Faces-Mo","0.0000100000","USD","DPUQC9S9CWT4F34M","Rekognition Storage","AmazonRekognition","EU (Ireland)","AWS Region","Face Vector Storage","Number of Face Vectors stored","EU-FaceVectorsStored","","Amazon Rekognition"
"DPUQC9S9CWT4F34M","A429C66SYZ","DPUQC9S9CWT4F34M.A429C66SYZ.JXGPBPHWFF","OnDemand","Storage: Free Tier : 0 - 1000 Faces stored per month, 0 USD","2017-11-01","0","1000","Faces-Mo","0.0000000000","USD",,"Rekognition Storage","AmazonRekognition","Any","AWS Region","Face Vector Storage","Number of Face Vectors stored","Global-FaceVectorsStored","","Amazon Rekognition"
"V9SD5T6CMDRRUTWZ","JRTCKXETXF","V9SD5T6CMDRRUTWZ.JRTCKXETXF.6YS6EN2CT7","OnDemand","Storage: 0.01 USD per 1000 Faces stored per month.","2017-11-01","0","Inf","Faces-Mo","0.0000100000","USD","DPUQC9S9CWT4F34M","Rekognition Storage","AmazonRekognition","US East (N. Virginia)","AWS Region","Face Vector Storage","Number of Face Vectors stored","USE1-FaceVectorsStored","","Amazon Rekognition"
"D4GQK95E3RH695T5","JRTCKXETXF","D4GQK95E3RH695T5.JRTCKXETXF.6YS6EN2CT7","OnDemand","Storage: 0.012 USD per 1000 Faces stored per month","2017-11-01","0","Inf","Faces-Mo","0.0000120000","USD","DPUQC9S9CWT4F34M","Rekognition Storage","AmazonRekognition","AWS GovCloud (US)","AWS Region","Face Vector Storage","Number of Face Vectors stored","UGW1-FaceVectorsStored","","Amazon Rekognition"
"ZTVAF6W4YKFD229P","JRTCKXETXF","ZTVAF6W4YKFD229P.JRTCKXETXF.SB2VSFF4TP","OnDemand","Images Processed: 5001 - 1 MM images processed per month, 1.00 USD per 1000 images processed.","2017-11-01","0","1000000","Images Processed","0.0010000000","USD","NUJW42GPYD7ZVSCX","Rekognition Image API","AmazonRekognition","EU (Ireland)","AWS Region","Rekognition Image API Requests","Number of images processed using DetectLabels, DetectFaces, CompareFaces, SearchByImage, DetectModerationLabels, RecognizeCelebrities, IndexFaces APIs OR Number of calls made to SearchFaceById, ListFace Rekognition Image APIs","EUW1-ImagesProcessed","","Amazon Rekognition"
"ZTVAF6W4YKFD229P","JRTCKXETXF","ZTVAF6W4YKFD229P.JRTCKXETXF.H9V8AVEXGG","OnDemand","Images Processed: 1,000,001 - 10 MM images processed per month, 0.80 USD per 1000 images processed.","2017-11-01","1000000","10000000","Images Processed","0.0008000000","USD","NUJW42GPYD7ZVSCX","Rekognition Image API","AmazonRekognition","EU (Ireland)","AWS Region","Rekognition Image API Requests","Number of images processed using DetectLabels, DetectFaces, CompareFaces, SearchByImage, DetectModerationLabels, RecognizeCelebrities, IndexFaces APIs OR Number of calls made to SearchFaceById, ListFace Rekognition Image APIs","EUW1-ImagesProcessed","","Amazon Rekognition"
"ZTVAF6W4YKFD229P","JRTCKXETXF","ZTVAF6W4YKFD229P.JRTCKXETXF.RTKVR6ZK95","OnDemand","Images Processed: 10,000,001 - 100MM images processed per month, 0.60 USD per 1000 images per 1000 images processed.","2017-11-01","10000000","100000000","Images Processed","0.0006000000","USD","NUJW42GPYD7ZVSCX","Rekognition Image API","AmazonRekognition","EU (Ireland)","AWS Region","Rekognition Image API Requests","Number of images processed using DetectLabels, DetectFaces, CompareFaces, SearchByImage, DetectModerationLabels, RecognizeCelebrities, IndexFaces APIs OR Number of calls made to SearchFaceById, ListFace Rekognition Image APIs","EUW1-ImagesProcessed","","Amazon Rekognition"
"ZTVAF6W4YKFD229P","JRTCKXETXF","ZTVAF6W4YKFD229P.JRTCKXETXF.F83EQNDM5J","OnDemand","Images Processed: 100MM+ images processed per month, 0.40 USD per 1000 images per 1000 images processed.","2017-11-01","100000000","Inf","Images Processed","0.0004000000","USD","NUJW42GPYD7ZVSCX","Rekognition Image API","AmazonRekognition","EU (Ireland)","AWS Region","Rekognition Image API Requests","Number of images processed using DetectLabels, DetectFaces, CompareFaces, SearchByImage, DetectModerationLabels, RecognizeCelebrities, IndexFaces APIs OR Number of calls made to SearchFaceById, ListFace Rekognition Image APIs","EUW1-ImagesProcessed","","Amazon Rekognition"
"NUJW42GPYD7ZVSCX","A429C66SYZ","NUJW42GPYD7ZVSCX.A429C66SYZ.RRH5GFDVRN","OnDemand","Images Processed: Free Tier : 0 - 5000 images processed per month, 0 USD","2017-11-01","0","5000","Images Processed","0.0000000000","USD",,"Rekognition Image API","AmazonRekognition","Any","AWS Region","Rekognition Image API Requests","Number of images processed using DetectLabels, DetectFaces, CompareFaces, SearchByImage, DetectModerationLabels, RecognizeCelebrities, IndexFaces APIs OR Number of calls made to SearchFaceById, ListFace Rekognition Image APIs","Global-ImagesProcessed","","Amazon Rekognition"
"DUSW36AVMUJKQJ7C","JRTCKXETXF","DUSW36AVMUJKQJ7C.JRTCKXETXF.SB2VSFF4TP","OnDemand","Images Processed: 5001 - 1 MM images processed per month, 1.20 USD per 1000 images processed.","2017-11-01","0","1000000","Images Processed","0.0012000000","USD","NUJW42GPYD7ZVSCX","Rekognition Image API","AmazonRekognition","AWS GovCloud (US)","AWS Region","Rekognition Image API Requests","Number of images processed using DetectLabels, DetectFaces, CompareFaces, SearchByImage, DetectModerationLabels, RecognizeCelebrities, IndexFaces APIs OR Number of calls made to SearchFaceById, ListFace Rekognition Image APIs","UGW1-ImagesProcessed","","Amazon Rekognition"
"DUSW36AVMUJKQJ7C","JRTCKXETXF","DUSW36AVMUJKQJ7C.JRTCKXETXF.H9V8AVEXGG","OnDemand","Images Processed: 1,000,001 - 10 MM images processed per month, 0.96 USD per 1000 images processed.","2017-11-01","1000000","10000000","Images Processed","0.0009600000","USD","NUJW42GPYD7ZVSCX","Rekognition Image API","AmazonRekognition","AWS GovCloud (US)","AWS Region","Rekognition Image API Requests","Number of images processed using DetectLabels, DetectFaces, CompareFaces, SearchByImage, DetectModerationLabels, RecognizeCelebrities, IndexFaces APIs OR Number of calls made to SearchFaceById, ListFace Rekognition Image APIs","UGW1-ImagesProcessed","","Amazon Rekognition"
"DUSW36AVMUJKQJ7C","JRTCKXETXF","DUSW36AVMUJKQJ7C.JRTCKXETXF.RTKVR6ZK95","OnDemand","Images Processed: 10,000,001 - 100MM images processed per month, 0.72 USD per 1000 images per 1000 images processed.","2017-11-01","10000000","100000000","Images Processed","0.0007200000","USD","NUJW42GPYD7ZVSCX","Rekognition Image API","AmazonRekognition","AWS GovCloud (US)","AWS Region","Rekognition Image API Requests","Number of images processed using DetectLabels, DetectFaces, CompareFaces, SearchByImage, DetectModerationLabels, RecognizeCelebrities, IndexFaces APIs OR Number of calls made to SearchFaceById, ListFace Rekognition Image APIs","UGW1-ImagesProcessed","","Amazon Rekognition"
"DUSW36AVMUJKQJ7C","JRTCKXETXF","DUSW36AVMUJKQJ7C.JRTCKXETXF.F83EQNDM5J","OnDemand","Images Processed: 100MM+ images processed per month, 0.48 USD per 1000 images per 1000 images processed.","2017-11-01","100000000","Inf","Images Processed","0.0004800000","USD","NUJW42GPYD7ZVSCX","Rekognition Image API","AmazonRekognition","AWS GovCloud (US)","AWS Region","Rekognition Image API Requests","Number of images processed using DetectLabels, DetectFaces, CompareFaces, SearchByImage, DetectModerationLabels, RecognizeCelebrities, IndexFaces APIs OR Number of calls made to SearchFaceById, ListFace Rekognition Image APIs","UGW1-ImagesProcessed","","Amazon Rekognition"
"4R796AUWKTWNVC3X","JRTCKXETXF","4R796AUWKTWNVC3X.JRTCKXETXF.SB2VSFF4TP","OnDemand","Images Processed: 5001 - 1 MM images processed per month, 1.00 USD per 1000 images processed.","2017-11-01","0","1000000","Images Processed","0.0010000000","USD","NUJW42GPYD7ZVSCX","Rekognition Image API","AmazonRekognition","US East (N. Virginia)","AWS Region","Rekognition Image API Requests","Number of images processed using DetectLabels, DetectFaces, CompareFaces, SearchByImage, DetectModerationLabels, RecognizeCelebrities, IndexFaces APIs OR Number of calls made to SearchFaceById, ListFace Rekognition Image APIs","USE1-ImagesProcessed","","Amazon Rekognition"
"4R796AUWKTWNVC3X","JRTCKXETXF","4R796AUWKTWNVC3X.JRTCKXETXF.H9V8AVEXGG","OnDemand","Images Processed: 1,000,001 - 10 MM images processed per month, 0.80 USD per 1000 images processed.","2017-11-01","1000000","10000000","Images Processed","0.0008000000","USD","NUJW42GPYD7ZVSCX","Rekognition Image API","AmazonRekognition","US East (N. Virginia)","AWS Region","Rekognition Image API Requests","Number of images processed using DetectLabels, DetectFaces, CompareFaces, SearchByImage, DetectModerationLabels, RecognizeCelebrities, IndexFaces APIs OR Number of calls made to SearchFaceById, ListFace Rekognition Image APIs","USE1-ImagesProcessed","","Amazon Rekognition"
"4R796AUWKTWNVC3X","JRTCKXETXF","4R796AUWKTWNVC3X.JRTCKXETXF.RTKVR6ZK95","OnDemand","Images Processed: 10,000,001 - 100MM images processed per month, 0.60 USD per 1000 images per 1000 images processed.","2017-11-01","10000000","100000000","Images Processed","0.0006000000","USD","NUJW42GPYD7ZVSCX","Rekognition Image API","AmazonRekognition","US East (N. Virginia)","AWS Region","Rekognition Image API Requests","Number of images processed using DetectLabels, DetectFaces, CompareFaces, SearchByImage, DetectModerationLabels, RecognizeCelebrities, IndexFaces APIs OR Number of calls made to SearchFaceById, ListFace Rekognition Image APIs","USE1-ImagesProcessed","","Amazon Rekognition"
"4R796AUWKTWNVC3X","JRTCKXETXF","4R796AUWKTWNVC3X.JRTCKXETXF.F83EQNDM5J","OnDemand","Images Processed: 100MM+ images processed per month, 0.40 USD per 1000 images per 1000 images processed.","2017-11-01","100000000","Inf","Images Processed","0.0004000000","USD","NUJW42GPYD7ZVSCX","Rekognition Image API","AmazonRekognition","US East (N. Virginia)","AWS Region","Rekognition Image API Requests","Number of images processed using DetectLabels, DetectFaces, CompareFaces, SearchByImage, DetectModerationLabels, RecognizeCelebrities, IndexFaces APIs OR Number of calls made to SearchFaceById, ListFace Rekognition Image APIs","USE1-ImagesProcessed","","Amazon Rekognition"
"KX6JSXV69GMJWJEU","JRTCKXETXF","KX6JSXV69GMJWJEU.JRTCKXETXF.SB2VSFF4TP","OnDemand","Images Processed: 5001 - 1 MM images processed per month, 1.00 USD per 1000 images processed.","2017-11-01","0","1000000","Images Processed","0.0010000000","USD","NUJW42GPYD7ZVSCX","Rekognition Image API","AmazonRekognition","US West (Oregon)","AWS Region","Rekognition Image API Requests","Number of images processed using DetectLabels, DetectFaces, CompareFaces, SearchByImage, DetectModerationLabels, RecognizeCelebrities, IndexFaces APIs OR Number of calls made to SearchFaceById, ListFace Rekognition Image APIs","USW2-ImagesProcessed","","Amazon Rekognition"
"KX6JSXV69GMJWJEU","JRTCKXETXF","KX6JSXV69GMJWJEU.JRTCKXETXF.H9V8AVEXGG","OnDemand","Images Processed: 1,000,001 - 10 MM images processed per month, 0.80 USD per 1000 images processed.","2017-11-01","1000000","10000000","Images Processed","0.0008000000","USD","NUJW42GPYD7ZVSCX","Rekognition Image API","AmazonRekognition","US West (Oregon)","AWS Region","Rekognition Image API Requests","Number of images processed using DetectLabels, DetectFaces, CompareFaces, SearchByImage, DetectModerationLabels, RecognizeCelebrities, IndexFaces APIs OR Number of calls made to SearchFaceById, ListFace Rekognition Image APIs","USW2-ImagesProcessed","","Amazon Rekognition"
"KX6JSXV69GMJWJEU","JRTCKXETXF","KX6JSXV69GMJWJEU.JRTCKXETXF.RTKVR6ZK95","OnDemand","Images Processed: 10,000,001 - 100MM images processed per month, 0.60 USD per 1000 images per 1000 images processed.","2017-11-01","10000000","100000000","Images Processed","0.0006000000","USD","NUJW42GPYD7ZVSCX","Rekognition Image API","AmazonRekognition","US West (Oregon)","AWS Region","Rekognition Image API Requests","Number of images processed using DetectLabels, DetectFaces, CompareFaces, SearchByImage, DetectModerationLabels, RecognizeCelebrities, IndexFaces APIs OR Number of calls made to SearchFaceById, ListFace Rekognition Image APIs","USW2-ImagesProcessed","","Amazon Rekognition"
"KX6JSXV69GMJWJEU","JRTCKXETXF","KX6JSXV69GMJWJEU.JRTCKXETXF.F83EQNDM5J","OnDemand","Images Processed: 100MM+ images processed per month, 0.40 USD per 1000 images per 1000 images processed.","2017-11-01","100000000","Inf","Images Processed","0.0004000000","USD","NUJW42GPYD7ZVSCX","Rekognition Image API","AmazonRekognition","US West (Oregon)","AWS Region","Rekognition Image API Requests","Number of images processed using DetectLabels, DetectFaces, CompareFaces, SearchByImage, DetectModerationLabels, RecognizeCelebrities, IndexFaces APIs OR Number of calls made to SearchFaceById, ListFace Rekognition Image APIs","USW2-ImagesProcessed","","Amazon Rekognition"
"2A6D7UCKFZVYXZB3","JRTCKXETXF","2A6D7UCKFZVYXZB3.JRTCKXETXF.6YS6EN2CT7","OnDemand","Storage: 0.01 USD per 1000 Faces stored per month.","2017-11-01","0","Inf","Faces-Mo","0.0000100000","USD","DPUQC9S9CWT4F34M","Rekognition Storage","AmazonRekognition","US West (Oregon)","AWS Region","Face Vector Storage","Number of Face Vectors stored","USW2-FaceVectorsStored","","Amazon Rekognition"
