"FormatVersion","v1.0"
"Disclaimer","This pricing list is for informational purposes only. All prices are subject to the additional terms included in the pricing pages on http://aws.amazon.com. All Free Tier prices are also subject to the terms included at https://aws.amazon.com/free/"
"Publication Date","2017-08-22T16:35:18Z"
"Version","20170822163518"
"OfferCode","AWSBudgets"
"SKU","OfferTermCode","RateCode","TermType","PriceDescription","EffectiveDate","StartingRange","EndingRange","Unit","PricePerUnit","Currency","Product Family","serviceCode","Location","Location Type","Group Description","usageType","operation"
"T2UVJ9XYT52FBFAF","JRTCKXETXF","T2UVJ9XYT52FBFAF.JRTCKXETXF.THDP7WDETG","OnDemand","$0.00 for 62 Budget-days per month (free tier)","2017-08-01","0","62","days","0.0000000000","USD","AWS Budgets","AWSBudgets","Any","AWS Region","Budget Notifications","BudgetsUsage",""
"T2UVJ9XYT52FBFAF","JRTCKXETXF","T2UVJ9XYT52FBFAF.JRTCKXETXF.SKU64ZHHQB","OnDemand","$0.02 per Budget-day","2017-08-01","62","Inf","days","0.0200000000","USD","AWS Budgets","AWSBudgets","Any","AWS Region","Budget Notifications","BudgetsUsage",""
