"FormatVersion","v1.0"
"Disclaimer","This pricing list is for informational purposes only. All prices are subject to the additional terms included in the pricing pages on http://aws.amazon.com. All Free Tier prices are also subject to the terms included at https://aws.amazon.com/free/"
"Publication Date","2017-04-19T20:25:48Z"
"Version","20170419202548"
"OfferCode","AWSDeveloperSupport"
"SKU","OfferTermCode","RateCode","TermType","PriceDescription","EffectiveDate","StartingRange","EndingRange","Unit","PricePerUnit","Currency","Product Family","serviceCode","Location","Location Type","usageType","operation","Account Assistance","Architectural Review","Architecture Support","Best Practices","Case Severity/Response Times","Customer Service and Communities","Included Services","Launch Support","Operations Support","Proactive Guidance","Programmatic Case Management","Technical Support","Third-Party Software Support","Training","Who Can Open Cases"
"PABU4DU56U6E9SBK","JRTCKXETXF","PABU4DU56U6E9SBK.JRTCKXETXF.J8BW7J3JFF","Reserved","Recurring Fee","2016-05-18",,,"Quantity","29","USD","AWSDeveloperSupport","AWSDeveloperSupport","Any","Other","Dollar","","Not included","Not included","General guidance","Access to 4 core Trusted Advisor checks","Normal: < 12 hours, Low: < 24 hours","24x7 access to customer service, documentation, whitepapers, and support forums","All AWS services except Support","Not included","Not included","Not included","Not included","Business hours access to Cloud Support Associates via email","Not included","Not included","One primary contact/Unlimited cases"
"PABU4DU56U6E9SBK","JRTCKXETXF","PABU4DU56U6E9SBK.JRTCKXETXF.6YS6EN2CT7","OnDemand","3% of monthly AWS usage","2016-05-18","0","Inf","Dollar","0.0300000000","USD","AWSDeveloperSupport","AWSDeveloperSupport","Any","Other","Dollar","","Not included","Not included","General guidance","Access to 4 core Trusted Advisor checks","Normal: < 12 hours, Low: < 24 hours","24x7 access to customer service, documentation, whitepapers, and support forums","All AWS services except Support","Not included","Not included","Not included","Not included","Business hours access to Cloud Support Associates via email","Not included","Not included","One primary contact/Unlimited cases"
