"FormatVersion","v1.0"
"Disclaimer","This pricing list is for informational purposes only. All prices are subject to the additional terms included in the pricing pages on http://aws.amazon.com. All Free Tier prices are also subject to the terms included at https://aws.amazon.com/free/"
"Publication Date","2017-08-14T19:37:26Z"
"Version","20170814193726"
"OfferCode","AWSShield"
"SKU","OfferTermCode","RateCode","TermType","PriceDescription","EffectiveDate","StartingRange","EndingRange","Unit","PricePerUnit","Currency","Product Family","serviceCode","Description","Location","Location Type","From Location","From Location Type","To Location","To Location Type","usageType","operation"
"GF3X85SG7UFVT4QG","JRTCKXETXF","GF3X85SG7UFVT4QG.JRTCKXETXF.8EEUB22XNJ","OnDemand","$3,000 for First Subscription","2017-08-01","0","1","month","3000.0000000000","USD","Shield Advanced Monthly Fee","AWSShield","Monthly fees for AWS Shield Advanced","Any","AWS Region",,,,,"Shield-Monthly-Fee",""
"GF3X85SG7UFVT4QG","JRTCKXETXF","GF3X85SG7UFVT4QG.JRTCKXETXF.JTU8TKNAMW","OnDemand","$0 for additional Subscriptions","2017-08-01","1","Inf","month","0.0000000000","USD","Shield Advanced Monthly Fee","AWSShield","Monthly fees for AWS Shield Advanced","Any","AWS Region",,,,,"Shield-Monthly-Fee",""
"EFKDCG27NB8FPQ6W","JRTCKXETXF","EFKDCG27NB8FPQ6W.JRTCKXETXF.GY4PVJM369","OnDemand","Shield Data Transfer out of ELB in CloudFront - First 100 TB","2017-08-01","0","102400","Bytes","0.0250000000","USD","Shield-DataTransfer","AWSShield",,,,"Global","AWS Edge Location","External","Other","Global-DataTransfer-Shield-Bytes",""
"EFKDCG27NB8FPQ6W","JRTCKXETXF","EFKDCG27NB8FPQ6W.JRTCKXETXF.NCC8ZPFJJ4","OnDemand","Shield Data Transfer out of ELB in CloudFront - Next 400 TB","2017-08-01","102400","512000","Bytes","0.0200000000","USD","Shield-DataTransfer","AWSShield",,,,"Global","AWS Edge Location","External","Other","Global-DataTransfer-Shield-Bytes",""
"EFKDCG27NB8FPQ6W","JRTCKXETXF","EFKDCG27NB8FPQ6W.JRTCKXETXF.8ZEU47TFDJ","OnDemand","Shield Data Transfer out of ELB in CloudFront - Next 500 TB","2017-08-01","512000","1024001","Bytes","0.0150000000","USD","Shield-DataTransfer","AWSShield",,,,"Global","AWS Edge Location","External","Other","Global-DataTransfer-Shield-Bytes",""
"EFKDCG27NB8FPQ6W","JRTCKXETXF","EFKDCG27NB8FPQ6W.JRTCKXETXF.CE5Y67E3MR","OnDemand","Shield Data Transfer out of ELB in CloudFront - Above 1000 TB","2017-08-01","1024001","Inf","Bytes","0.0100000000","USD","Shield-DataTransfer","AWSShield",,,,"Global","AWS Edge Location","External","Other","Global-DataTransfer-Shield-Bytes",""
"QHYDGWYFCNB98NGH","JRTCKXETXF","QHYDGWYFCNB98NGH.JRTCKXETXF.GY4PVJM369","OnDemand","Shield Data Transfer out of ELB in PDX - First 100 TB","2017-08-01","0","102400","Bytes","0.0500000000","USD","Shield-DataTransfer","AWSShield",,,,"US West (Oregon)","AWS Region","External","Other","USW2-DataTransfer-Shield-Bytes",""
"QHYDGWYFCNB98NGH","JRTCKXETXF","QHYDGWYFCNB98NGH.JRTCKXETXF.NCC8ZPFJJ4","OnDemand","Shield Data Transfer out of ELB in PDX - Next 400 TB","2017-08-01","102400","512000","Bytes","0.0400000000","USD","Shield-DataTransfer","AWSShield",,,,"US West (Oregon)","AWS Region","External","Other","USW2-DataTransfer-Shield-Bytes",""
"QHYDGWYFCNB98NGH","JRTCKXETXF","QHYDGWYFCNB98NGH.JRTCKXETXF.PXJDJ3YRG3","OnDemand","Shield Data Transfer out of ELB in PDX - Above 500 TB","2017-08-01","512000","Inf","Bytes","0.0300000000","USD","Shield-DataTransfer","AWSShield",,,,"US West (Oregon)","AWS Region","External","Other","USW2-DataTransfer-Shield-Bytes",""
"GYAXEM65JBG3WWBT","JRTCKXETXF","GYAXEM65JBG3WWBT.JRTCKXETXF.GY4PVJM369","OnDemand","Shield Data Transfer out of ELB in IAD - First 100 TB","2017-08-01","0","102400","Bytes","0.0500000000","USD","Shield-DataTransfer","AWSShield",,,,"US East (N. Virginia)","AWS Region","External","Other","USE1-DataTransfer-Shield-Bytes",""
"GYAXEM65JBG3WWBT","JRTCKXETXF","GYAXEM65JBG3WWBT.JRTCKXETXF.NCC8ZPFJJ4","OnDemand","Shield Data Transfer out of ELB in IAD - Next 400 TB","2017-08-01","102400","512000","Bytes","0.0400000000","USD","Shield-DataTransfer","AWSShield",,,,"US East (N. Virginia)","AWS Region","External","Other","USE1-DataTransfer-Shield-Bytes",""
"GYAXEM65JBG3WWBT","JRTCKXETXF","GYAXEM65JBG3WWBT.JRTCKXETXF.PXJDJ3YRG3","OnDemand","Shield Data Transfer out of ELB in IAD - Above 500 TB","2017-08-01","512000","Inf","Bytes","0.0300000000","USD","Shield-DataTransfer","AWSShield",,,,"US East (N. Virginia)","AWS Region","External","Other","USE1-DataTransfer-Shield-Bytes",""
"EPKUPP9KAAE753HA","JRTCKXETXF","EPKUPP9KAAE753HA.JRTCKXETXF.GY4PVJM369","OnDemand","Shield Data Transfer out of ELB in NRT - First 100 TB","2017-08-01","0","102400","Bytes","0.0500000000","USD","Shield-DataTransfer","AWSShield",,,,"Asia Pacific (Tokyo)","AWS Region","External","Other","APN1-DataTransfer-Shield-Bytes",""
"EPKUPP9KAAE753HA","JRTCKXETXF","EPKUPP9KAAE753HA.JRTCKXETXF.NCC8ZPFJJ4","OnDemand","Shield Data Transfer out of ELB in NRT - Next 400 TB","2017-08-01","102400","512000","Bytes","0.0400000000","USD","Shield-DataTransfer","AWSShield",,,,"Asia Pacific (Tokyo)","AWS Region","External","Other","APN1-DataTransfer-Shield-Bytes",""
"EPKUPP9KAAE753HA","JRTCKXETXF","EPKUPP9KAAE753HA.JRTCKXETXF.PXJDJ3YRG3","OnDemand","Shield Data Transfer out of ELB in NRT - Above 500 TB","2017-08-01","512000","Inf","Bytes","0.0300000000","USD","Shield-DataTransfer","AWSShield",,,,"Asia Pacific (Tokyo)","AWS Region","External","Other","APN1-DataTransfer-Shield-Bytes",""
"NENYBA3GXN796KMF","JRTCKXETXF","NENYBA3GXN796KMF.JRTCKXETXF.GY4PVJM369","OnDemand","Shield Data Transfer out of ELB in DUB - First 100 TB","2017-08-01","0","102400","Bytes","0.0500000000","USD","Shield-DataTransfer","AWSShield",,,,"EU (Ireland)","AWS Region","External","Other","EU-DataTransfer-Shield-Bytes",""
"NENYBA3GXN796KMF","JRTCKXETXF","NENYBA3GXN796KMF.JRTCKXETXF.NCC8ZPFJJ4","OnDemand","Shield Data Transfer out of ELB in DUB - Next 400 TB","2017-08-01","102400","512000","Bytes","0.0400000000","USD","Shield-DataTransfer","AWSShield",,,,"EU (Ireland)","AWS Region","External","Other","EU-DataTransfer-Shield-Bytes",""
"NENYBA3GXN796KMF","JRTCKXETXF","NENYBA3GXN796KMF.JRTCKXETXF.PXJDJ3YRG3","OnDemand","Shield Data Transfer out of ELB in DUB - Above 500 TB","2017-08-01","512000","Inf","Bytes","0.0300000000","USD","Shield-DataTransfer","AWSShield",,,,"EU (Ireland)","AWS Region","External","Other","EU-DataTransfer-Shield-Bytes",""
