"FormatVersion","v1.0"
"Disclaimer","This pricing list is for informational purposes only. All prices are subject to the additional terms included in the pricing pages on http://aws.amazon.com. All Free Tier prices are also subject to the terms included at https://aws.amazon.com/free/"
"Publication Date","2017-04-19T20:19:44Z"
"Version","20170419201944"
"OfferCode","AWSSupportBusiness"
"SKU","OfferTermCode","RateCode","TermType","PriceDescription","EffectiveDate","StartingRange","EndingRange","Unit","PricePerUnit","Currency","Product Family","serviceCode","Location","Location Type","usageType","operation","Account Assistance","Architectural Review","Architecture Support","Best Practices","Case Severity/Response Times","Customer Service and Communities","Included Services","Launch Support","Operations Support","Proactive Guidance","Programmatic Case Management","Technical Support","Third-Party Software Support","Training","Who Can Open Cases"
"T53RXBYD6FDSATXT","JRTCKXETXF","T53RXBYD6FDSATXT.JRTCKXETXF.A6VD9GXV7W","OnDemand","10% of monthly AWS usage for the first $0-$10K","2013-02-01","0","10000","Dollar","0.1000000000","USD","AWSSupportBusiness","AWSSupportBusiness","Any","Other","Dollar","","Access to Customer Service","Not included","Contextual guidance based on your use-case","Access to full set of Trusted Advisor checks","Normal: < 12 hours, Low: < 24 hours","24x7 access to customer service, documentation, whitepapers, and support forums","All AWS services except Support","Infrastructure Event Management (Available for additional fee)","Not included","Not included","AWS Support API","24x7 access to Cloud Support Engineers via email, chat & phone","Interoperability & configuration guidance and troubleshooting","Not included","Unlimited contacts/Unlimited cases (IAM supported)"
"T53RXBYD6FDSATXT","JRTCKXETXF","T53RXBYD6FDSATXT.JRTCKXETXF.S3MHQJTY4S","OnDemand","7% of monthly AWS usage from $10K-$80K","2013-02-01","10000","80000","Dollar","0.0700000000","USD","AWSSupportBusiness","AWSSupportBusiness","Any","Other","Dollar","","Access to Customer Service","Not included","Contextual guidance based on your use-case","Access to full set of Trusted Advisor checks","Normal: < 12 hours, Low: < 24 hours","24x7 access to customer service, documentation, whitepapers, and support forums","All AWS services except Support","Infrastructure Event Management (Available for additional fee)","Not included","Not included","AWS Support API","24x7 access to Cloud Support Engineers via email, chat & phone","Interoperability & configuration guidance and troubleshooting","Not included","Unlimited contacts/Unlimited cases (IAM supported)"
"T53RXBYD6FDSATXT","JRTCKXETXF","T53RXBYD6FDSATXT.JRTCKXETXF.544UR9EDRX","OnDemand","5% of monthly AWS usage from $80K-$250K","2013-02-01","80000","250000","Dollar","0.0500000000","USD","AWSSupportBusiness","AWSSupportBusiness","Any","Other","Dollar","","Access to Customer Service","Not included","Contextual guidance based on your use-case","Access to full set of Trusted Advisor checks","Normal: < 12 hours, Low: < 24 hours","24x7 access to customer service, documentation, whitepapers, and support forums","All AWS services except Support","Infrastructure Event Management (Available for additional fee)","Not included","Not included","AWS Support API","24x7 access to Cloud Support Engineers via email, chat & phone","Interoperability & configuration guidance and troubleshooting","Not included","Unlimited contacts/Unlimited cases (IAM supported)"
"T53RXBYD6FDSATXT","JRTCKXETXF","T53RXBYD6FDSATXT.JRTCKXETXF.EJNSYSGUMQ","OnDemand","3% of monthly AWS usage from $250K+","2013-02-01","250000","Inf","Dollar","0.0300000000","USD","AWSSupportBusiness","AWSSupportBusiness","Any","Other","Dollar","","Access to Customer Service","Not included","Contextual guidance based on your use-case","Access to full set of Trusted Advisor checks","Normal: < 12 hours, Low: < 24 hours","24x7 access to customer service, documentation, whitepapers, and support forums","All AWS services except Support","Infrastructure Event Management (Available for additional fee)","Not included","Not included","AWS Support API","24x7 access to Cloud Support Engineers via email, chat & phone","Interoperability & configuration guidance and troubleshooting","Not included","Unlimited contacts/Unlimited cases (IAM supported)"
"T53RXBYD6FDSATXT","JRTCKXETXF","T53RXBYD6FDSATXT.JRTCKXETXF.J8BW7J3JFF","Reserved","Recurring Fee","2013-02-01",,,"Quantity","100","USD","AWSSupportBusiness","AWSSupportBusiness","Any","Other","Dollar","","Access to Customer Service","Not included","Contextual guidance based on your use-case","Access to full set of Trusted Advisor checks","Normal: < 12 hours, Low: < 24 hours","24x7 access to customer service, documentation, whitepapers, and support forums","All AWS services except Support","Infrastructure Event Management (Available for additional fee)","Not included","Not included","AWS Support API","24x7 access to Cloud Support Engineers via email, chat & phone","Interoperability & configuration guidance and troubleshooting","Not included","Unlimited contacts/Unlimited cases (IAM supported)"
