{
  "formatVersion" : "v1.0",
  "disclaimer" : "This pricing list is for informational purposes only. All prices are subject to the additional terms included in the pricing pages on http://aws.amazon.com. All Free Tier prices are also subject to the terms included at https://aws.amazon.com/free/",
  "offerCode" : "AmazonQuickSight",
  "version" : "20161227212322",
  "publicationDate" : "2016-12-27T21:23:22Z",
  "products" : {
    "CW7RVAQTZ3XDSJ2K" : {
      "sku" : "CW7RVAQTZ3XDSJ2K",
      "productFamily" : "Business Analytics",
      "attributes" : {
        "servicecode" : "AmazonQuickSight",
        "location" : "US West (Oregon)",
        "locationType" : "AWS Region",
        "group" : "SPICE Purchase",
        "groupDescription" : "Number of SPICE capacity (GB) provisioned",
        "usagetype" : "USW2-QS-Provisioned-SPICE",
        "operation" : "",
        "edition" : "Standard",
        "subscriptionType" : "Not Applicable"
      }
    },
    "96CPD4MN7Q6WKPAM" : {
      "sku" : "96CPD4MN7Q6WKPAM",
      "productFamily" : "Business Analytics",
      "attributes" : {
        "servicecode" : "AmazonQuickSight",
        "location" : "Any",
        "locationType" : "AWS Region",
        "group" : "User Subscription",
        "groupDescription" : "Number of user subscriptions in the service",
        "usagetype" : "QS-User-Standard-Month",
        "operation" : "",
        "edition" : "Standard",
        "subscriptionType" : "Monthly"
      }
    },
    "R8PKSKFCHES8YSKK" : {
      "sku" : "R8PKSKFCHES8YSKK",
      "productFamily" : "Business Analytics",
      "attributes" : {
        "servicecode" : "AmazonQuickSight",
        "location" : "US East (N. Virginia)",
        "locationType" : "AWS Region",
        "group" : "SPICE Purchase",
        "groupDescription" : "Number of SPICE capacity (GB) provisioned",
        "usagetype" : "USE1-QS-Enterprise-SPICE",
        "operation" : "",
        "edition" : "Enterprise",
        "subscriptionType" : "Not Applicable"
      }
    },
    "PG8RJ65RVGUEJ5DS" : {
      "sku" : "PG8RJ65RVGUEJ5DS",
      "productFamily" : "Business Analytics",
      "attributes" : {
        "servicecode" : "AmazonQuickSight",
        "location" : "Any",
        "locationType" : "AWS Region",
        "group" : "User Subscription",
        "groupDescription" : "Number of user subscriptions in the service",
        "usagetype" : "QS-User-Enterprise-Month",
        "operation" : "",
        "edition" : "Enterprise",
        "subscriptionType" : "Monthly"
      }
    },
    "8SGX62U3CNQPU6BE" : {
      "sku" : "8SGX62U3CNQPU6BE",
      "productFamily" : "Business Analytics",
      "attributes" : {
        "servicecode" : "AmazonQuickSight",
        "location" : "US West (Oregon)",
        "locationType" : "AWS Region",
        "group" : "SPICE Purchase",
        "groupDescription" : "Number of SPICE capacity (GB) provisioned",
        "usagetype" : "USW2-QS-Enterprise-SPICE",
        "operation" : "",
        "edition" : "Enterprise",
        "subscriptionType" : "Not Applicable"
      }
    },
    "G26TQGRFRVCT8359" : {
      "sku" : "G26TQGRFRVCT8359",
      "productFamily" : "Business Analytics",
      "attributes" : {
        "servicecode" : "AmazonQuickSight",
        "location" : "EU (Ireland)",
        "locationType" : "AWS Region",
        "group" : "SPICE Purchase",
        "groupDescription" : "Number of SPICE capacity (GB) provisioned",
        "usagetype" : "EU-QS-Provisioned-SPICE",
        "operation" : "",
        "edition" : "Standard",
        "subscriptionType" : "Not Applicable"
      }
    },
    "6PUUASV482EAS582" : {
      "sku" : "6PUUASV482EAS582",
      "productFamily" : "Business Analytics",
      "attributes" : {
        "servicecode" : "AmazonQuickSight",
        "location" : "Any",
        "locationType" : "AWS Region",
        "group" : "User Subscription",
        "groupDescription" : "Number of user subscriptions in the service",
        "usagetype" : "QS-User-Enterprise-Annual",
        "operation" : "",
        "edition" : "Enterprise",
        "subscriptionType" : "Annual"
      }
    },
    "XQ2A7SUYZX36HHCR" : {
      "sku" : "XQ2A7SUYZX36HHCR",
      "productFamily" : "Business Analytics",
      "attributes" : {
        "servicecode" : "AmazonQuickSight",
        "location" : "Any",
        "locationType" : "AWS Region",
        "group" : "User Subscription",
        "groupDescription" : "Number of user subscriptions in the service",
        "usagetype" : "QS-User-Standard-Annual",
        "operation" : "",
        "edition" : "Standard",
        "subscriptionType" : "Annual"
      }
    },
    "NZ7Q6TBMPBKHKGDB" : {
      "sku" : "NZ7Q6TBMPBKHKGDB",
      "productFamily" : "Business Analytics",
      "attributes" : {
        "servicecode" : "AmazonQuickSight",
        "location" : "EU (Ireland)",
        "locationType" : "AWS Region",
        "group" : "SPICE Purchase",
        "groupDescription" : "Number of SPICE capacity (GB) provisioned",
        "usagetype" : "EU-QS-Enterprise-SPICE",
        "operation" : "",
        "edition" : "Enterprise",
        "subscriptionType" : "Not Applicable"
      }
    },
    "T4GAEKP5WQQWCUD5" : {
      "sku" : "T4GAEKP5WQQWCUD5",
      "productFamily" : "Business Analytics",
      "attributes" : {
        "servicecode" : "AmazonQuickSight",
        "location" : "US East (N. Virginia)",
        "locationType" : "AWS Region",
        "group" : "SPICE Purchase",
        "groupDescription" : "Number of SPICE capacity (GB) provisioned",
        "usagetype" : "USE1-QS-Provisioned-SPICE",
        "operation" : "",
        "edition" : "Standard",
        "subscriptionType" : "Not Applicable"
      }
    },
    "RPCHPS89C2U6A7NP" : {
      "sku" : "RPCHPS89C2U6A7NP",
      "productFamily" : "Business Analytics",
      "attributes" : {
        "servicecode" : "AmazonQuickSight",
        "location" : "Any",
        "locationType" : "AWS Region",
        "group" : "User Subscription",
        "groupDescription" : "Number of user subscriptions in the service",
        "usagetype" : "QS-User-Free",
        "operation" : "",
        "edition" : "Free",
        "subscriptionType" : "Free"
      }
    }
  },
  "terms" : {
    "OnDemand" : {
      "CW7RVAQTZ3XDSJ2K" : {
        "CW7RVAQTZ3XDSJ2K.JRTCKXETXF" : {
          "offerTermCode" : "JRTCKXETXF",
          "sku" : "CW7RVAQTZ3XDSJ2K",
          "effectiveDate" : "2016-11-01T00:00:00Z",
          "priceDimensions" : {
            "CW7RVAQTZ3XDSJ2K.JRTCKXETXF.6YS6EN2CT7" : {
              "rateCode" : "CW7RVAQTZ3XDSJ2K.JRTCKXETXF.6YS6EN2CT7",
              "description" : "QuickSight Provisioned SPICE Capacity in us-west-2",
              "beginRange" : "0",
              "endRange" : "Inf",
              "unit" : "GB",
              "pricePerUnit" : {
                "USD" : "0.2500000000"
              },
              "appliesTo" : [ ]
            }
          },
          "termAttributes" : { }
        }
      },
      "96CPD4MN7Q6WKPAM" : {
        "96CPD4MN7Q6WKPAM.JRTCKXETXF" : {
          "offerTermCode" : "JRTCKXETXF",
          "sku" : "96CPD4MN7Q6WKPAM",
          "effectiveDate" : "2016-11-01T00:00:00Z",
          "priceDimensions" : {
            "96CPD4MN7Q6WKPAM.JRTCKXETXF.6YS6EN2CT7" : {
              "rateCode" : "96CPD4MN7Q6WKPAM.JRTCKXETXF.6YS6EN2CT7",
              "description" : "QuickSight Standard Edition User",
              "beginRange" : "0",
              "endRange" : "Inf",
              "unit" : "User",
              "pricePerUnit" : {
                "USD" : "12.0000000000"
              },
              "appliesTo" : [ ]
            }
          },
          "termAttributes" : { }
        }
      },
      "R8PKSKFCHES8YSKK" : {
        "R8PKSKFCHES8YSKK.JRTCKXETXF" : {
          "offerTermCode" : "JRTCKXETXF",
          "sku" : "R8PKSKFCHES8YSKK",
          "effectiveDate" : "2016-11-01T00:00:00Z",
          "priceDimensions" : {
            "R8PKSKFCHES8YSKK.JRTCKXETXF.6YS6EN2CT7" : {
              "rateCode" : "R8PKSKFCHES8YSKK.JRTCKXETXF.6YS6EN2CT7",
              "description" : "QuickSight Provisioned Enterprise SPICE Capacity in us-east-1",
              "beginRange" : "0",
              "endRange" : "Inf",
              "unit" : "GB",
              "pricePerUnit" : {
                "USD" : "0.3800000000"
              },
              "appliesTo" : [ ]
            }
          },
          "termAttributes" : { }
        }
      },
      "PG8RJ65RVGUEJ5DS" : {
        "PG8RJ65RVGUEJ5DS.JRTCKXETXF" : {
          "offerTermCode" : "JRTCKXETXF",
          "sku" : "PG8RJ65RVGUEJ5DS",
          "effectiveDate" : "2016-11-01T00:00:00Z",
          "priceDimensions" : {
            "PG8RJ65RVGUEJ5DS.JRTCKXETXF.6YS6EN2CT7" : {
              "rateCode" : "PG8RJ65RVGUEJ5DS.JRTCKXETXF.6YS6EN2CT7",
              "description" : "QuickSight Enterprise Edition User",
              "beginRange" : "0",
              "endRange" : "Inf",
              "unit" : "User",
              "pricePerUnit" : {
                "USD" : "24.0000000000"
              },
              "appliesTo" : [ ]
            }
          },
          "termAttributes" : { }
        }
      },
      "8SGX62U3CNQPU6BE" : {
        "8SGX62U3CNQPU6BE.JRTCKXETXF" : {
          "offerTermCode" : "JRTCKXETXF",
          "sku" : "8SGX62U3CNQPU6BE",
          "effectiveDate" : "2016-11-01T00:00:00Z",
          "priceDimensions" : {
            "8SGX62U3CNQPU6BE.JRTCKXETXF.6YS6EN2CT7" : {
              "rateCode" : "8SGX62U3CNQPU6BE.JRTCKXETXF.6YS6EN2CT7",
              "description" : "QuickSight Provisioned Enterprise SPICE Capacity in us-west-2",
              "beginRange" : "0",
              "endRange" : "Inf",
              "unit" : "GB",
              "pricePerUnit" : {
                "USD" : "0.3800000000"
              },
              "appliesTo" : [ ]
            }
          },
          "termAttributes" : { }
        }
      },
      "G26TQGRFRVCT8359" : {
        "G26TQGRFRVCT8359.JRTCKXETXF" : {
          "offerTermCode" : "JRTCKXETXF",
          "sku" : "G26TQGRFRVCT8359",
          "effectiveDate" : "2016-11-01T00:00:00Z",
          "priceDimensions" : {
            "G26TQGRFRVCT8359.JRTCKXETXF.6YS6EN2CT7" : {
              "rateCode" : "G26TQGRFRVCT8359.JRTCKXETXF.6YS6EN2CT7",
              "description" : "QuickSight Provisioned SPICE Capacity in eu-west-1",
              "beginRange" : "0",
              "endRange" : "Inf",
              "unit" : "GB",
              "pricePerUnit" : {
                "USD" : "0.2500000000"
              },
              "appliesTo" : [ ]
            }
          },
          "termAttributes" : { }
        }
      },
      "6PUUASV482EAS582" : {
        "6PUUASV482EAS582.JRTCKXETXF" : {
          "offerTermCode" : "JRTCKXETXF",
          "sku" : "6PUUASV482EAS582",
          "effectiveDate" : "2016-11-01T00:00:00Z",
          "priceDimensions" : {
            "6PUUASV482EAS582.JRTCKXETXF.6YS6EN2CT7" : {
              "rateCode" : "6PUUASV482EAS582.JRTCKXETXF.6YS6EN2CT7",
              "description" : "QuickSight Enterprise Edition User - Annual Subscription",
              "beginRange" : "0",
              "endRange" : "Inf",
              "unit" : "User",
              "pricePerUnit" : {
                "USD" : "18.0000000000"
              },
              "appliesTo" : [ ]
            }
          },
          "termAttributes" : { }
        }
      },
      "XQ2A7SUYZX36HHCR" : {
        "XQ2A7SUYZX36HHCR.JRTCKXETXF" : {
          "offerTermCode" : "JRTCKXETXF",
          "sku" : "XQ2A7SUYZX36HHCR",
          "effectiveDate" : "2016-11-01T00:00:00Z",
          "priceDimensions" : {
            "XQ2A7SUYZX36HHCR.JRTCKXETXF.6YS6EN2CT7" : {
              "rateCode" : "XQ2A7SUYZX36HHCR.JRTCKXETXF.6YS6EN2CT7",
              "description" : "QuickSight Standard Edition User - Annual Subscription",
              "beginRange" : "0",
              "endRange" : "Inf",
              "unit" : "User",
              "pricePerUnit" : {
                "USD" : "9.0000000000"
              },
              "appliesTo" : [ ]
            }
          },
          "termAttributes" : { }
        }
      },
      "NZ7Q6TBMPBKHKGDB" : {
        "NZ7Q6TBMPBKHKGDB.JRTCKXETXF" : {
          "offerTermCode" : "JRTCKXETXF",
          "sku" : "NZ7Q6TBMPBKHKGDB",
          "effectiveDate" : "2016-11-01T00:00:00Z",
          "priceDimensions" : {
            "NZ7Q6TBMPBKHKGDB.JRTCKXETXF.6YS6EN2CT7" : {
              "rateCode" : "NZ7Q6TBMPBKHKGDB.JRTCKXETXF.6YS6EN2CT7",
              "description" : "QuickSight Provisioned Enterprise SPICE Capacity in eu-west-1",
              "beginRange" : "0",
              "endRange" : "Inf",
              "unit" : "GB",
              "pricePerUnit" : {
                "USD" : "0.3800000000"
              },
              "appliesTo" : [ ]
            }
          },
          "termAttributes" : { }
        }
      },
      "T4GAEKP5WQQWCUD5" : {
        "T4GAEKP5WQQWCUD5.JRTCKXETXF" : {
          "offerTermCode" : "JRTCKXETXF",
          "sku" : "T4GAEKP5WQQWCUD5",
          "effectiveDate" : "2016-11-01T00:00:00Z",
          "priceDimensions" : {
            "T4GAEKP5WQQWCUD5.JRTCKXETXF.6YS6EN2CT7" : {
              "rateCode" : "T4GAEKP5WQQWCUD5.JRTCKXETXF.6YS6EN2CT7",
              "description" : "QuickSight Provisioned SPICE Capacity in us-east-1",
              "beginRange" : "0",
              "endRange" : "Inf",
              "unit" : "GB",
              "pricePerUnit" : {
                "USD" : "0.2500000000"
              },
              "appliesTo" : [ ]
            }
          },
          "termAttributes" : { }
        }
      },
      "RPCHPS89C2U6A7NP" : {
        "RPCHPS89C2U6A7NP.JRTCKXETXF" : {
          "offerTermCode" : "JRTCKXETXF",
          "sku" : "RPCHPS89C2U6A7NP",
          "effectiveDate" : "2016-11-01T00:00:00Z",
          "priceDimensions" : {
            "RPCHPS89C2U6A7NP.JRTCKXETXF.6YS6EN2CT7" : {
              "rateCode" : "RPCHPS89C2U6A7NP.JRTCKXETXF.6YS6EN2CT7",
              "description" : "Free QuickSight User",
              "beginRange" : "0",
              "endRange" : "Inf",
              "unit" : "User",
              "pricePerUnit" : {
                "USD" : "0.0000000000"
              },
              "appliesTo" : [ ]
            }
          },
          "termAttributes" : { }
        }
      }
    }
  }
}