{
  "formatVersion" : "v1.0",
  "disclaimer" : "This pricing list is for informational purposes only. All prices are subject to the additional terms included in the pricing pages on http://aws.amazon.com. All Free Tier prices are also subject to the terms included at https://aws.amazon.com/free/",
  "offerCode" : "AmazonRekognition",
  "version" : "20171122194408",
  "publicationDate" : "2017-11-22T19:44:08Z",
  "products" : {
    "D4GQK95E3RH695T5" : {
      "sku" : "D4GQK95E3RH695T5",
      "productFamily" : "Rekognition Storage",
      "attributes" : {
        "servicecode" : "AmazonRekognition",
        "location" : "AWS GovCloud (US)",
        "locationType" : "AWS Region",
        "group" : "Face Vector Storage",
        "groupDescription" : "Number of Face Vectors stored",
        "usagetype" : "UGW1-FaceVectorsStored",
        "operation" : "",
        "servicename" : "Amazon Rekognition"
      }
    },
    "BNVT6AWJCPFW9Z97" : {
      "sku" : "BNVT6AWJCPFW9Z97",
      "productFamily" : "Rekognition Storage",
      "attributes" : {
        "servicecode" : "AmazonRekognition",
        "location" : "EU (Ireland)",
        "locationType" : "AWS Region",
        "group" : "Face Vector Storage",
        "groupDescription" : "Number of Face Vectors stored",
        "usagetype" : "EU-FaceVectorsStored",
        "operation" : "",
        "servicename" : "Amazon Rekognition"
      }
    },
    "NUJW42GPYD7ZVSCX" : {
      "sku" : "NUJW42GPYD7ZVSCX",
      "productFamily" : "Rekognition Image API",
      "attributes" : {
        "servicecode" : "AmazonRekognition",
        "location" : "Any",
        "locationType" : "AWS Region",
        "group" : "Rekognition Image API Requests",
        "groupDescription" : "Number of images processed using DetectLabels, DetectFaces, CompareFaces, SearchByImage, DetectModerationLabels, RecognizeCelebrities, IndexFaces APIs OR Number of calls made to SearchFaceById, ListFace Rekognition Image APIs",
        "usagetype" : "Global-ImagesProcessed",
        "operation" : "",
        "servicename" : "Amazon Rekognition"
      }
    },
    "KX6JSXV69GMJWJEU" : {
      "sku" : "KX6JSXV69GMJWJEU",
      "productFamily" : "Rekognition Image API",
      "attributes" : {
        "servicecode" : "AmazonRekognition",
        "location" : "US West (Oregon)",
        "locationType" : "AWS Region",
        "group" : "Rekognition Image API Requests",
        "groupDescription" : "Number of images processed using DetectLabels, DetectFaces, CompareFaces, SearchByImage, DetectModerationLabels, RecognizeCelebrities, IndexFaces APIs OR Number of calls made to SearchFaceById, ListFace Rekognition Image APIs",
        "usagetype" : "USW2-ImagesProcessed",
        "operation" : "",
        "servicename" : "Amazon Rekognition"
      }
    },
    "2A6D7UCKFZVYXZB3" : {
      "sku" : "2A6D7UCKFZVYXZB3",
      "productFamily" : "Rekognition Storage",
      "attributes" : {
        "servicecode" : "AmazonRekognition",
        "location" : "US West (Oregon)",
        "locationType" : "AWS Region",
        "group" : "Face Vector Storage",
        "groupDescription" : "Number of Face Vectors stored",
        "usagetype" : "USW2-FaceVectorsStored",
        "operation" : "",
        "servicename" : "Amazon Rekognition"
      }
    },
    "ZTVAF6W4YKFD229P" : {
      "sku" : "ZTVAF6W4YKFD229P",
      "productFamily" : "Rekognition Image API",
      "attributes" : {
        "servicecode" : "AmazonRekognition",
        "location" : "EU (Ireland)",
        "locationType" : "AWS Region",
        "group" : "Rekognition Image API Requests",
        "groupDescription" : "Number of images processed using DetectLabels, DetectFaces, CompareFaces, SearchByImage, DetectModerationLabels, RecognizeCelebrities, IndexFaces APIs OR Number of calls made to SearchFaceById, ListFace Rekognition Image APIs",
        "usagetype" : "EUW1-ImagesProcessed",
        "operation" : "",
        "servicename" : "Amazon Rekognition"
      }
    },
    "4R796AUWKTWNVC3X" : {
      "sku" : "4R796AUWKTWNVC3X",
      "productFamily" : "Rekognition Image API",
      "attributes" : {
        "servicecode" : "AmazonRekognition",
        "location" : "US East (N. Virginia)",
        "locationType" : "AWS Region",
        "group" : "Rekognition Image API Requests",
        "groupDescription" : "Number of images processed using DetectLabels, DetectFaces, CompareFaces, SearchByImage, DetectModerationLabels, RecognizeCelebrities, IndexFaces APIs OR Number of calls made to SearchFaceById, ListFace Rekognition Image APIs",
        "usagetype" : "USE1-ImagesProcessed",
        "operation" : "",
        "servicename" : "Amazon Rekognition"
      }
    },
    "DUSW36AVMUJKQJ7C" : {
      "sku" : "DUSW36AVMUJKQJ7C",
      "productFamily" : "Rekognition Image API",
      "attributes" : {
        "servicecode" : "AmazonRekognition",
        "location" : "AWS GovCloud (US)",
        "locationType" : "AWS Region",
        "group" : "Rekognition Image API Requests",
        "groupDescription" : "Number of images processed using DetectLabels, DetectFaces, CompareFaces, SearchByImage, DetectModerationLabels, RecognizeCelebrities, IndexFaces APIs OR Number of calls made to SearchFaceById, ListFace Rekognition Image APIs",
        "usagetype" : "UGW1-ImagesProcessed",
        "operation" : "",
        "servicename" : "Amazon Rekognition"
      }
    },
    "V9SD5T6CMDRRUTWZ" : {
      "sku" : "V9SD5T6CMDRRUTWZ",
      "productFamily" : "Rekognition Storage",
      "attributes" : {
        "servicecode" : "AmazonRekognition",
        "location" : "US East (N. Virginia)",
        "locationType" : "AWS Region",
        "group" : "Face Vector Storage",
        "groupDescription" : "Number of Face Vectors stored",
        "usagetype" : "USE1-FaceVectorsStored",
        "operation" : "",
        "servicename" : "Amazon Rekognition"
      }
    },
    "DPUQC9S9CWT4F34M" : {
      "sku" : "DPUQC9S9CWT4F34M",
      "productFamily" : "Rekognition Storage",
      "attributes" : {
        "servicecode" : "AmazonRekognition",
        "location" : "Any",
        "locationType" : "AWS Region",
        "group" : "Face Vector Storage",
        "groupDescription" : "Number of Face Vectors stored",
        "usagetype" : "Global-FaceVectorsStored",
        "operation" : "",
        "servicename" : "Amazon Rekognition"
      }
    }
  },
  "terms" : {
    "OnDemand" : {
      "D4GQK95E3RH695T5" : {
        "D4GQK95E3RH695T5.JRTCKXETXF" : {
          "offerTermCode" : "JRTCKXETXF",
          "sku" : "D4GQK95E3RH695T5",
          "effectiveDate" : "2017-11-01T00:00:00Z",
          "priceDimensions" : {
            "D4GQK95E3RH695T5.JRTCKXETXF.6YS6EN2CT7" : {
              "rateCode" : "D4GQK95E3RH695T5.JRTCKXETXF.6YS6EN2CT7",
              "description" : "Storage: 0.012 USD per 1000 Faces stored per month",
              "beginRange" : "0",
              "endRange" : "Inf",
              "unit" : "Faces-Mo",
              "pricePerUnit" : {
                "USD" : "0.0000120000"
              },
              "appliesTo" : [ ]
            }
          },
          "termAttributes" : { }
        }
      },
      "BNVT6AWJCPFW9Z97" : {
        "BNVT6AWJCPFW9Z97.JRTCKXETXF" : {
          "offerTermCode" : "JRTCKXETXF",
          "sku" : "BNVT6AWJCPFW9Z97",
          "effectiveDate" : "2017-11-01T00:00:00Z",
          "priceDimensions" : {
            "BNVT6AWJCPFW9Z97.JRTCKXETXF.6YS6EN2CT7" : {
              "rateCode" : "BNVT6AWJCPFW9Z97.JRTCKXETXF.6YS6EN2CT7",
              "description" : "Storage: 0.01 USD per 1000 Faces stored per month",
              "beginRange" : "0",
              "endRange" : "Inf",
              "unit" : "Faces-Mo",
              "pricePerUnit" : {
                "USD" : "0.0000100000"
              },
              "appliesTo" : [ ]
            }
          },
          "termAttributes" : { }
        }
      },
      "NUJW42GPYD7ZVSCX" : {
        "NUJW42GPYD7ZVSCX.A429C66SYZ" : {
          "offerTermCode" : "A429C66SYZ",
          "sku" : "NUJW42GPYD7ZVSCX",
          "effectiveDate" : "2017-11-01T00:00:00Z",
          "priceDimensions" : {
            "NUJW42GPYD7ZVSCX.A429C66SYZ.RRH5GFDVRN" : {
              "rateCode" : "NUJW42GPYD7ZVSCX.A429C66SYZ.RRH5GFDVRN",
              "description" : "Images Processed: Free Tier : 0 - 5000 images processed per month, 0 USD",
              "beginRange" : "0",
              "endRange" : "5000",
              "unit" : "Images Processed",
              "pricePerUnit" : {
                "USD" : "0.0000000000"
              },
              "appliesTo" : [ "KX6JSXV69GMJWJEU", "ZTVAF6W4YKFD229P", "4R796AUWKTWNVC3X", "73GUDHAV578XZKRC", "DUSW36AVMUJKQJ7C" ]
            }
          },
          "termAttributes" : { }
        }
      },
      "KX6JSXV69GMJWJEU" : {
        "KX6JSXV69GMJWJEU.JRTCKXETXF" : {
          "offerTermCode" : "JRTCKXETXF",
          "sku" : "KX6JSXV69GMJWJEU",
          "effectiveDate" : "2017-11-01T00:00:00Z",
          "priceDimensions" : {
            "KX6JSXV69GMJWJEU.JRTCKXETXF.F83EQNDM5J" : {
              "rateCode" : "KX6JSXV69GMJWJEU.JRTCKXETXF.F83EQNDM5J",
              "description" : "Images Processed: 100MM+ images processed per month, 0.40 USD per 1000 images per 1000 images processed.",
              "beginRange" : "100000000",
              "endRange" : "Inf",
              "unit" : "Images Processed",
              "pricePerUnit" : {
                "USD" : "0.0004000000"
              },
              "appliesTo" : [ ]
            },
            "KX6JSXV69GMJWJEU.JRTCKXETXF.RTKVR6ZK95" : {
              "rateCode" : "KX6JSXV69GMJWJEU.JRTCKXETXF.RTKVR6ZK95",
              "description" : "Images Processed: 10,000,001 - 100MM images processed per month, 0.60 USD per 1000 images per 1000 images processed.",
              "beginRange" : "10000000",
              "endRange" : "100000000",
              "unit" : "Images Processed",
              "pricePerUnit" : {
                "USD" : "0.0006000000"
              },
              "appliesTo" : [ ]
            },
            "KX6JSXV69GMJWJEU.JRTCKXETXF.SB2VSFF4TP" : {
              "rateCode" : "KX6JSXV69GMJWJEU.JRTCKXETXF.SB2VSFF4TP",
              "description" : "Images Processed: 5001 - 1 MM images processed per month, 1.00 USD per 1000 images processed.",
              "beginRange" : "0",
              "endRange" : "1000000",
              "unit" : "Images Processed",
              "pricePerUnit" : {
                "USD" : "0.0010000000"
              },
              "appliesTo" : [ ]
            },
            "KX6JSXV69GMJWJEU.JRTCKXETXF.H9V8AVEXGG" : {
              "rateCode" : "KX6JSXV69GMJWJEU.JRTCKXETXF.H9V8AVEXGG",
              "description" : "Images Processed: 1,000,001 - 10 MM images processed per month, 0.80 USD per 1000 images processed.",
              "beginRange" : "1000000",
              "endRange" : "10000000",
              "unit" : "Images Processed",
              "pricePerUnit" : {
                "USD" : "0.0008000000"
              },
              "appliesTo" : [ ]
            }
          },
          "termAttributes" : { }
        }
      },
      "2A6D7UCKFZVYXZB3" : {
        "2A6D7UCKFZVYXZB3.JRTCKXETXF" : {
          "offerTermCode" : "JRTCKXETXF",
          "sku" : "2A6D7UCKFZVYXZB3",
          "effectiveDate" : "2017-11-01T00:00:00Z",
          "priceDimensions" : {
            "2A6D7UCKFZVYXZB3.JRTCKXETXF.6YS6EN2CT7" : {
              "rateCode" : "2A6D7UCKFZVYXZB3.JRTCKXETXF.6YS6EN2CT7",
              "description" : "Storage: 0.01 USD per 1000 Faces stored per month.",
              "beginRange" : "0",
              "endRange" : "Inf",
              "unit" : "Faces-Mo",
              "pricePerUnit" : {
                "USD" : "0.0000100000"
              },
              "appliesTo" : [ ]
            }
          },
          "termAttributes" : { }
        }
      },
      "ZTVAF6W4YKFD229P" : {
        "ZTVAF6W4YKFD229P.JRTCKXETXF" : {
          "offerTermCode" : "JRTCKXETXF",
          "sku" : "ZTVAF6W4YKFD229P",
          "effectiveDate" : "2017-11-01T00:00:00Z",
          "priceDimensions" : {
            "ZTVAF6W4YKFD229P.JRTCKXETXF.SB2VSFF4TP" : {
              "rateCode" : "ZTVAF6W4YKFD229P.JRTCKXETXF.SB2VSFF4TP",
              "description" : "Images Processed: 5001 - 1 MM images processed per month, 1.00 USD per 1000 images processed.",
              "beginRange" : "0",
              "endRange" : "1000000",
              "unit" : "Images Processed",
              "pricePerUnit" : {
                "USD" : "0.0010000000"
              },
              "appliesTo" : [ ]
            },
            "ZTVAF6W4YKFD229P.JRTCKXETXF.F83EQNDM5J" : {
              "rateCode" : "ZTVAF6W4YKFD229P.JRTCKXETXF.F83EQNDM5J",
              "description" : "Images Processed: 100MM+ images processed per month, 0.40 USD per 1000 images per 1000 images processed.",
              "beginRange" : "100000000",
              "endRange" : "Inf",
              "unit" : "Images Processed",
              "pricePerUnit" : {
                "USD" : "0.0004000000"
              },
              "appliesTo" : [ ]
            },
            "ZTVAF6W4YKFD229P.JRTCKXETXF.H9V8AVEXGG" : {
              "rateCode" : "ZTVAF6W4YKFD229P.JRTCKXETXF.H9V8AVEXGG",
              "description" : "Images Processed: 1,000,001 - 10 MM images processed per month, 0.80 USD per 1000 images processed.",
              "beginRange" : "1000000",
              "endRange" : "10000000",
              "unit" : "Images Processed",
              "pricePerUnit" : {
                "USD" : "0.0008000000"
              },
              "appliesTo" : [ ]
            },
            "ZTVAF6W4YKFD229P.JRTCKXETXF.RTKVR6ZK95" : {
              "rateCode" : "ZTVAF6W4YKFD229P.JRTCKXETXF.RTKVR6ZK95",
              "description" : "Images Processed: 10,000,001 - 100MM images processed per month, 0.60 USD per 1000 images per 1000 images processed.",
              "beginRange" : "10000000",
              "endRange" : "100000000",
              "unit" : "Images Processed",
              "pricePerUnit" : {
                "USD" : "0.0006000000"
              },
              "appliesTo" : [ ]
            }
          },
          "termAttributes" : { }
        }
      },
      "4R796AUWKTWNVC3X" : {
        "4R796AUWKTWNVC3X.JRTCKXETXF" : {
          "offerTermCode" : "JRTCKXETXF",
          "sku" : "4R796AUWKTWNVC3X",
          "effectiveDate" : "2017-11-01T00:00:00Z",
          "priceDimensions" : {
            "4R796AUWKTWNVC3X.JRTCKXETXF.H9V8AVEXGG" : {
              "rateCode" : "4R796AUWKTWNVC3X.JRTCKXETXF.H9V8AVEXGG",
              "description" : "Images Processed: 1,000,001 - 10 MM images processed per month, 0.80 USD per 1000 images processed.",
              "beginRange" : "1000000",
              "endRange" : "10000000",
              "unit" : "Images Processed",
              "pricePerUnit" : {
                "USD" : "0.0008000000"
              },
              "appliesTo" : [ ]
            },
            "4R796AUWKTWNVC3X.JRTCKXETXF.RTKVR6ZK95" : {
              "rateCode" : "4R796AUWKTWNVC3X.JRTCKXETXF.RTKVR6ZK95",
              "description" : "Images Processed: 10,000,001 - 100MM images processed per month, 0.60 USD per 1000 images per 1000 images processed.",
              "beginRange" : "10000000",
              "endRange" : "100000000",
              "unit" : "Images Processed",
              "pricePerUnit" : {
                "USD" : "0.0006000000"
              },
              "appliesTo" : [ ]
            },
            "4R796AUWKTWNVC3X.JRTCKXETXF.F83EQNDM5J" : {
              "rateCode" : "4R796AUWKTWNVC3X.JRTCKXETXF.F83EQNDM5J",
              "description" : "Images Processed: 100MM+ images processed per month, 0.40 USD per 1000 images per 1000 images processed.",
              "beginRange" : "100000000",
              "endRange" : "Inf",
              "unit" : "Images Processed",
              "pricePerUnit" : {
                "USD" : "0.0004000000"
              },
              "appliesTo" : [ ]
            },
            "4R796AUWKTWNVC3X.JRTCKXETXF.SB2VSFF4TP" : {
              "rateCode" : "4R796AUWKTWNVC3X.JRTCKXETXF.SB2VSFF4TP",
              "description" : "Images Processed: 5001 - 1 MM images processed per month, 1.00 USD per 1000 images processed.",
              "beginRange" : "0",
              "endRange" : "1000000",
              "unit" : "Images Processed",
              "pricePerUnit" : {
                "USD" : "0.0010000000"
              },
              "appliesTo" : [ ]
            }
          },
          "termAttributes" : { }
        }
      },
      "DUSW36AVMUJKQJ7C" : {
        "DUSW36AVMUJKQJ7C.JRTCKXETXF" : {
          "offerTermCode" : "JRTCKXETXF",
          "sku" : "DUSW36AVMUJKQJ7C",
          "effectiveDate" : "2017-11-01T00:00:00Z",
          "priceDimensions" : {
            "DUSW36AVMUJKQJ7C.JRTCKXETXF.SB2VSFF4TP" : {
              "rateCode" : "DUSW36AVMUJKQJ7C.JRTCKXETXF.SB2VSFF4TP",
              "description" : "Images Processed: 5001 - 1 MM images processed per month, 1.20 USD per 1000 images processed.",
              "beginRange" : "0",
              "endRange" : "1000000",
              "unit" : "Images Processed",
              "pricePerUnit" : {
                "USD" : "0.0012000000"
              },
              "appliesTo" : [ ]
            },
            "DUSW36AVMUJKQJ7C.JRTCKXETXF.F83EQNDM5J" : {
              "rateCode" : "DUSW36AVMUJKQJ7C.JRTCKXETXF.F83EQNDM5J",
              "description" : "Images Processed: 100MM+ images processed per month, 0.48 USD per 1000 images per 1000 images processed.",
              "beginRange" : "100000000",
              "endRange" : "Inf",
              "unit" : "Images Processed",
              "pricePerUnit" : {
                "USD" : "0.0004800000"
              },
              "appliesTo" : [ ]
            },
            "DUSW36AVMUJKQJ7C.JRTCKXETXF.H9V8AVEXGG" : {
              "rateCode" : "DUSW36AVMUJKQJ7C.JRTCKXETXF.H9V8AVEXGG",
              "description" : "Images Processed: 1,000,001 - 10 MM images processed per month, 0.96 USD per 1000 images processed.",
              "beginRange" : "1000000",
              "endRange" : "10000000",
              "unit" : "Images Processed",
              "pricePerUnit" : {
                "USD" : "0.0009600000"
              },
              "appliesTo" : [ ]
            },
            "DUSW36AVMUJKQJ7C.JRTCKXETXF.RTKVR6ZK95" : {
              "rateCode" : "DUSW36AVMUJKQJ7C.JRTCKXETXF.RTKVR6ZK95",
              "description" : "Images Processed: 10,000,001 - 100MM images processed per month, 0.72 USD per 1000 images per 1000 images processed.",
              "beginRange" : "10000000",
              "endRange" : "100000000",
              "unit" : "Images Processed",
              "pricePerUnit" : {
                "USD" : "0.0007200000"
              },
              "appliesTo" : [ ]
            }
          },
          "termAttributes" : { }
        }
      },
      "V9SD5T6CMDRRUTWZ" : {
        "V9SD5T6CMDRRUTWZ.JRTCKXETXF" : {
          "offerTermCode" : "JRTCKXETXF",
          "sku" : "V9SD5T6CMDRRUTWZ",
          "effectiveDate" : "2017-11-01T00:00:00Z",
          "priceDimensions" : {
            "V9SD5T6CMDRRUTWZ.JRTCKXETXF.6YS6EN2CT7" : {
              "rateCode" : "V9SD5T6CMDRRUTWZ.JRTCKXETXF.6YS6EN2CT7",
              "description" : "Storage: 0.01 USD per 1000 Faces stored per month.",
              "beginRange" : "0",
              "endRange" : "Inf",
              "unit" : "Faces-Mo",
              "pricePerUnit" : {
                "USD" : "0.0000100000"
              },
              "appliesTo" : [ ]
            }
          },
          "termAttributes" : { }
        }
      },
      "DPUQC9S9CWT4F34M" : {
        "DPUQC9S9CWT4F34M.A429C66SYZ" : {
          "offerTermCode" : "A429C66SYZ",
          "sku" : "DPUQC9S9CWT4F34M",
          "effectiveDate" : "2017-11-01T00:00:00Z",
          "priceDimensions" : {
            "DPUQC9S9CWT4F34M.A429C66SYZ.JXGPBPHWFF" : {
              "rateCode" : "DPUQC9S9CWT4F34M.A429C66SYZ.JXGPBPHWFF",
              "description" : "Storage: Free Tier : 0 - 1000 Faces stored per month, 0 USD",
              "beginRange" : "0",
              "endRange" : "1000",
              "unit" : "Faces-Mo",
              "pricePerUnit" : {
                "USD" : "0.0000000000"
              },
              "appliesTo" : [ "UZZCAAY4PP2T4GT2", "BNVT6AWJCPFW9Z97", "D4GQK95E3RH695T5", "2A6D7UCKFZVYXZB3", "V9SD5T6CMDRRUTWZ" ]
            }
          },
          "termAttributes" : { }
        }
      }
    }
  }
}