{
  "formatVersion" : "v1.0",
  "disclaimer" : "This pricing list is for informational purposes only. All prices are subject to the additional terms included in the pricing pages on http://aws.amazon.com. All Free Tier prices are also subject to the terms included at https://aws.amazon.com/free/",
  "offerCode" : "AmazonRoute53",
  "version" : "20170913183459",
  "publicationDate" : "2017-09-13T18:34:59Z",
  "products" : {
    "YJCMHEVB65XFW3GS" : {
      "sku" : "YJCMHEVB65XFW3GS",
      "productFamily" : "DNS Query",
      "attributes" : {
        "servicecode" : "AmazonRoute53",
        "routingType" : "Geoproximity",
        "routingTarget" : "External",
        "usagetype" : "Geo-Proximity-Queries",
        "operation" : "",
        "servicename" : "Amazon Route 53"
      }
    },
    "GFSDHARN4P5AGZQ7" : {
      "sku" : "GFSDHARN4P5AGZQ7",
      "productFamily" : "DNS Query",
      "attributes" : {
        "servicecode" : "AmazonRoute53",
        "routingType" : "Latency Based Routing",
        "routingTarget" : "AWS Infrastructure",
        "usagetype" : "Intra-AWS-LBR-Queries",
        "operation" : "",
        "servicename" : "Amazon Route 53"
      }
    },
    "MBK2VE4BV4W7GVGK" : {
      "sku" : "MBK2VE4BV4W7GVGK",
      "productFamily" : "DNS Health Check",
      "attributes" : {
        "servicecode" : "AmazonRoute53",
        "resourceEndpoint" : "External (Non-AWS)",
        "group" : "Route53-Optional",
        "groupDescription" : "Optional Health Check Features",
        "usagetype" : "Health-Check-Option-Non-AWS",
        "operation" : "",
        "servicename" : "Amazon Route 53"
      }
    },
    "KVPGEJE88UW8S779" : {
      "sku" : "KVPGEJE88UW8S779",
      "productFamily" : "DNS Zone",
      "attributes" : {
        "servicecode" : "AmazonRoute53",
        "description" : "Route53 Hosted Zone",
        "usagetype" : "HostedZone",
        "operation" : "",
        "servicename" : "Amazon Route 53"
      }
    },
    "HJ8NVG37UFQMS3M3" : {
      "sku" : "HJ8NVG37UFQMS3M3",
      "productFamily" : "DNS Query",
      "attributes" : {
        "servicecode" : "AmazonRoute53",
        "routingType" : "Geoproximity",
        "routingTarget" : "AWS Infrastructure",
        "usagetype" : "Intra-AWS-Geo-Proximity-Queries",
        "operation" : "",
        "servicename" : "Amazon Route 53"
      }
    },
    "SJ2RJA9FC4AMHVM9" : {
      "sku" : "SJ2RJA9FC4AMHVM9",
      "productFamily" : "DNS Query",
      "attributes" : {
        "servicecode" : "AmazonRoute53",
        "routingType" : "Standard",
        "routingTarget" : "AWS Infrastructure",
        "usagetype" : "Intra-AWS-DNS-Queries",
        "operation" : "",
        "servicename" : "Amazon Route 53"
      }
    },
    "JHRA6QBEDT9FZVT5" : {
      "sku" : "JHRA6QBEDT9FZVT5",
      "productFamily" : "DNS Query",
      "attributes" : {
        "servicecode" : "AmazonRoute53",
        "routingType" : "Standard",
        "routingTarget" : "External",
        "usagetype" : "DNS-Queries",
        "operation" : "",
        "servicename" : "Amazon Route 53"
      }
    },
    "URRRFRNVRT3XZBG6" : {
      "sku" : "URRRFRNVRT3XZBG6",
      "productFamily" : "DNS Health Check",
      "attributes" : {
        "servicecode" : "AmazonRoute53",
        "resourceEndpoint" : "AWS",
        "group" : "Route53-Basic",
        "groupDescription" : "Basic Health checks",
        "usagetype" : "Health-Check-AWS",
        "operation" : "",
        "servicename" : "Amazon Route 53"
      }
    },
    "T9BUZ8SXFA6XMDPT" : {
      "sku" : "T9BUZ8SXFA6XMDPT",
      "productFamily" : "DNS Health Check",
      "attributes" : {
        "servicecode" : "AmazonRoute53",
        "resourceEndpoint" : "AWS",
        "group" : "Route53-Optional",
        "groupDescription" : "Optional Health Check Features",
        "usagetype" : "Health-Check-Option-AWS",
        "operation" : "",
        "servicename" : "Amazon Route 53"
      }
    },
    "EYUFFNGJ6B6EEPX3" : {
      "sku" : "EYUFFNGJ6B6EEPX3",
      "productFamily" : "DNS Health Check",
      "attributes" : {
        "servicecode" : "AmazonRoute53",
        "resourceEndpoint" : "External (Non-AWS)",
        "group" : "Route53-Basic",
        "groupDescription" : "Basic Health checks",
        "usagetype" : "Health-Check-Non-AWS",
        "operation" : "",
        "servicename" : "Amazon Route 53"
      }
    },
    "MUGMYDSYDBHT39ZE" : {
      "sku" : "MUGMYDSYDBHT39ZE",
      "productFamily" : "DNS Query",
      "attributes" : {
        "servicecode" : "AmazonRoute53",
        "routingType" : "Geo DNS",
        "routingTarget" : "AWS Infrastructure",
        "usagetype" : "Intra-AWS-Geo-Queries",
        "operation" : "",
        "servicename" : "Amazon Route 53"
      }
    },
    "2BC8RBBYQW6CCJUF" : {
      "sku" : "2BC8RBBYQW6CCJUF",
      "productFamily" : "DNS Query",
      "attributes" : {
        "servicecode" : "AmazonRoute53",
        "routingType" : "Geo DNS",
        "routingTarget" : "External",
        "usagetype" : "Geo-Queries",
        "operation" : "",
        "servicename" : "Amazon Route 53"
      }
    },
    "ME4YY7SKGMB4Z343" : {
      "sku" : "ME4YY7SKGMB4Z343",
      "attributes" : {
        "servicecode" : "AmazonRoute53",
        "location" : "Any",
        "locationType" : "AWS Region",
        "group" : "TrafficFlow-Basic",
        "groupDescription" : "Basic Traffic Flow Routing",
        "usagetype" : "Traffic-Flow-Policy-Records",
        "operation" : "",
        "servicename" : "Amazon Route 53"
      }
    },
    "K5DP4A2QJU976SZ8" : {
      "sku" : "K5DP4A2QJU976SZ8",
      "productFamily" : "DNS Query",
      "attributes" : {
        "servicecode" : "AmazonRoute53",
        "routingType" : "Latency Based Routing",
        "routingTarget" : "External",
        "usagetype" : "LBR-Queries",
        "operation" : "",
        "servicename" : "Amazon Route 53"
      }
    }
  },
  "terms" : {
    "OnDemand" : {
      "YJCMHEVB65XFW3GS" : {
        "YJCMHEVB65XFW3GS.JRTCKXETXF" : {
          "offerTermCode" : "JRTCKXETXF",
          "sku" : "YJCMHEVB65XFW3GS",
          "effectiveDate" : "2017-09-01T00:00:00Z",
          "priceDimensions" : {
            "YJCMHEVB65XFW3GS.JRTCKXETXF.AGD8ADSNTG" : {
              "rateCode" : "YJCMHEVB65XFW3GS.JRTCKXETXF.AGD8ADSNTG",
              "description" : "$0.35 per 1,000,000 Geoproximity queries over 1 Billion Geoproximity queries",
              "beginRange" : "1000000000",
              "endRange" : "Inf",
              "unit" : "Request",
              "pricePerUnit" : {
                "USD" : "0.0000003500"
              },
              "appliesTo" : [ ]
            },
            "YJCMHEVB65XFW3GS.JRTCKXETXF.ZN357FEBCK" : {
              "rateCode" : "YJCMHEVB65XFW3GS.JRTCKXETXF.ZN357FEBCK",
              "description" : "$0.70 per 1,000,000 Geoproximity queries for the first 1 Billion Geoproximity queries",
              "beginRange" : "0",
              "endRange" : "1000000000",
              "unit" : "Request",
              "pricePerUnit" : {
                "USD" : "0.0000007000"
              },
              "appliesTo" : [ ]
            }
          },
          "termAttributes" : { }
        }
      },
      "GFSDHARN4P5AGZQ7" : {
        "GFSDHARN4P5AGZQ7.JRTCKXETXF" : {
          "offerTermCode" : "JRTCKXETXF",
          "sku" : "GFSDHARN4P5AGZQ7",
          "effectiveDate" : "2017-09-01T00:00:00Z",
          "priceDimensions" : {
            "GFSDHARN4P5AGZQ7.JRTCKXETXF.6YS6EN2CT7" : {
              "rateCode" : "GFSDHARN4P5AGZQ7.JRTCKXETXF.6YS6EN2CT7",
              "description" : "Queries to LBR Alias records are free of charge",
              "beginRange" : "0",
              "endRange" : "Inf",
              "unit" : "Queries",
              "pricePerUnit" : {
                "USD" : "0.0000000000"
              },
              "appliesTo" : [ ]
            }
          },
          "termAttributes" : { }
        }
      },
      "MBK2VE4BV4W7GVGK" : {
        "MBK2VE4BV4W7GVGK.JRTCKXETXF" : {
          "offerTermCode" : "JRTCKXETXF",
          "sku" : "MBK2VE4BV4W7GVGK",
          "effectiveDate" : "2017-09-01T00:00:00Z",
          "priceDimensions" : {
            "MBK2VE4BV4W7GVGK.JRTCKXETXF.6YS6EN2CT7" : {
              "rateCode" : "MBK2VE4BV4W7GVGK.JRTCKXETXF.6YS6EN2CT7",
              "description" : "$2.00 per optional feature for Health Checks of non-AWS endpoints",
              "beginRange" : "0",
              "endRange" : "Inf",
              "unit" : "Mo",
              "pricePerUnit" : {
                "USD" : "2.0000000000"
              },
              "appliesTo" : [ ]
            }
          },
          "termAttributes" : { }
        }
      },
      "KVPGEJE88UW8S779" : {
        "KVPGEJE88UW8S779.JRTCKXETXF" : {
          "offerTermCode" : "JRTCKXETXF",
          "sku" : "KVPGEJE88UW8S779",
          "effectiveDate" : "2017-09-01T00:00:00Z",
          "priceDimensions" : {
            "KVPGEJE88UW8S779.JRTCKXETXF.G2A93NZ7DT" : {
              "rateCode" : "KVPGEJE88UW8S779.JRTCKXETXF.G2A93NZ7DT",
              "description" : "$0.50 per Hosted Zone for the first 25 Hosted Zones",
              "beginRange" : "0",
              "endRange" : "25",
              "unit" : "HostedZone",
              "pricePerUnit" : {
                "USD" : "0.5000000000"
              },
              "appliesTo" : [ ]
            },
            "KVPGEJE88UW8S779.JRTCKXETXF.VYAP54KATQ" : {
              "rateCode" : "KVPGEJE88UW8S779.JRTCKXETXF.VYAP54KATQ",
              "description" : "$0.10 per Hosted Zone for additional Hosted Zones",
              "beginRange" : "25",
              "endRange" : "Inf",
              "unit" : "HostedZone",
              "pricePerUnit" : {
                "USD" : "0.1000000000"
              },
              "appliesTo" : [ ]
            }
          },
          "termAttributes" : { }
        }
      },
      "HJ8NVG37UFQMS3M3" : {
        "HJ8NVG37UFQMS3M3.JRTCKXETXF" : {
          "offerTermCode" : "JRTCKXETXF",
          "sku" : "HJ8NVG37UFQMS3M3",
          "effectiveDate" : "2017-09-01T00:00:00Z",
          "priceDimensions" : {
            "HJ8NVG37UFQMS3M3.JRTCKXETXF.6YS6EN2CT7" : {
              "rateCode" : "HJ8NVG37UFQMS3M3.JRTCKXETXF.6YS6EN2CT7",
              "description" : "Queries to Geoproximity Alias records are free of charge",
              "beginRange" : "0",
              "endRange" : "Inf",
              "unit" : "Request",
              "pricePerUnit" : {
                "USD" : "0.0000000000"
              },
              "appliesTo" : [ ]
            }
          },
          "termAttributes" : { }
        }
      },
      "SJ2RJA9FC4AMHVM9" : {
        "SJ2RJA9FC4AMHVM9.JRTCKXETXF" : {
          "offerTermCode" : "JRTCKXETXF",
          "sku" : "SJ2RJA9FC4AMHVM9",
          "effectiveDate" : "2017-09-01T00:00:00Z",
          "priceDimensions" : {
            "SJ2RJA9FC4AMHVM9.JRTCKXETXF.6YS6EN2CT7" : {
              "rateCode" : "SJ2RJA9FC4AMHVM9.JRTCKXETXF.6YS6EN2CT7",
              "description" : "Queries to Alias records are free of charge",
              "beginRange" : "0",
              "endRange" : "Inf",
              "unit" : "Queries",
              "pricePerUnit" : {
                "USD" : "0.0000000000"
              },
              "appliesTo" : [ ]
            }
          },
          "termAttributes" : { }
        }
      },
      "JHRA6QBEDT9FZVT5" : {
        "JHRA6QBEDT9FZVT5.JRTCKXETXF" : {
          "offerTermCode" : "JRTCKXETXF",
          "sku" : "JHRA6QBEDT9FZVT5",
          "effectiveDate" : "2017-09-01T00:00:00Z",
          "priceDimensions" : {
            "JHRA6QBEDT9FZVT5.JRTCKXETXF.ZN357FEBCK" : {
              "rateCode" : "JHRA6QBEDT9FZVT5.JRTCKXETXF.ZN357FEBCK",
              "description" : "$0.40 per 1,000,000 queries for the first 1 Billion queries",
              "beginRange" : "0",
              "endRange" : "1000000000",
              "unit" : "Queries",
              "pricePerUnit" : {
                "USD" : "0.0000004000"
              },
              "appliesTo" : [ ]
            },
            "JHRA6QBEDT9FZVT5.JRTCKXETXF.AGD8ADSNTG" : {
              "rateCode" : "JHRA6QBEDT9FZVT5.JRTCKXETXF.AGD8ADSNTG",
              "description" : "$0.20 per 1,000,000 queries over 1 Billion queries",
              "beginRange" : "1000000000",
              "endRange" : "Inf",
              "unit" : "Queries",
              "pricePerUnit" : {
                "USD" : "0.0000002000"
              },
              "appliesTo" : [ ]
            }
          },
          "termAttributes" : { }
        }
      },
      "URRRFRNVRT3XZBG6" : {
        "URRRFRNVRT3XZBG6.JRTCKXETXF" : {
          "offerTermCode" : "JRTCKXETXF",
          "sku" : "URRRFRNVRT3XZBG6",
          "effectiveDate" : "2017-09-01T00:00:00Z",
          "priceDimensions" : {
            "URRRFRNVRT3XZBG6.JRTCKXETXF.HVPRRUAXWE" : {
              "rateCode" : "URRRFRNVRT3XZBG6.JRTCKXETXF.HVPRRUAXWE",
              "description" : "$0.50 per Health Check for additional Health Checks of AWS endpoints",
              "beginRange" : "50",
              "endRange" : "Inf",
              "unit" : "Mo",
              "pricePerUnit" : {
                "USD" : "0.5000000000"
              },
              "appliesTo" : [ ]
            },
            "URRRFRNVRT3XZBG6.JRTCKXETXF.ZRBZXHZTV5" : {
              "rateCode" : "URRRFRNVRT3XZBG6.JRTCKXETXF.ZRBZXHZTV5",
              "description" : "First 50 Health Checks of AWS endpoints are free of charge",
              "beginRange" : "0",
              "endRange" : "50",
              "unit" : "Mo",
              "pricePerUnit" : {
                "USD" : "0.0000000000"
              },
              "appliesTo" : [ ]
            }
          },
          "termAttributes" : { }
        }
      },
      "T9BUZ8SXFA6XMDPT" : {
        "T9BUZ8SXFA6XMDPT.JRTCKXETXF" : {
          "offerTermCode" : "JRTCKXETXF",
          "sku" : "T9BUZ8SXFA6XMDPT",
          "effectiveDate" : "2017-09-01T00:00:00Z",
          "priceDimensions" : {
            "T9BUZ8SXFA6XMDPT.JRTCKXETXF.6YS6EN2CT7" : {
              "rateCode" : "T9BUZ8SXFA6XMDPT.JRTCKXETXF.6YS6EN2CT7",
              "description" : "$1.00 per optional feature for Health Checks of AWS endpoints",
              "beginRange" : "0",
              "endRange" : "Inf",
              "unit" : "Mo",
              "pricePerUnit" : {
                "USD" : "1.0000000000"
              },
              "appliesTo" : [ ]
            }
          },
          "termAttributes" : { }
        }
      },
      "EYUFFNGJ6B6EEPX3" : {
        "EYUFFNGJ6B6EEPX3.JRTCKXETXF" : {
          "offerTermCode" : "JRTCKXETXF",
          "sku" : "EYUFFNGJ6B6EEPX3",
          "effectiveDate" : "2017-09-01T00:00:00Z",
          "priceDimensions" : {
            "EYUFFNGJ6B6EEPX3.JRTCKXETXF.6YS6EN2CT7" : {
              "rateCode" : "EYUFFNGJ6B6EEPX3.JRTCKXETXF.6YS6EN2CT7",
              "description" : "$0.75 per Health Check for Health Checks of non-AWS endpoints",
              "beginRange" : "0",
              "endRange" : "Inf",
              "unit" : "Mo",
              "pricePerUnit" : {
                "USD" : "0.7500000000"
              },
              "appliesTo" : [ ]
            }
          },
          "termAttributes" : { }
        }
      },
      "MUGMYDSYDBHT39ZE" : {
        "MUGMYDSYDBHT39ZE.JRTCKXETXF" : {
          "offerTermCode" : "JRTCKXETXF",
          "sku" : "MUGMYDSYDBHT39ZE",
          "effectiveDate" : "2017-09-01T00:00:00Z",
          "priceDimensions" : {
            "MUGMYDSYDBHT39ZE.JRTCKXETXF.6YS6EN2CT7" : {
              "rateCode" : "MUGMYDSYDBHT39ZE.JRTCKXETXF.6YS6EN2CT7",
              "description" : "Queries to Geo Alias records are free of charge",
              "beginRange" : "0",
              "endRange" : "Inf",
              "unit" : "Queries",
              "pricePerUnit" : {
                "USD" : "0.0000000000"
              },
              "appliesTo" : [ ]
            }
          },
          "termAttributes" : { }
        }
      },
      "2BC8RBBYQW6CCJUF" : {
        "2BC8RBBYQW6CCJUF.JRTCKXETXF" : {
          "offerTermCode" : "JRTCKXETXF",
          "sku" : "2BC8RBBYQW6CCJUF",
          "effectiveDate" : "2017-09-01T00:00:00Z",
          "priceDimensions" : {
            "2BC8RBBYQW6CCJUF.JRTCKXETXF.ZN357FEBCK" : {
              "rateCode" : "2BC8RBBYQW6CCJUF.JRTCKXETXF.ZN357FEBCK",
              "description" : "$0.70 per 1,000,000 Geo queries for the first 1 Billion Geo queries",
              "beginRange" : "0",
              "endRange" : "1000000000",
              "unit" : "Queries",
              "pricePerUnit" : {
                "USD" : "0.0000007000"
              },
              "appliesTo" : [ ]
            },
            "2BC8RBBYQW6CCJUF.JRTCKXETXF.AGD8ADSNTG" : {
              "rateCode" : "2BC8RBBYQW6CCJUF.JRTCKXETXF.AGD8ADSNTG",
              "description" : "$0.35 per 1,000,000 Geo queries over 1 Billion Geo queries",
              "beginRange" : "1000000000",
              "endRange" : "Inf",
              "unit" : "Queries",
              "pricePerUnit" : {
                "USD" : "0.0000003500"
              },
              "appliesTo" : [ ]
            }
          },
          "termAttributes" : { }
        }
      },
      "ME4YY7SKGMB4Z343" : {
        "ME4YY7SKGMB4Z343.JRTCKXETXF" : {
          "offerTermCode" : "JRTCKXETXF",
          "sku" : "ME4YY7SKGMB4Z343",
          "effectiveDate" : "2017-09-01T00:00:00Z",
          "priceDimensions" : {
            "ME4YY7SKGMB4Z343.JRTCKXETXF.6YS6EN2CT7" : {
              "rateCode" : "ME4YY7SKGMB4Z343.JRTCKXETXF.6YS6EN2CT7",
              "description" : "$50.00 per Traffic Flow Policy Record",
              "beginRange" : "0",
              "endRange" : "Inf",
              "unit" : "Mo",
              "pricePerUnit" : {
                "USD" : "50.0000000000"
              },
              "appliesTo" : [ ]
            }
          },
          "termAttributes" : { }
        }
      },
      "K5DP4A2QJU976SZ8" : {
        "K5DP4A2QJU976SZ8.JRTCKXETXF" : {
          "offerTermCode" : "JRTCKXETXF",
          "sku" : "K5DP4A2QJU976SZ8",
          "effectiveDate" : "2017-09-01T00:00:00Z",
          "priceDimensions" : {
            "K5DP4A2QJU976SZ8.JRTCKXETXF.ZN357FEBCK" : {
              "rateCode" : "K5DP4A2QJU976SZ8.JRTCKXETXF.ZN357FEBCK",
              "description" : "$0.60 per 1,000,000 LBR queries for the first 1 Billion LBR queries",
              "beginRange" : "0",
              "endRange" : "1000000000",
              "unit" : "Queries",
              "pricePerUnit" : {
                "USD" : "0.0000006000"
              },
              "appliesTo" : [ ]
            },
            "K5DP4A2QJU976SZ8.JRTCKXETXF.AGD8ADSNTG" : {
              "rateCode" : "K5DP4A2QJU976SZ8.JRTCKXETXF.AGD8ADSNTG",
              "description" : "$0.30 per 1,000,000 LBR queries over 1 Billion LBR queries",
              "beginRange" : "1000000000",
              "endRange" : "Inf",
              "unit" : "Queries",
              "pricePerUnit" : {
                "USD" : "0.0000003000"
              },
              "appliesTo" : [ ]
            }
          },
          "termAttributes" : { }
        }
      }
    }
  }
}