{
  "formatVersion" : "v1.0",
  "disclaimer" : "This pricing list is for informational purposes only. All prices are subject to the additional terms included in the pricing pages on http://aws.amazon.com. All Free Tier prices are also subject to the terms included at https://aws.amazon.com/free/",
  "offerCode" : "AWSServiceCatalog",
  "version" : "20170419201610",
  "publicationDate" : "2017-04-19T20:16:10Z",
  "products" : {
    "CVXUZJVPK8PVHBH7" : {
      "sku" : "CVXUZJVPK8PVHBH7",
      "productFamily" : "Portfolio",
      "attributes" : {
        "servicecode" : "AWSServiceCatalog",
        "location" : "EU (Ireland)",
        "locationType" : "AWS Region",
        "usagetype" : "EU-SCPerActivePortfolio",
        "operation" : "ActivePortfolio",
        "withActiveUsers" : "Yes"
      }
    },
    "E8XPX8Y4CCHGZ6EK" : {
      "sku" : "E8XPX8Y4CCHGZ6EK",
      "productFamily" : "Portfolio",
      "attributes" : {
        "servicecode" : "AWSServiceCatalog",
        "location" : "US West (Oregon)",
        "locationType" : "AWS Region",
        "usagetype" : "USW2-ServiceCatalogPerPortfolio",
        "operation" : "ServiceCatalogActivePortfolio",
        "withActiveUsers" : "No"
      }
    },
    "4TQP65E26V4SPEB4" : {
      "sku" : "4TQP65E26V4SPEB4",
      "productFamily" : "Portfolio",
      "attributes" : {
        "servicecode" : "AWSServiceCatalog",
        "location" : "EU (Ireland)",
        "locationType" : "AWS Region",
        "usagetype" : "EU-ServiceCatalogPerPortfolio",
        "operation" : "ServiceCatalogActivePortfolio",
        "withActiveUsers" : "No"
      }
    },
    "WXX7BGTXBHJZD37A" : {
      "sku" : "WXX7BGTXBHJZD37A",
      "productFamily" : "Portfolio",
      "attributes" : {
        "servicecode" : "AWSServiceCatalog",
        "location" : "US East (N. Virginia)",
        "locationType" : "AWS Region",
        "usagetype" : "SCPerActivePortfolio",
        "operation" : "ActivePortfolio",
        "withActiveUsers" : "Yes"
      }
    },
    "9WAZ8CG5ESP3WBVJ" : {
      "sku" : "9WAZ8CG5ESP3WBVJ",
      "productFamily" : "Portfolio",
      "attributes" : {
        "servicecode" : "AWSServiceCatalog",
        "location" : "US West (Oregon)",
        "locationType" : "AWS Region",
        "usagetype" : "USW2-SCPerActivePortfolio",
        "operation" : "ActivePortfolio",
        "withActiveUsers" : "Yes"
      }
    },
    "XCNM8KVDZEAPXNUB" : {
      "sku" : "XCNM8KVDZEAPXNUB",
      "productFamily" : "Portfolio",
      "attributes" : {
        "servicecode" : "AWSServiceCatalog",
        "location" : "US East (N. Virginia)",
        "locationType" : "AWS Region",
        "usagetype" : "ServiceCatalogPerPortfolio",
        "operation" : "ServiceCatalogActivePortfolio",
        "withActiveUsers" : "No"
      }
    }
  },
  "terms" : {
    "OnDemand" : {
      "CVXUZJVPK8PVHBH7" : {
        "CVXUZJVPK8PVHBH7.JRTCKXETXF" : {
          "offerTermCode" : "JRTCKXETXF",
          "sku" : "CVXUZJVPK8PVHBH7",
          "effectiveDate" : "2015-10-01T00:00:00Z",
          "priceDimensions" : {
            "CVXUZJVPK8PVHBH7.JRTCKXETXF.6YS6EN2CT7" : {
              "rateCode" : "CVXUZJVPK8PVHBH7.JRTCKXETXF.6YS6EN2CT7",
              "description" : "$5.00 per Active Portfolio",
              "beginRange" : "0",
              "endRange" : "Inf",
              "unit" : "ActivePortfolios",
              "pricePerUnit" : {
                "USD" : "5.0000000000"
              },
              "appliesTo" : [ ]
            }
          },
          "termAttributes" : { }
        }
      },
      "E8XPX8Y4CCHGZ6EK" : {
        "E8XPX8Y4CCHGZ6EK.JRTCKXETXF" : {
          "offerTermCode" : "JRTCKXETXF",
          "sku" : "E8XPX8Y4CCHGZ6EK",
          "effectiveDate" : "2015-10-01T00:00:00Z",
          "priceDimensions" : {
            "E8XPX8Y4CCHGZ6EK.JRTCKXETXF.6YS6EN2CT7" : {
              "rateCode" : "E8XPX8Y4CCHGZ6EK.JRTCKXETXF.6YS6EN2CT7",
              "description" : "Per active portfolio",
              "beginRange" : "0",
              "endRange" : "Inf",
              "unit" : "ServiceCatalogPerPortfolio",
              "pricePerUnit" : {
                "USD" : "0.0000000000"
              },
              "appliesTo" : [ ]
            }
          },
          "termAttributes" : { }
        }
      },
      "4TQP65E26V4SPEB4" : {
        "4TQP65E26V4SPEB4.JRTCKXETXF" : {
          "offerTermCode" : "JRTCKXETXF",
          "sku" : "4TQP65E26V4SPEB4",
          "effectiveDate" : "2015-10-01T00:00:00Z",
          "priceDimensions" : {
            "4TQP65E26V4SPEB4.JRTCKXETXF.6YS6EN2CT7" : {
              "rateCode" : "4TQP65E26V4SPEB4.JRTCKXETXF.6YS6EN2CT7",
              "description" : "Per active portfolio",
              "beginRange" : "0",
              "endRange" : "Inf",
              "unit" : "ServiceCatalogActivePortfolio",
              "pricePerUnit" : {
                "USD" : "0.0000000000"
              },
              "appliesTo" : [ ]
            }
          },
          "termAttributes" : { }
        }
      },
      "WXX7BGTXBHJZD37A" : {
        "WXX7BGTXBHJZD37A.JRTCKXETXF" : {
          "offerTermCode" : "JRTCKXETXF",
          "sku" : "WXX7BGTXBHJZD37A",
          "effectiveDate" : "2015-10-01T00:00:00Z",
          "priceDimensions" : {
            "WXX7BGTXBHJZD37A.JRTCKXETXF.6YS6EN2CT7" : {
              "rateCode" : "WXX7BGTXBHJZD37A.JRTCKXETXF.6YS6EN2CT7",
              "description" : "$5.00 per Active Portfolio",
              "beginRange" : "0",
              "endRange" : "Inf",
              "unit" : "ActivePortfolios",
              "pricePerUnit" : {
                "USD" : "5.0000000000"
              },
              "appliesTo" : [ ]
            }
          },
          "termAttributes" : { }
        }
      },
      "9WAZ8CG5ESP3WBVJ" : {
        "9WAZ8CG5ESP3WBVJ.JRTCKXETXF" : {
          "offerTermCode" : "JRTCKXETXF",
          "sku" : "9WAZ8CG5ESP3WBVJ",
          "effectiveDate" : "2015-10-01T00:00:00Z",
          "priceDimensions" : {
            "9WAZ8CG5ESP3WBVJ.JRTCKXETXF.6YS6EN2CT7" : {
              "rateCode" : "9WAZ8CG5ESP3WBVJ.JRTCKXETXF.6YS6EN2CT7",
              "description" : "$5.00 per Active Portfolio",
              "beginRange" : "0",
              "endRange" : "Inf",
              "unit" : "ActivePortfolios",
              "pricePerUnit" : {
                "USD" : "5.0000000000"
              },
              "appliesTo" : [ ]
            }
          },
          "termAttributes" : { }
        }
      },
      "XCNM8KVDZEAPXNUB" : {
        "XCNM8KVDZEAPXNUB.JRTCKXETXF" : {
          "offerTermCode" : "JRTCKXETXF",
          "sku" : "XCNM8KVDZEAPXNUB",
          "effectiveDate" : "2015-10-01T00:00:00Z",
          "priceDimensions" : {
            "XCNM8KVDZEAPXNUB.JRTCKXETXF.6YS6EN2CT7" : {
              "rateCode" : "XCNM8KVDZEAPXNUB.JRTCKXETXF.6YS6EN2CT7",
              "description" : "Per active portfolio",
              "beginRange" : "0",
              "endRange" : "Inf",
              "unit" : "ServiceCatalogPerPortfolio_IAD",
              "pricePerUnit" : {
                "USD" : "0.0000000000"
              },
              "appliesTo" : [ ]
            }
          },
          "termAttributes" : { }
        }
      }
    }
  }
}