{
  "formatVersion" : "v1.0",
  "disclaimer" : "This pricing list is for informational purposes only. All prices are subject to the additional terms included in the pricing pages on http://aws.amazon.com. All Free Tier prices are also subject to the terms included at https://aws.amazon.com/free/",
  "offerCode" : "CodeBuild",
  "version" : "20170419202459",
  "publicationDate" : "2017-04-19T20:24:59Z",
  "products" : {
    "2FQZXBQT369M266G" : {
      "sku" : "2FQZXBQT369M266G",
      "productFamily" : "Compute",
      "attributes" : {
        "servicecode" : "CodeBuild",
        "location" : "Asia Pacific (Singapore)",
        "locationType" : "AWS Region",
        "vcpu" : "2",
        "memory" : "3 GB",
        "operatingSystem" : "Linux",
        "usagetype" : "APS1-Build-Min:Linux:g1.small",
        "operation" : "",
        "computeFamily" : "General Purpose",
        "computeType" : "general1.small"
      }
    },
    "46QW8EKWXHYZ68G2" : {
      "sku" : "46QW8EKWXHYZ68G2",
      "productFamily" : "Compute",
      "attributes" : {
        "servicecode" : "CodeBuild",
        "location" : "Asia Pacific (Singapore)",
        "locationType" : "AWS Region",
        "vcpu" : "4",
        "memory" : "7 GB",
        "operatingSystem" : "Linux",
        "usagetype" : "APS1-Build-Min:Linux:g1.medium",
        "operation" : "",
        "computeFamily" : "General Purpose",
        "computeType" : "general1.medium"
      }
    },
    "T9PF2U65YNNQY9ND" : {
      "sku" : "T9PF2U65YNNQY9ND",
      "productFamily" : "Compute",
      "attributes" : {
        "servicecode" : "CodeBuild",
        "location" : "Asia Pacific (Sydney)",
        "locationType" : "AWS Region",
        "vcpu" : "2",
        "memory" : "3 GB",
        "operatingSystem" : "Linux",
        "usagetype" : "APS2-Build-Min:Linux:g1.small",
        "operation" : "",
        "computeFamily" : "General Purpose",
        "computeType" : "general1.small"
      }
    },
    "96U3Z3F9SSK97NCQ" : {
      "sku" : "96U3Z3F9SSK97NCQ",
      "productFamily" : "Compute",
      "attributes" : {
        "servicecode" : "CodeBuild",
        "location" : "Any",
        "locationType" : "AWS Region",
        "vcpu" : "2",
        "memory" : "3 GB",
        "operatingSystem" : "Linux",
        "usagetype" : "Global-Build-Min:Linux:g1.small",
        "operation" : "",
        "computeFamily" : "General Purpose",
        "computeType" : "general1.small"
      }
    },
    "8MTWRQ8M475YQT7D" : {
      "sku" : "8MTWRQ8M475YQT7D",
      "productFamily" : "Compute",
      "attributes" : {
        "servicecode" : "CodeBuild",
        "location" : "US East (N. Virginia)",
        "locationType" : "AWS Region",
        "vcpu" : "8",
        "memory" : "15 GB",
        "operatingSystem" : "Linux",
        "usagetype" : "USE1-Build-Min:Linux:g1.large",
        "operation" : "",
        "computeFamily" : "General Purpose",
        "computeType" : "general1.large"
      }
    },
    "Q6H2BR483REJRWAY" : {
      "sku" : "Q6H2BR483REJRWAY",
      "productFamily" : "Compute",
      "attributes" : {
        "servicecode" : "CodeBuild",
        "location" : "US West (N. California)",
        "locationType" : "AWS Region",
        "vcpu" : "2",
        "memory" : "3 GB",
        "operatingSystem" : "Linux",
        "usagetype" : "USW1-Build-Min:Linux:g1.small",
        "operation" : "",
        "computeFamily" : "General Purpose",
        "computeType" : "general1.small"
      }
    },
    "PV7A254QZ7A5EMG9" : {
      "sku" : "PV7A254QZ7A5EMG9",
      "productFamily" : "Compute",
      "attributes" : {
        "servicecode" : "CodeBuild",
        "location" : "Asia Pacific (Sydney)",
        "locationType" : "AWS Region",
        "vcpu" : "8",
        "memory" : "15 GB",
        "operatingSystem" : "Linux",
        "usagetype" : "APS2-Build-Min:Linux:g1.large",
        "operation" : "",
        "computeFamily" : "General Purpose",
        "computeType" : "general1.large"
      }
    },
    "89SJUHTYVQXD94HA" : {
      "sku" : "89SJUHTYVQXD94HA",
      "productFamily" : "Compute",
      "attributes" : {
        "servicecode" : "CodeBuild",
        "location" : "EU (Ireland)",
        "locationType" : "AWS Region",
        "vcpu" : "4",
        "memory" : "7 GB",
        "operatingSystem" : "Linux",
        "usagetype" : "EU-Build-Min:Linux:g1.medium",
        "operation" : "",
        "computeFamily" : "General Purpose",
        "computeType" : "general1.medium"
      }
    },
    "YT7NDWQAR2QK3K92" : {
      "sku" : "YT7NDWQAR2QK3K92",
      "productFamily" : "Compute",
      "attributes" : {
        "servicecode" : "CodeBuild",
        "location" : "EU (Frankfurt)",
        "locationType" : "AWS Region",
        "vcpu" : "4",
        "memory" : "7 GB",
        "operatingSystem" : "Linux",
        "usagetype" : "EUC1-Build-Min:Linux:g1.medium",
        "operation" : "",
        "computeFamily" : "General Purpose",
        "computeType" : "general1.medium"
      }
    },
    "AF2MW44B4Z9JTQAJ" : {
      "sku" : "AF2MW44B4Z9JTQAJ",
      "productFamily" : "Compute",
      "attributes" : {
        "servicecode" : "CodeBuild",
        "location" : "EU (Frankfurt)",
        "locationType" : "AWS Region",
        "vcpu" : "2",
        "memory" : "3 GB",
        "operatingSystem" : "Linux",
        "usagetype" : "EUC1-Build-Min:Linux:g1.small",
        "operation" : "",
        "computeFamily" : "General Purpose",
        "computeType" : "general1.small"
      }
    },
    "BXQPRPFGQTK8JDE9" : {
      "sku" : "BXQPRPFGQTK8JDE9",
      "productFamily" : "Compute",
      "attributes" : {
        "servicecode" : "CodeBuild",
        "location" : "Asia Pacific (Tokyo)",
        "locationType" : "AWS Region",
        "vcpu" : "4",
        "memory" : "7 GB",
        "operatingSystem" : "Linux",
        "usagetype" : "APN1-Build-Min:Linux:g1.medium",
        "operation" : "",
        "computeFamily" : "General Purpose",
        "computeType" : "general1.medium"
      }
    },
    "3PDGM6QMG5QC5DN7" : {
      "sku" : "3PDGM6QMG5QC5DN7",
      "productFamily" : "Compute",
      "attributes" : {
        "servicecode" : "CodeBuild",
        "location" : "US East (Ohio)",
        "locationType" : "AWS Region",
        "vcpu" : "4",
        "memory" : "7 GB",
        "operatingSystem" : "Linux",
        "usagetype" : "USE2-Build-Min:Linux:g1.medium",
        "operation" : "",
        "computeFamily" : "General Purpose",
        "computeType" : "general1.medium"
      }
    },
    "HYXRD8W36BM4QUJH" : {
      "sku" : "HYXRD8W36BM4QUJH",
      "productFamily" : "Compute",
      "attributes" : {
        "servicecode" : "CodeBuild",
        "location" : "US West (Oregon)",
        "locationType" : "AWS Region",
        "vcpu" : "2",
        "memory" : "3 GB",
        "operatingSystem" : "Linux",
        "usagetype" : "USW2-Build-Min:Linux:g1.small",
        "operation" : "",
        "computeFamily" : "General Purpose",
        "computeType" : "general1.small"
      }
    },
    "4ZQKRUHAFVQH8MBM" : {
      "sku" : "4ZQKRUHAFVQH8MBM",
      "productFamily" : "Compute",
      "attributes" : {
        "servicecode" : "CodeBuild",
        "location" : "US East (N. Virginia)",
        "locationType" : "AWS Region",
        "vcpu" : "4",
        "memory" : "7 GB",
        "operatingSystem" : "Linux",
        "usagetype" : "USE1-Build-Min:Linux:g1.medium",
        "operation" : "",
        "computeFamily" : "General Purpose",
        "computeType" : "general1.medium"
      }
    },
    "FSGGXE6P8VJGBS94" : {
      "sku" : "FSGGXE6P8VJGBS94",
      "productFamily" : "Compute",
      "attributes" : {
        "servicecode" : "CodeBuild",
        "location" : "US West (N. California)",
        "locationType" : "AWS Region",
        "vcpu" : "4",
        "memory" : "7 GB",
        "operatingSystem" : "Linux",
        "usagetype" : "USW1-Build-Min:Linux:g1.medium",
        "operation" : "",
        "computeFamily" : "General Purpose",
        "computeType" : "general1.medium"
      }
    },
    "ZN5F3SHCBD3NCBYB" : {
      "sku" : "ZN5F3SHCBD3NCBYB",
      "productFamily" : "Compute",
      "attributes" : {
        "servicecode" : "CodeBuild",
        "location" : "EU (Ireland)",
        "locationType" : "AWS Region",
        "vcpu" : "2",
        "memory" : "3 GB",
        "operatingSystem" : "Linux",
        "usagetype" : "EU-Build-Min:Linux:g1.small",
        "operation" : "",
        "computeFamily" : "General Purpose",
        "computeType" : "general1.small"
      }
    },
    "3RJDGHQPQVYXGJVD" : {
      "sku" : "3RJDGHQPQVYXGJVD",
      "productFamily" : "Compute",
      "attributes" : {
        "servicecode" : "CodeBuild",
        "location" : "EU (Ireland)",
        "locationType" : "AWS Region",
        "vcpu" : "8",
        "memory" : "15 GB",
        "operatingSystem" : "Linux",
        "usagetype" : "EU-Build-Min:Linux:g1.large",
        "operation" : "",
        "computeFamily" : "General Purpose",
        "computeType" : "general1.large"
      }
    },
    "TA8NF6G7H7Y5W5UX" : {
      "sku" : "TA8NF6G7H7Y5W5UX",
      "productFamily" : "Compute",
      "attributes" : {
        "servicecode" : "CodeBuild",
        "location" : "Asia Pacific (Singapore)",
        "locationType" : "AWS Region",
        "vcpu" : "8",
        "memory" : "15 GB",
        "operatingSystem" : "Linux",
        "usagetype" : "APS1-Build-Min:Linux:g1.large",
        "operation" : "",
        "computeFamily" : "General Purpose",
        "computeType" : "general1.large"
      }
    },
    "4Z79XP69AGHXE3C7" : {
      "sku" : "4Z79XP69AGHXE3C7",
      "productFamily" : "Compute",
      "attributes" : {
        "servicecode" : "CodeBuild",
        "location" : "US East (N. Virginia)",
        "locationType" : "AWS Region",
        "vcpu" : "2",
        "memory" : "3 GB",
        "operatingSystem" : "Linux",
        "usagetype" : "USE1-Build-Min:Linux:g1.small",
        "operation" : "",
        "computeFamily" : "General Purpose",
        "computeType" : "general1.small"
      }
    },
    "9343EGWDZJRG5FR6" : {
      "sku" : "9343EGWDZJRG5FR6",
      "productFamily" : "Compute",
      "attributes" : {
        "servicecode" : "CodeBuild",
        "location" : "US East (Ohio)",
        "locationType" : "AWS Region",
        "vcpu" : "2",
        "memory" : "3 GB",
        "operatingSystem" : "Linux",
        "usagetype" : "USE2-Build-Min:Linux:g1.small",
        "operation" : "",
        "computeFamily" : "General Purpose",
        "computeType" : "general1.small"
      }
    },
    "433GUWZBZJNGPU53" : {
      "sku" : "433GUWZBZJNGPU53",
      "productFamily" : "Compute",
      "attributes" : {
        "servicecode" : "CodeBuild",
        "location" : "EU (Frankfurt)",
        "locationType" : "AWS Region",
        "vcpu" : "8",
        "memory" : "15 GB",
        "operatingSystem" : "Linux",
        "usagetype" : "EUC1-Build-Min:Linux:g1.large",
        "operation" : "",
        "computeFamily" : "General Purpose",
        "computeType" : "general1.large"
      }
    },
    "AJCQ8UMBXRG3WNPW" : {
      "sku" : "AJCQ8UMBXRG3WNPW",
      "productFamily" : "Compute",
      "attributes" : {
        "servicecode" : "CodeBuild",
        "location" : "Asia Pacific (Sydney)",
        "locationType" : "AWS Region",
        "vcpu" : "4",
        "memory" : "7 GB",
        "operatingSystem" : "Linux",
        "usagetype" : "APS2-Build-Min:Linux:g1.medium",
        "operation" : "",
        "computeFamily" : "General Purpose",
        "computeType" : "general1.medium"
      }
    },
    "EY4BM95HCSYUMP88" : {
      "sku" : "EY4BM95HCSYUMP88",
      "productFamily" : "Compute",
      "attributes" : {
        "servicecode" : "CodeBuild",
        "location" : "Asia Pacific (Tokyo)",
        "locationType" : "AWS Region",
        "vcpu" : "8",
        "memory" : "15 GB",
        "operatingSystem" : "Linux",
        "usagetype" : "APN1-Build-Min:Linux:g1.large",
        "operation" : "",
        "computeFamily" : "General Purpose",
        "computeType" : "general1.large"
      }
    },
    "WPG4HPG9CW669QC8" : {
      "sku" : "WPG4HPG9CW669QC8",
      "productFamily" : "Compute",
      "attributes" : {
        "servicecode" : "CodeBuild",
        "location" : "US West (N. California)",
        "locationType" : "AWS Region",
        "vcpu" : "8",
        "memory" : "15 GB",
        "operatingSystem" : "Linux",
        "usagetype" : "USW1-Build-Min:Linux:g1.large",
        "operation" : "",
        "computeFamily" : "General Purpose",
        "computeType" : "general1.large"
      }
    },
    "NEJTSDJSX7VYXN77" : {
      "sku" : "NEJTSDJSX7VYXN77",
      "productFamily" : "Compute",
      "attributes" : {
        "servicecode" : "CodeBuild",
        "location" : "US East (Ohio)",
        "locationType" : "AWS Region",
        "vcpu" : "8",
        "memory" : "15 GB",
        "operatingSystem" : "Linux",
        "usagetype" : "USE2-Build-Min:Linux:g1.large",
        "operation" : "",
        "computeFamily" : "General Purpose",
        "computeType" : "general1.large"
      }
    },
    "MV3MADSDQQYU6839" : {
      "sku" : "MV3MADSDQQYU6839",
      "productFamily" : "Compute",
      "attributes" : {
        "servicecode" : "CodeBuild",
        "location" : "US West (Oregon)",
        "locationType" : "AWS Region",
        "vcpu" : "8",
        "memory" : "15 GB",
        "operatingSystem" : "Linux",
        "usagetype" : "USW2-Build-Min:Linux:g1.large",
        "operation" : "",
        "computeFamily" : "General Purpose",
        "computeType" : "general1.large"
      }
    },
    "5JDAZG67MJH4AP4V" : {
      "sku" : "5JDAZG67MJH4AP4V",
      "productFamily" : "Compute",
      "attributes" : {
        "servicecode" : "CodeBuild",
        "location" : "US West (Oregon)",
        "locationType" : "AWS Region",
        "vcpu" : "4",
        "memory" : "7 GB",
        "operatingSystem" : "Linux",
        "usagetype" : "USW2-Build-Min:Linux:g1.medium",
        "operation" : "",
        "computeFamily" : "General Purpose",
        "computeType" : "general1.medium"
      }
    },
    "2QWXT3AS89P93XZS" : {
      "sku" : "2QWXT3AS89P93XZS",
      "productFamily" : "Compute",
      "attributes" : {
        "servicecode" : "CodeBuild",
        "location" : "Asia Pacific (Tokyo)",
        "locationType" : "AWS Region",
        "vcpu" : "2",
        "memory" : "3 GB",
        "operatingSystem" : "Linux",
        "usagetype" : "APN1-Build-Min:Linux:g1.small",
        "operation" : "",
        "computeFamily" : "General Purpose",
        "computeType" : "general1.small"
      }
    }
  },
  "terms" : {
    "OnDemand" : {
      "2FQZXBQT369M266G" : {
        "2FQZXBQT369M266G.JRTCKXETXF" : {
          "offerTermCode" : "JRTCKXETXF",
          "sku" : "2FQZXBQT369M266G",
          "effectiveDate" : "2016-11-01T00:00:00Z",
          "priceDimensions" : {
            "2FQZXBQT369M266G.JRTCKXETXF.6YS6EN2CT7" : {
              "rateCode" : "2FQZXBQT369M266G.JRTCKXETXF.6YS6EN2CT7",
              "description" : "AWS CodeBuild - Build minutes on build.general1.small - Asia Pacific (Singapore)",
              "beginRange" : "0",
              "endRange" : "Inf",
              "unit" : "minutes",
              "pricePerUnit" : {
                "USD" : "0.0050000000"
              },
              "appliesTo" : [ ]
            }
          },
          "termAttributes" : { }
        }
      },
      "46QW8EKWXHYZ68G2" : {
        "46QW8EKWXHYZ68G2.JRTCKXETXF" : {
          "offerTermCode" : "JRTCKXETXF",
          "sku" : "46QW8EKWXHYZ68G2",
          "effectiveDate" : "2016-11-01T00:00:00Z",
          "priceDimensions" : {
            "46QW8EKWXHYZ68G2.JRTCKXETXF.6YS6EN2CT7" : {
              "rateCode" : "46QW8EKWXHYZ68G2.JRTCKXETXF.6YS6EN2CT7",
              "description" : "AWS CodeBuild - Build minutes on build.general1.medium - Asia Pacific (Singapore)",
              "beginRange" : "0",
              "endRange" : "Inf",
              "unit" : "minutes",
              "pricePerUnit" : {
                "USD" : "0.0100000000"
              },
              "appliesTo" : [ ]
            }
          },
          "termAttributes" : { }
        }
      },
      "T9PF2U65YNNQY9ND" : {
        "T9PF2U65YNNQY9ND.JRTCKXETXF" : {
          "offerTermCode" : "JRTCKXETXF",
          "sku" : "T9PF2U65YNNQY9ND",
          "effectiveDate" : "2016-11-01T00:00:00Z",
          "priceDimensions" : {
            "T9PF2U65YNNQY9ND.JRTCKXETXF.6YS6EN2CT7" : {
              "rateCode" : "T9PF2U65YNNQY9ND.JRTCKXETXF.6YS6EN2CT7",
              "description" : "AWS CodeBuild - Build minutes on build.general1.small - Asia Pacific (Sydney)",
              "beginRange" : "0",
              "endRange" : "Inf",
              "unit" : "minutes",
              "pricePerUnit" : {
                "USD" : "0.0050000000"
              },
              "appliesTo" : [ ]
            }
          },
          "termAttributes" : { }
        }
      },
      "96U3Z3F9SSK97NCQ" : {
        "96U3Z3F9SSK97NCQ.A429C66SYZ" : {
          "offerTermCode" : "A429C66SYZ",
          "sku" : "96U3Z3F9SSK97NCQ",
          "effectiveDate" : "2016-11-01T00:00:00Z",
          "priceDimensions" : {
            "96U3Z3F9SSK97NCQ.A429C66SYZ.ETY2894C67" : {
              "rateCode" : "96U3Z3F9SSK97NCQ.A429C66SYZ.ETY2894C67",
              "description" : "AWS CodeBuild Free Tier - 100 build minutes on build.general1.small",
              "beginRange" : "0",
              "endRange" : "100",
              "unit" : "minutes",
              "pricePerUnit" : {
                "USD" : "0.0000000000"
              },
              "appliesTo" : [ "2FQZXBQT369M266G", "U9B7Y79EETK7Z3FD", "GMVPTHPEPBVR4GUF", "HYXRD8W36BM4QUJH", "T9PF2U65YNNQY9ND", "ZN5F3SHCBD3NCBYB", "4Z79XP69AGHXE3C7", "9343EGWDZJRG5FR6", "AQQDYWRVHE77ECY6", "Q6H2BR483REJRWAY", "QYMNA7KYRBX5RNDS", "ZKR43QNQXQK3Z8A3", "53ASR5FKBPB7XNS6", "J7UJXASV4Q4N64T6", "JSP65TCPNM6BWKCU", "AF2MW44B4Z9JTQAJ", "2QWXT3AS89P93XZS" ]
            }
          },
          "termAttributes" : { }
        }
      },
      "8MTWRQ8M475YQT7D" : {
        "8MTWRQ8M475YQT7D.JRTCKXETXF" : {
          "offerTermCode" : "JRTCKXETXF",
          "sku" : "8MTWRQ8M475YQT7D",
          "effectiveDate" : "2016-11-01T00:00:00Z",
          "priceDimensions" : {
            "8MTWRQ8M475YQT7D.JRTCKXETXF.6YS6EN2CT7" : {
              "rateCode" : "8MTWRQ8M475YQT7D.JRTCKXETXF.6YS6EN2CT7",
              "description" : "AWS CodeBuild - Build minutes on build.general1.large - US East (Northern Virginia)",
              "beginRange" : "0",
              "endRange" : "Inf",
              "unit" : "minutes",
              "pricePerUnit" : {
                "USD" : "0.0200000000"
              },
              "appliesTo" : [ ]
            }
          },
          "termAttributes" : { }
        }
      },
      "Q6H2BR483REJRWAY" : {
        "Q6H2BR483REJRWAY.JRTCKXETXF" : {
          "offerTermCode" : "JRTCKXETXF",
          "sku" : "Q6H2BR483REJRWAY",
          "effectiveDate" : "2016-11-01T00:00:00Z",
          "priceDimensions" : {
            "Q6H2BR483REJRWAY.JRTCKXETXF.6YS6EN2CT7" : {
              "rateCode" : "Q6H2BR483REJRWAY.JRTCKXETXF.6YS6EN2CT7",
              "description" : "AWS CodeBuild - Build minutes on build.general1.small - US West (Northern California)",
              "beginRange" : "0",
              "endRange" : "Inf",
              "unit" : "minutes",
              "pricePerUnit" : {
                "USD" : "0.0050000000"
              },
              "appliesTo" : [ ]
            }
          },
          "termAttributes" : { }
        }
      },
      "PV7A254QZ7A5EMG9" : {
        "PV7A254QZ7A5EMG9.JRTCKXETXF" : {
          "offerTermCode" : "JRTCKXETXF",
          "sku" : "PV7A254QZ7A5EMG9",
          "effectiveDate" : "2016-11-01T00:00:00Z",
          "priceDimensions" : {
            "PV7A254QZ7A5EMG9.JRTCKXETXF.6YS6EN2CT7" : {
              "rateCode" : "PV7A254QZ7A5EMG9.JRTCKXETXF.6YS6EN2CT7",
              "description" : "AWS CodeBuild - Build minutes on build.general1.large - Asia Pacific (Sydney)",
              "beginRange" : "0",
              "endRange" : "Inf",
              "unit" : "minutes",
              "pricePerUnit" : {
                "USD" : "0.0200000000"
              },
              "appliesTo" : [ ]
            }
          },
          "termAttributes" : { }
        }
      },
      "89SJUHTYVQXD94HA" : {
        "89SJUHTYVQXD94HA.JRTCKXETXF" : {
          "offerTermCode" : "JRTCKXETXF",
          "sku" : "89SJUHTYVQXD94HA",
          "effectiveDate" : "2016-11-01T00:00:00Z",
          "priceDimensions" : {
            "89SJUHTYVQXD94HA.JRTCKXETXF.6YS6EN2CT7" : {
              "rateCode" : "89SJUHTYVQXD94HA.JRTCKXETXF.6YS6EN2CT7",
              "description" : "AWS CodeBuild - Build minutes on build.general1.medium - EU (Ireland)",
              "beginRange" : "0",
              "endRange" : "Inf",
              "unit" : "minutes",
              "pricePerUnit" : {
                "USD" : "0.0100000000"
              },
              "appliesTo" : [ ]
            }
          },
          "termAttributes" : { }
        }
      },
      "YT7NDWQAR2QK3K92" : {
        "YT7NDWQAR2QK3K92.JRTCKXETXF" : {
          "offerTermCode" : "JRTCKXETXF",
          "sku" : "YT7NDWQAR2QK3K92",
          "effectiveDate" : "2016-11-01T00:00:00Z",
          "priceDimensions" : {
            "YT7NDWQAR2QK3K92.JRTCKXETXF.6YS6EN2CT7" : {
              "rateCode" : "YT7NDWQAR2QK3K92.JRTCKXETXF.6YS6EN2CT7",
              "description" : "AWS CodeBuild - Build minutes on build.general1.medium - EU (Frankfurt)",
              "beginRange" : "0",
              "endRange" : "Inf",
              "unit" : "minutes",
              "pricePerUnit" : {
                "USD" : "0.0100000000"
              },
              "appliesTo" : [ ]
            }
          },
          "termAttributes" : { }
        }
      },
      "AF2MW44B4Z9JTQAJ" : {
        "AF2MW44B4Z9JTQAJ.JRTCKXETXF" : {
          "offerTermCode" : "JRTCKXETXF",
          "sku" : "AF2MW44B4Z9JTQAJ",
          "effectiveDate" : "2016-11-01T00:00:00Z",
          "priceDimensions" : {
            "AF2MW44B4Z9JTQAJ.JRTCKXETXF.6YS6EN2CT7" : {
              "rateCode" : "AF2MW44B4Z9JTQAJ.JRTCKXETXF.6YS6EN2CT7",
              "description" : "AWS CodeBuild - Build minutes on build.general1.small - EU (Frankfurt)",
              "beginRange" : "0",
              "endRange" : "Inf",
              "unit" : "minutes",
              "pricePerUnit" : {
                "USD" : "0.0050000000"
              },
              "appliesTo" : [ ]
            }
          },
          "termAttributes" : { }
        }
      },
      "BXQPRPFGQTK8JDE9" : {
        "BXQPRPFGQTK8JDE9.JRTCKXETXF" : {
          "offerTermCode" : "JRTCKXETXF",
          "sku" : "BXQPRPFGQTK8JDE9",
          "effectiveDate" : "2016-11-01T00:00:00Z",
          "priceDimensions" : {
            "BXQPRPFGQTK8JDE9.JRTCKXETXF.6YS6EN2CT7" : {
              "rateCode" : "BXQPRPFGQTK8JDE9.JRTCKXETXF.6YS6EN2CT7",
              "description" : "AWS CodeBuild - Build minutes on build.general1.medium - Asia Pacific (Tokyo)",
              "beginRange" : "0",
              "endRange" : "Inf",
              "unit" : "minutes",
              "pricePerUnit" : {
                "USD" : "0.0100000000"
              },
              "appliesTo" : [ ]
            }
          },
          "termAttributes" : { }
        }
      },
      "3PDGM6QMG5QC5DN7" : {
        "3PDGM6QMG5QC5DN7.JRTCKXETXF" : {
          "offerTermCode" : "JRTCKXETXF",
          "sku" : "3PDGM6QMG5QC5DN7",
          "effectiveDate" : "2016-11-01T00:00:00Z",
          "priceDimensions" : {
            "3PDGM6QMG5QC5DN7.JRTCKXETXF.6YS6EN2CT7" : {
              "rateCode" : "3PDGM6QMG5QC5DN7.JRTCKXETXF.6YS6EN2CT7",
              "description" : "AWS CodeBuild - Build minutes on build.general1.medium - US East (Ohio)",
              "beginRange" : "0",
              "endRange" : "Inf",
              "unit" : "minutes",
              "pricePerUnit" : {
                "USD" : "0.0100000000"
              },
              "appliesTo" : [ ]
            }
          },
          "termAttributes" : { }
        }
      },
      "HYXRD8W36BM4QUJH" : {
        "HYXRD8W36BM4QUJH.JRTCKXETXF" : {
          "offerTermCode" : "JRTCKXETXF",
          "sku" : "HYXRD8W36BM4QUJH",
          "effectiveDate" : "2016-11-01T00:00:00Z",
          "priceDimensions" : {
            "HYXRD8W36BM4QUJH.JRTCKXETXF.6YS6EN2CT7" : {
              "rateCode" : "HYXRD8W36BM4QUJH.JRTCKXETXF.6YS6EN2CT7",
              "description" : "AWS CodeBuild - Build minutes on build.general1.small - US West (Oregon)",
              "beginRange" : "0",
              "endRange" : "Inf",
              "unit" : "minutes",
              "pricePerUnit" : {
                "USD" : "0.0050000000"
              },
              "appliesTo" : [ ]
            }
          },
          "termAttributes" : { }
        }
      },
      "4ZQKRUHAFVQH8MBM" : {
        "4ZQKRUHAFVQH8MBM.JRTCKXETXF" : {
          "offerTermCode" : "JRTCKXETXF",
          "sku" : "4ZQKRUHAFVQH8MBM",
          "effectiveDate" : "2016-11-01T00:00:00Z",
          "priceDimensions" : {
            "4ZQKRUHAFVQH8MBM.JRTCKXETXF.6YS6EN2CT7" : {
              "rateCode" : "4ZQKRUHAFVQH8MBM.JRTCKXETXF.6YS6EN2CT7",
              "description" : "AWS CodeBuild - Build minutes on build.general1.medium - US East (Northern Virginia)",
              "beginRange" : "0",
              "endRange" : "Inf",
              "unit" : "minutes",
              "pricePerUnit" : {
                "USD" : "0.0100000000"
              },
              "appliesTo" : [ ]
            }
          },
          "termAttributes" : { }
        }
      },
      "FSGGXE6P8VJGBS94" : {
        "FSGGXE6P8VJGBS94.JRTCKXETXF" : {
          "offerTermCode" : "JRTCKXETXF",
          "sku" : "FSGGXE6P8VJGBS94",
          "effectiveDate" : "2016-11-01T00:00:00Z",
          "priceDimensions" : {
            "FSGGXE6P8VJGBS94.JRTCKXETXF.6YS6EN2CT7" : {
              "rateCode" : "FSGGXE6P8VJGBS94.JRTCKXETXF.6YS6EN2CT7",
              "description" : "AWS CodeBuild - Build minutes on build.general1.medium - US West (Northern California)",
              "beginRange" : "0",
              "endRange" : "Inf",
              "unit" : "minutes",
              "pricePerUnit" : {
                "USD" : "0.0100000000"
              },
              "appliesTo" : [ ]
            }
          },
          "termAttributes" : { }
        }
      },
      "ZN5F3SHCBD3NCBYB" : {
        "ZN5F3SHCBD3NCBYB.JRTCKXETXF" : {
          "offerTermCode" : "JRTCKXETXF",
          "sku" : "ZN5F3SHCBD3NCBYB",
          "effectiveDate" : "2016-11-01T00:00:00Z",
          "priceDimensions" : {
            "ZN5F3SHCBD3NCBYB.JRTCKXETXF.6YS6EN2CT7" : {
              "rateCode" : "ZN5F3SHCBD3NCBYB.JRTCKXETXF.6YS6EN2CT7",
              "description" : "AWS CodeBuild - Build minutes on build.general1.small - EU (Ireland)",
              "beginRange" : "0",
              "endRange" : "Inf",
              "unit" : "minutes",
              "pricePerUnit" : {
                "USD" : "0.0050000000"
              },
              "appliesTo" : [ ]
            }
          },
          "termAttributes" : { }
        }
      },
      "3RJDGHQPQVYXGJVD" : {
        "3RJDGHQPQVYXGJVD.JRTCKXETXF" : {
          "offerTermCode" : "JRTCKXETXF",
          "sku" : "3RJDGHQPQVYXGJVD",
          "effectiveDate" : "2016-11-01T00:00:00Z",
          "priceDimensions" : {
            "3RJDGHQPQVYXGJVD.JRTCKXETXF.6YS6EN2CT7" : {
              "rateCode" : "3RJDGHQPQVYXGJVD.JRTCKXETXF.6YS6EN2CT7",
              "description" : "AWS CodeBuild - Build minutes on build.general1.large - EU (Ireland)",
              "beginRange" : "0",
              "endRange" : "Inf",
              "unit" : "minutes",
              "pricePerUnit" : {
                "USD" : "0.0200000000"
              },
              "appliesTo" : [ ]
            }
          },
          "termAttributes" : { }
        }
      },
      "TA8NF6G7H7Y5W5UX" : {
        "TA8NF6G7H7Y5W5UX.JRTCKXETXF" : {
          "offerTermCode" : "JRTCKXETXF",
          "sku" : "TA8NF6G7H7Y5W5UX",
          "effectiveDate" : "2016-11-01T00:00:00Z",
          "priceDimensions" : {
            "TA8NF6G7H7Y5W5UX.JRTCKXETXF.6YS6EN2CT7" : {
              "rateCode" : "TA8NF6G7H7Y5W5UX.JRTCKXETXF.6YS6EN2CT7",
              "description" : "AWS CodeBuild - Build minutes on build.general1.large - Asia Pacific (Singapore)",
              "beginRange" : "0",
              "endRange" : "Inf",
              "unit" : "minutes",
              "pricePerUnit" : {
                "USD" : "0.0200000000"
              },
              "appliesTo" : [ ]
            }
          },
          "termAttributes" : { }
        }
      },
      "4Z79XP69AGHXE3C7" : {
        "4Z79XP69AGHXE3C7.JRTCKXETXF" : {
          "offerTermCode" : "JRTCKXETXF",
          "sku" : "4Z79XP69AGHXE3C7",
          "effectiveDate" : "2016-11-01T00:00:00Z",
          "priceDimensions" : {
            "4Z79XP69AGHXE3C7.JRTCKXETXF.6YS6EN2CT7" : {
              "rateCode" : "4Z79XP69AGHXE3C7.JRTCKXETXF.6YS6EN2CT7",
              "description" : "AWS CodeBuild - Build minutes on build.general1.small - US East (Northern Virginia)",
              "beginRange" : "0",
              "endRange" : "Inf",
              "unit" : "minutes",
              "pricePerUnit" : {
                "USD" : "0.0050000000"
              },
              "appliesTo" : [ ]
            }
          },
          "termAttributes" : { }
        }
      },
      "9343EGWDZJRG5FR6" : {
        "9343EGWDZJRG5FR6.JRTCKXETXF" : {
          "offerTermCode" : "JRTCKXETXF",
          "sku" : "9343EGWDZJRG5FR6",
          "effectiveDate" : "2016-11-01T00:00:00Z",
          "priceDimensions" : {
            "9343EGWDZJRG5FR6.JRTCKXETXF.6YS6EN2CT7" : {
              "rateCode" : "9343EGWDZJRG5FR6.JRTCKXETXF.6YS6EN2CT7",
              "description" : "AWS CodeBuild - Build minutes on build.general1.small - US East (Ohio)",
              "beginRange" : "0",
              "endRange" : "Inf",
              "unit" : "minutes",
              "pricePerUnit" : {
                "USD" : "0.0050000000"
              },
              "appliesTo" : [ ]
            }
          },
          "termAttributes" : { }
        }
      },
      "433GUWZBZJNGPU53" : {
        "433GUWZBZJNGPU53.JRTCKXETXF" : {
          "offerTermCode" : "JRTCKXETXF",
          "sku" : "433GUWZBZJNGPU53",
          "effectiveDate" : "2016-11-01T00:00:00Z",
          "priceDimensions" : {
            "433GUWZBZJNGPU53.JRTCKXETXF.6YS6EN2CT7" : {
              "rateCode" : "433GUWZBZJNGPU53.JRTCKXETXF.6YS6EN2CT7",
              "description" : "AWS CodeBuild - Build minutes on build.general1.large - EU (Frankfurt)",
              "beginRange" : "0",
              "endRange" : "Inf",
              "unit" : "minutes",
              "pricePerUnit" : {
                "USD" : "0.0200000000"
              },
              "appliesTo" : [ ]
            }
          },
          "termAttributes" : { }
        }
      },
      "AJCQ8UMBXRG3WNPW" : {
        "AJCQ8UMBXRG3WNPW.JRTCKXETXF" : {
          "offerTermCode" : "JRTCKXETXF",
          "sku" : "AJCQ8UMBXRG3WNPW",
          "effectiveDate" : "2016-11-01T00:00:00Z",
          "priceDimensions" : {
            "AJCQ8UMBXRG3WNPW.JRTCKXETXF.6YS6EN2CT7" : {
              "rateCode" : "AJCQ8UMBXRG3WNPW.JRTCKXETXF.6YS6EN2CT7",
              "description" : "AWS CodeBuild - Build minutes on build.general1.medium - Asia Pacific (Sydney)",
              "beginRange" : "0",
              "endRange" : "Inf",
              "unit" : "minutes",
              "pricePerUnit" : {
                "USD" : "0.0100000000"
              },
              "appliesTo" : [ ]
            }
          },
          "termAttributes" : { }
        }
      },
      "EY4BM95HCSYUMP88" : {
        "EY4BM95HCSYUMP88.JRTCKXETXF" : {
          "offerTermCode" : "JRTCKXETXF",
          "sku" : "EY4BM95HCSYUMP88",
          "effectiveDate" : "2016-11-01T00:00:00Z",
          "priceDimensions" : {
            "EY4BM95HCSYUMP88.JRTCKXETXF.6YS6EN2CT7" : {
              "rateCode" : "EY4BM95HCSYUMP88.JRTCKXETXF.6YS6EN2CT7",
              "description" : "AWS CodeBuild - Build minutes on build.general1.large - Asia Pacific (Tokyo)",
              "beginRange" : "0",
              "endRange" : "Inf",
              "unit" : "minutes",
              "pricePerUnit" : {
                "USD" : "0.0200000000"
              },
              "appliesTo" : [ ]
            }
          },
          "termAttributes" : { }
        }
      },
      "WPG4HPG9CW669QC8" : {
        "WPG4HPG9CW669QC8.JRTCKXETXF" : {
          "offerTermCode" : "JRTCKXETXF",
          "sku" : "WPG4HPG9CW669QC8",
          "effectiveDate" : "2016-11-01T00:00:00Z",
          "priceDimensions" : {
            "WPG4HPG9CW669QC8.JRTCKXETXF.6YS6EN2CT7" : {
              "rateCode" : "WPG4HPG9CW669QC8.JRTCKXETXF.6YS6EN2CT7",
              "description" : "AWS CodeBuild - Build minutes on build.general1.large - US West (Northern California)",
              "beginRange" : "0",
              "endRange" : "Inf",
              "unit" : "minutes",
              "pricePerUnit" : {
                "USD" : "0.0200000000"
              },
              "appliesTo" : [ ]
            }
          },
          "termAttributes" : { }
        }
      },
      "NEJTSDJSX7VYXN77" : {
        "NEJTSDJSX7VYXN77.JRTCKXETXF" : {
          "offerTermCode" : "JRTCKXETXF",
          "sku" : "NEJTSDJSX7VYXN77",
          "effectiveDate" : "2016-11-01T00:00:00Z",
          "priceDimensions" : {
            "NEJTSDJSX7VYXN77.JRTCKXETXF.6YS6EN2CT7" : {
              "rateCode" : "NEJTSDJSX7VYXN77.JRTCKXETXF.6YS6EN2CT7",
              "description" : "AWS CodeBuild - Build minutes on build.general1.large - US East (Ohio)",
              "beginRange" : "0",
              "endRange" : "Inf",
              "unit" : "minutes",
              "pricePerUnit" : {
                "USD" : "0.0200000000"
              },
              "appliesTo" : [ ]
            }
          },
          "termAttributes" : { }
        }
      },
      "MV3MADSDQQYU6839" : {
        "MV3MADSDQQYU6839.JRTCKXETXF" : {
          "offerTermCode" : "JRTCKXETXF",
          "sku" : "MV3MADSDQQYU6839",
          "effectiveDate" : "2016-11-01T00:00:00Z",
          "priceDimensions" : {
            "MV3MADSDQQYU6839.JRTCKXETXF.6YS6EN2CT7" : {
              "rateCode" : "MV3MADSDQQYU6839.JRTCKXETXF.6YS6EN2CT7",
              "description" : "AWS CodeBuild - Build minutes on build.general1.large - US West (Oregon)",
              "beginRange" : "0",
              "endRange" : "Inf",
              "unit" : "minutes",
              "pricePerUnit" : {
                "USD" : "0.0200000000"
              },
              "appliesTo" : [ ]
            }
          },
          "termAttributes" : { }
        }
      },
      "5JDAZG67MJH4AP4V" : {
        "5JDAZG67MJH4AP4V.JRTCKXETXF" : {
          "offerTermCode" : "JRTCKXETXF",
          "sku" : "5JDAZG67MJH4AP4V",
          "effectiveDate" : "2016-11-01T00:00:00Z",
          "priceDimensions" : {
            "5JDAZG67MJH4AP4V.JRTCKXETXF.6YS6EN2CT7" : {
              "rateCode" : "5JDAZG67MJH4AP4V.JRTCKXETXF.6YS6EN2CT7",
              "description" : "AWS CodeBuild - Build minutes on build.general1.medium - US West (Oregon)",
              "beginRange" : "0",
              "endRange" : "Inf",
              "unit" : "minutes",
              "pricePerUnit" : {
                "USD" : "0.0100000000"
              },
              "appliesTo" : [ ]
            }
          },
          "termAttributes" : { }
        }
      },
      "2QWXT3AS89P93XZS" : {
        "2QWXT3AS89P93XZS.JRTCKXETXF" : {
          "offerTermCode" : "JRTCKXETXF",
          "sku" : "2QWXT3AS89P93XZS",
          "effectiveDate" : "2016-11-01T00:00:00Z",
          "priceDimensions" : {
            "2QWXT3AS89P93XZS.JRTCKXETXF.6YS6EN2CT7" : {
              "rateCode" : "2QWXT3AS89P93XZS.JRTCKXETXF.6YS6EN2CT7",
              "description" : "AWS CodeBuild - Build minutes on build.general1.small - Asia Pacific (Tokyo)",
              "beginRange" : "0",
              "endRange" : "Inf",
              "unit" : "minutes",
              "pricePerUnit" : {
                "USD" : "0.0050000000"
              },
              "appliesTo" : [ ]
            }
          },
          "termAttributes" : { }
        }
      }
    }
  }
}