{
  "formatVersion" : "v1.0",
  "disclaimer" : "This pricing list is for informational purposes only. All prices are subject to the additional terms included in the pricing pages on http://aws.amazon.com. All Free Tier prices are also subject to the terms included at https://aws.amazon.com/free/",
  "offerCode" : "IngestionService",
  "version" : "20170419201842",
  "publicationDate" : "2017-04-19T20:18:42Z",
  "products" : {
    "N5ZYF3NNQ6DRDKAP" : {
      "sku" : "N5ZYF3NNQ6DRDKAP",
      "productFamily" : "Storage Device",
      "attributes" : {
        "servicecode" : "IngestionService",
        "location" : "Asia Pacific (Singapore)",
        "locationType" : "AWS Region",
        "group" : "Station",
        "groupDescription" : "Station usage like Data loading,Data Wiping",
        "usagetype" : "AP-StationUsage",
        "operation" : "DataErasing",
        "dataAction" : "Erasing"
      }
    },
    "3KXR62AF69Z5BNF7" : {
      "sku" : "3KXR62AF69Z5BNF7",
      "productFamily" : "Storage Device",
      "attributes" : {
        "servicecode" : "IngestionService",
        "location" : "EU (Ireland)",
        "locationType" : "AWS Region",
        "group" : "Station",
        "groupDescription" : "Station usage like Data loading,Data Wiping",
        "usagetype" : "EU-StationUsage",
        "operation" : "DataErasing",
        "dataAction" : "Erasing"
      }
    },
    "DSJ5DQCB7SSWWEPC" : {
      "sku" : "DSJ5DQCB7SSWWEPC",
      "productFamily" : "Storage Device",
      "attributes" : {
        "servicecode" : "IngestionService",
        "location" : "EU (Ireland)",
        "locationType" : "AWS Region",
        "group" : "Return Shipping",
        "groupDescription" : "Return shipping charges",
        "usagetype" : "EU-ReturnShippingFee",
        "operation" : "PackageShipping",
        "dataAction" : "N/A"
      }
    },
    "WY82KTGF7S2642Y6" : {
      "sku" : "WY82KTGF7S2642Y6",
      "productFamily" : "Storage Device",
      "attributes" : {
        "servicecode" : "IngestionService",
        "location" : "Asia Pacific (Singapore)",
        "locationType" : "AWS Region",
        "group" : "Station",
        "groupDescription" : "Station usage like Data loading,Data Wiping",
        "usagetype" : "AP-StationUsage",
        "operation" : "DataLoading",
        "dataAction" : "Loading"
      }
    },
    "NCUBE5683ASYFJE9" : {
      "sku" : "NCUBE5683ASYFJE9",
      "productFamily" : "Storage Device",
      "attributes" : {
        "servicecode" : "IngestionService",
        "location" : "US East (N. Virginia)",
        "locationType" : "AWS Region",
        "group" : "Device",
        "groupDescription" : "Device Handling",
        "usagetype" : "DeviceUsage",
        "operation" : "DeviceHandling",
        "dataAction" : "N/A"
      }
    },
    "A7A4EHDMT9G4F3KM" : {
      "sku" : "A7A4EHDMT9G4F3KM",
      "productFamily" : "Storage Device",
      "attributes" : {
        "servicecode" : "IngestionService",
        "location" : "Asia Pacific (Singapore)",
        "locationType" : "AWS Region",
        "group" : "Return Shipping",
        "groupDescription" : "Return shipping charges",
        "usagetype" : "AP-ReturnShippingFee",
        "operation" : "PackageShipping",
        "dataAction" : "N/A"
      }
    },
    "E8X7Z49A7H3K2BU7" : {
      "sku" : "E8X7Z49A7H3K2BU7",
      "productFamily" : "Storage Device",
      "attributes" : {
        "servicecode" : "IngestionService",
        "location" : "US East (N. Virginia)",
        "locationType" : "AWS Region",
        "group" : "Station",
        "groupDescription" : "Station usage like Data loading,Data Wiping",
        "usagetype" : "StationUsage",
        "operation" : "DataLoading",
        "dataAction" : "Loading"
      }
    },
    "VSVS59TG4229EFS7" : {
      "sku" : "VSVS59TG4229EFS7",
      "productFamily" : "Storage Device",
      "attributes" : {
        "servicecode" : "IngestionService",
        "location" : "US East (N. Virginia)",
        "locationType" : "AWS Region",
        "group" : "Return Shipping",
        "groupDescription" : "Return shipping charges",
        "usagetype" : "ReturnShippingFee",
        "operation" : "PackageShipping",
        "dataAction" : "N/A"
      }
    },
    "HPYM4V33C99ZEP7V" : {
      "sku" : "HPYM4V33C99ZEP7V",
      "productFamily" : "Storage Device",
      "attributes" : {
        "servicecode" : "IngestionService",
        "location" : "Asia Pacific (Singapore)",
        "locationType" : "AWS Region",
        "group" : "Device",
        "groupDescription" : "Device Handling",
        "usagetype" : "AP-DeviceUsage",
        "operation" : "DeviceHandling",
        "dataAction" : "N/A"
      }
    },
    "X8FK8NASVJSV3ACZ" : {
      "sku" : "X8FK8NASVJSV3ACZ",
      "productFamily" : "Storage Device",
      "attributes" : {
        "servicecode" : "IngestionService",
        "location" : "EU (Ireland)",
        "locationType" : "AWS Region",
        "group" : "Station",
        "groupDescription" : "Station usage like Data loading,Data Wiping",
        "usagetype" : "EU-StationUsage",
        "operation" : "DataLoading",
        "dataAction" : "Loading"
      }
    },
    "7NFAVVXKJWNYKM7U" : {
      "sku" : "7NFAVVXKJWNYKM7U",
      "productFamily" : "Storage Device",
      "attributes" : {
        "servicecode" : "IngestionService",
        "location" : "US East (N. Virginia)",
        "locationType" : "AWS Region",
        "group" : "Station",
        "groupDescription" : "Station usage like Data loading,Data Wiping",
        "usagetype" : "StationUsage",
        "operation" : "DataErasing",
        "dataAction" : "Erasing"
      }
    },
    "BQYJ88ZRGTMEMSEX" : {
      "sku" : "BQYJ88ZRGTMEMSEX",
      "productFamily" : "Storage Device",
      "attributes" : {
        "servicecode" : "IngestionService",
        "location" : "EU (Ireland)",
        "locationType" : "AWS Region",
        "group" : "Device",
        "groupDescription" : "Device Handling",
        "usagetype" : "EU-DeviceUsage",
        "operation" : "DeviceHandling",
        "dataAction" : "N/A"
      }
    }
  },
  "terms" : {
    "OnDemand" : {
      "N5ZYF3NNQ6DRDKAP" : {
        "N5ZYF3NNQ6DRDKAP.JRTCKXETXF" : {
          "offerTermCode" : "JRTCKXETXF",
          "sku" : "N5ZYF3NNQ6DRDKAP",
          "effectiveDate" : "2010-12-01T00:00:00Z",
          "priceDimensions" : {
            "N5ZYF3NNQ6DRDKAP.JRTCKXETXF.6YS6EN2CT7" : {
              "rateCode" : "N5ZYF3NNQ6DRDKAP.JRTCKXETXF.6YS6EN2CT7",
              "description" : "$2.99 per data-wiping-hour",
              "beginRange" : "0",
              "endRange" : "Inf",
              "unit" : "Hours",
              "pricePerUnit" : {
                "USD" : "2.9900000000"
              },
              "appliesTo" : [ ]
            }
          },
          "termAttributes" : { }
        }
      },
      "3KXR62AF69Z5BNF7" : {
        "3KXR62AF69Z5BNF7.JRTCKXETXF" : {
          "offerTermCode" : "JRTCKXETXF",
          "sku" : "3KXR62AF69Z5BNF7",
          "effectiveDate" : "2010-12-01T00:00:00Z",
          "priceDimensions" : {
            "3KXR62AF69Z5BNF7.JRTCKXETXF.6YS6EN2CT7" : {
              "rateCode" : "3KXR62AF69Z5BNF7.JRTCKXETXF.6YS6EN2CT7",
              "description" : "$2.49 per data-wiping-hour",
              "beginRange" : "0",
              "endRange" : "Inf",
              "unit" : "Hours",
              "pricePerUnit" : {
                "USD" : "2.4900000000"
              },
              "appliesTo" : [ ]
            }
          },
          "termAttributes" : { }
        }
      },
      "DSJ5DQCB7SSWWEPC" : {
        "DSJ5DQCB7SSWWEPC.JRTCKXETXF" : {
          "offerTermCode" : "JRTCKXETXF",
          "sku" : "DSJ5DQCB7SSWWEPC",
          "effectiveDate" : "2010-12-01T00:00:00Z",
          "priceDimensions" : {
            "DSJ5DQCB7SSWWEPC.JRTCKXETXF.6YS6EN2CT7" : {
              "rateCode" : "DSJ5DQCB7SSWWEPC.JRTCKXETXF.6YS6EN2CT7",
              "description" : "Return Shipping Fee ",
              "beginRange" : "0",
              "endRange" : "Inf",
              "unit" : "USD",
              "pricePerUnit" : {
                "USD" : "1.0000000000"
              },
              "appliesTo" : [ ]
            }
          },
          "termAttributes" : { }
        }
      },
      "WY82KTGF7S2642Y6" : {
        "WY82KTGF7S2642Y6.JRTCKXETXF" : {
          "offerTermCode" : "JRTCKXETXF",
          "sku" : "WY82KTGF7S2642Y6",
          "effectiveDate" : "2010-12-01T00:00:00Z",
          "priceDimensions" : {
            "WY82KTGF7S2642Y6.JRTCKXETXF.6YS6EN2CT7" : {
              "rateCode" : "WY82KTGF7S2642Y6.JRTCKXETXF.6YS6EN2CT7",
              "description" : "$2.99 per data-loading-hour",
              "beginRange" : "0",
              "endRange" : "Inf",
              "unit" : "Hours",
              "pricePerUnit" : {
                "USD" : "2.9900000000"
              },
              "appliesTo" : [ ]
            }
          },
          "termAttributes" : { }
        }
      },
      "NCUBE5683ASYFJE9" : {
        "NCUBE5683ASYFJE9.JRTCKXETXF" : {
          "offerTermCode" : "JRTCKXETXF",
          "sku" : "NCUBE5683ASYFJE9",
          "effectiveDate" : "2010-12-01T00:00:00Z",
          "priceDimensions" : {
            "NCUBE5683ASYFJE9.JRTCKXETXF.6YS6EN2CT7" : {
              "rateCode" : "NCUBE5683ASYFJE9.JRTCKXETXF.6YS6EN2CT7",
              "description" : "$80 per storage device handled",
              "beginRange" : "0",
              "endRange" : "Inf",
              "unit" : "Devices",
              "pricePerUnit" : {
                "USD" : "80.0000000000"
              },
              "appliesTo" : [ ]
            }
          },
          "termAttributes" : { }
        }
      },
      "A7A4EHDMT9G4F3KM" : {
        "A7A4EHDMT9G4F3KM.JRTCKXETXF" : {
          "offerTermCode" : "JRTCKXETXF",
          "sku" : "A7A4EHDMT9G4F3KM",
          "effectiveDate" : "2010-12-01T00:00:00Z",
          "priceDimensions" : {
            "A7A4EHDMT9G4F3KM.JRTCKXETXF.6YS6EN2CT7" : {
              "rateCode" : "A7A4EHDMT9G4F3KM.JRTCKXETXF.6YS6EN2CT7",
              "description" : "Return Shipping Fee ",
              "beginRange" : "0",
              "endRange" : "Inf",
              "unit" : "USD",
              "pricePerUnit" : {
                "USD" : "1.0000000000"
              },
              "appliesTo" : [ ]
            }
          },
          "termAttributes" : { }
        }
      },
      "E8X7Z49A7H3K2BU7" : {
        "E8X7Z49A7H3K2BU7.JRTCKXETXF" : {
          "offerTermCode" : "JRTCKXETXF",
          "sku" : "E8X7Z49A7H3K2BU7",
          "effectiveDate" : "2010-12-01T00:00:00Z",
          "priceDimensions" : {
            "E8X7Z49A7H3K2BU7.JRTCKXETXF.6YS6EN2CT7" : {
              "rateCode" : "E8X7Z49A7H3K2BU7.JRTCKXETXF.6YS6EN2CT7",
              "description" : "$2.49 per data-loading-hour",
              "beginRange" : "0",
              "endRange" : "Inf",
              "unit" : "Hours",
              "pricePerUnit" : {
                "USD" : "2.4900000000"
              },
              "appliesTo" : [ ]
            }
          },
          "termAttributes" : { }
        }
      },
      "VSVS59TG4229EFS7" : {
        "VSVS59TG4229EFS7.JRTCKXETXF" : {
          "offerTermCode" : "JRTCKXETXF",
          "sku" : "VSVS59TG4229EFS7",
          "effectiveDate" : "2010-12-01T00:00:00Z",
          "priceDimensions" : {
            "VSVS59TG4229EFS7.JRTCKXETXF.6YS6EN2CT7" : {
              "rateCode" : "VSVS59TG4229EFS7.JRTCKXETXF.6YS6EN2CT7",
              "description" : "Return Shipping Fee",
              "beginRange" : "0",
              "endRange" : "Inf",
              "unit" : "USD",
              "pricePerUnit" : {
                "USD" : "1.0000000000"
              },
              "appliesTo" : [ ]
            }
          },
          "termAttributes" : { }
        }
      },
      "HPYM4V33C99ZEP7V" : {
        "HPYM4V33C99ZEP7V.JRTCKXETXF" : {
          "offerTermCode" : "JRTCKXETXF",
          "sku" : "HPYM4V33C99ZEP7V",
          "effectiveDate" : "2010-12-01T00:00:00Z",
          "priceDimensions" : {
            "HPYM4V33C99ZEP7V.JRTCKXETXF.6YS6EN2CT7" : {
              "rateCode" : "HPYM4V33C99ZEP7V.JRTCKXETXF.6YS6EN2CT7",
              "description" : "$99 per storage device handled",
              "beginRange" : "0",
              "endRange" : "Inf",
              "unit" : "Devices",
              "pricePerUnit" : {
                "USD" : "99.0000000000"
              },
              "appliesTo" : [ ]
            }
          },
          "termAttributes" : { }
        }
      },
      "X8FK8NASVJSV3ACZ" : {
        "X8FK8NASVJSV3ACZ.JRTCKXETXF" : {
          "offerTermCode" : "JRTCKXETXF",
          "sku" : "X8FK8NASVJSV3ACZ",
          "effectiveDate" : "2010-12-01T00:00:00Z",
          "priceDimensions" : {
            "X8FK8NASVJSV3ACZ.JRTCKXETXF.6YS6EN2CT7" : {
              "rateCode" : "X8FK8NASVJSV3ACZ.JRTCKXETXF.6YS6EN2CT7",
              "description" : "$2.49 per data-loading-hour",
              "beginRange" : "0",
              "endRange" : "Inf",
              "unit" : "Hours",
              "pricePerUnit" : {
                "USD" : "2.4900000000"
              },
              "appliesTo" : [ ]
            }
          },
          "termAttributes" : { }
        }
      },
      "7NFAVVXKJWNYKM7U" : {
        "7NFAVVXKJWNYKM7U.JRTCKXETXF" : {
          "offerTermCode" : "JRTCKXETXF",
          "sku" : "7NFAVVXKJWNYKM7U",
          "effectiveDate" : "2010-12-01T00:00:00Z",
          "priceDimensions" : {
            "7NFAVVXKJWNYKM7U.JRTCKXETXF.6YS6EN2CT7" : {
              "rateCode" : "7NFAVVXKJWNYKM7U.JRTCKXETXF.6YS6EN2CT7",
              "description" : "$2.49 per data-wiping-hour",
              "beginRange" : "0",
              "endRange" : "Inf",
              "unit" : "Hours",
              "pricePerUnit" : {
                "USD" : "2.4900000000"
              },
              "appliesTo" : [ ]
            }
          },
          "termAttributes" : { }
        }
      },
      "BQYJ88ZRGTMEMSEX" : {
        "BQYJ88ZRGTMEMSEX.JRTCKXETXF" : {
          "offerTermCode" : "JRTCKXETXF",
          "sku" : "BQYJ88ZRGTMEMSEX",
          "effectiveDate" : "2010-12-01T00:00:00Z",
          "priceDimensions" : {
            "BQYJ88ZRGTMEMSEX.JRTCKXETXF.6YS6EN2CT7" : {
              "rateCode" : "BQYJ88ZRGTMEMSEX.JRTCKXETXF.6YS6EN2CT7",
              "description" : "$80 per storage device handled",
              "beginRange" : "0",
              "endRange" : "Inf",
              "unit" : "Devices",
              "pricePerUnit" : {
                "USD" : "80.0000000000"
              },
              "appliesTo" : [ ]
            }
          },
          "termAttributes" : { }
        }
      }
    }
  }
}