{
  "formatVersion" : "v1.0",
  "disclaimer" : "This pricing list is for informational purposes only. All prices are subject to the additional terms included in the pricing pages on http://aws.amazon.com. All Free Tier prices are also subject to the terms included at https://aws.amazon.com/free/",
  "offerCode" : "SnowballExtraDays",
  "version" : "20170421210010",
  "publicationDate" : "2017-04-21T21:00:10Z",
  "products" : {
    "CH954QTGHBP9GXDB" : {
      "sku" : "CH954QTGHBP9GXDB",
      "productFamily" : "Extra Days",
      "attributes" : {
        "servicecode" : "SnowballExtraDays",
        "location" : "EU (London)",
        "locationType" : "AWS Region",
        "feeCode" : "Snowball-Extra-Days-Fee-Edge",
        "feeDescription" : "Fee for extra days of Snowball Edge",
        "usagetype" : "LHR-Snowball-Edge-Extra-Day",
        "operation" : "",
        "snowballType" : "Edge"
      }
    },
    "8SW5VJYDH6P2QZJW" : {
      "sku" : "8SW5VJYDH6P2QZJW",
      "productFamily" : "Extra Days",
      "attributes" : {
        "servicecode" : "SnowballExtraDays",
        "location" : "EU (London)",
        "locationType" : "AWS Region",
        "feeCode" : "Snowball-Extra-Days-Fee-Standard",
        "feeDescription" : "Fee for extra days of Snowball Standard",
        "usagetype" : "LHR-Snowball-Extra-Day-Charge",
        "operation" : "",
        "snowballType" : "Standard"
      }
    },
    "GD4UREAX6HNTFHUH" : {
      "sku" : "GD4UREAX6HNTFHUH",
      "productFamily" : "Extra Days",
      "attributes" : {
        "servicecode" : "SnowballExtraDays",
        "location" : "Asia Pacific (Sydney)",
        "locationType" : "AWS Region",
        "feeCode" : "Snowball-Extra-Days-Fee-Edge",
        "feeDescription" : "Fee for extra days of Snowball Edge",
        "usagetype" : "SYD-Snowball-Edge-Extra-Day",
        "operation" : "",
        "snowballType" : "Edge"
      }
    },
    "25BJH8UPDFV7H4FE" : {
      "sku" : "25BJH8UPDFV7H4FE",
      "productFamily" : "Extra Days",
      "attributes" : {
        "servicecode" : "SnowballExtraDays",
        "location" : "Asia Pacific (Mumbai)",
        "locationType" : "AWS Region",
        "feeCode" : "Snowball-Extra-Days-Fee-Standard",
        "feeDescription" : "Fee for extra days of Snowball Standard",
        "usagetype" : "BOM-Snowball-Extra-Day-Charge",
        "operation" : "",
        "snowballType" : "Standard"
      }
    },
    "AUJ8VRDMFNHMFAW7" : {
      "sku" : "AUJ8VRDMFNHMFAW7",
      "productFamily" : "Extra Days",
      "attributes" : {
        "servicecode" : "SnowballExtraDays",
        "location" : "EU (Ireland)",
        "locationType" : "AWS Region",
        "feeCode" : "Snowball-Extra-Days-Fee-Standard",
        "feeDescription" : "Fee for extra days of Snowball Standard",
        "usagetype" : "DUB-Snowball-Extra-Day-Charge",
        "operation" : "",
        "snowballType" : "Standard"
      }
    },
    "4K6KJKG7AT26FEPZ" : {
      "sku" : "4K6KJKG7AT26FEPZ",
      "productFamily" : "Extra Days",
      "attributes" : {
        "servicecode" : "SnowballExtraDays",
        "location" : "EU (Ireland)",
        "locationType" : "AWS Region",
        "feeCode" : "Snowball-Extra-Days-Fee-Edge",
        "feeDescription" : "Fee for extra days of Snowball Edge",
        "usagetype" : "DUB-Snowball-Edge-Extra-Day",
        "operation" : "",
        "snowballType" : "Edge"
      }
    },
    "P3BZ43QRSMPGAWX4" : {
      "sku" : "P3BZ43QRSMPGAWX4",
      "productFamily" : "Extra Days",
      "attributes" : {
        "servicecode" : "SnowballExtraDays",
        "location" : "AWS GovCloud (US)",
        "locationType" : "AWS Region",
        "feeCode" : "Snowball-Extra-Days-Fee-Standard",
        "feeDescription" : "Fee for extra days of Snowball Standard",
        "usagetype" : "PDT-Snowball-Extra-Day-Charge",
        "operation" : "",
        "snowballType" : "Standard"
      }
    },
    "EH476ZHC3X56YMT5" : {
      "sku" : "EH476ZHC3X56YMT5",
      "productFamily" : "Extra Days",
      "attributes" : {
        "servicecode" : "SnowballExtraDays",
        "location" : "US West (Oregon)",
        "locationType" : "AWS Region",
        "feeCode" : "Snowball-Extra-Days-Fee-Edge",
        "feeDescription" : "Fee for extra days of Snowball Edge",
        "usagetype" : "PDX-Snowball-Edge-Extra-Day",
        "operation" : "",
        "snowballType" : "Edge"
      }
    },
    "ZD25KABJB9WKPMJ7" : {
      "sku" : "ZD25KABJB9WKPMJ7",
      "productFamily" : "Extra Days",
      "attributes" : {
        "servicecode" : "SnowballExtraDays",
        "location" : "Asia Pacific (Mumbai)",
        "locationType" : "AWS Region",
        "feeCode" : "Snowball-Extra-Days-Fee-Edge",
        "feeDescription" : "Fee for extra days of Snowball Edge",
        "usagetype" : "BOM-Snowball-Edge-Extra-Day",
        "operation" : "",
        "snowballType" : "Edge"
      }
    },
    "PJ8BZ9XE7ECE9XBN" : {
      "sku" : "PJ8BZ9XE7ECE9XBN",
      "productFamily" : "Extra Days",
      "attributes" : {
        "servicecode" : "SnowballExtraDays",
        "location" : "US West (N. California)",
        "locationType" : "AWS Region",
        "feeCode" : "Snowball-Extra-Days-Fee-Edge",
        "feeDescription" : "Fee for extra days of Snowball Edge",
        "usagetype" : "SFO-Snowball-Edge-Extra-Day",
        "operation" : "",
        "snowballType" : "Edge"
      }
    },
    "9GHW3MFNXS45ZP37" : {
      "sku" : "9GHW3MFNXS45ZP37",
      "productFamily" : "Extra Days",
      "attributes" : {
        "servicecode" : "SnowballExtraDays",
        "location" : "Asia Pacific (Tokyo)",
        "locationType" : "AWS Region",
        "feeCode" : "Snowball-Extra-Days-Fee-Standard",
        "feeDescription" : "Fee for extra days of Snowball Standard",
        "usagetype" : "NRT-Snowball-Extra-Day-Charge",
        "operation" : "",
        "snowballType" : "Standard"
      }
    },
    "9F8UVEUHFG45BTGJ" : {
      "sku" : "9F8UVEUHFG45BTGJ",
      "productFamily" : "Extra Days",
      "attributes" : {
        "servicecode" : "SnowballExtraDays",
        "location" : "US East (N. Virginia)",
        "locationType" : "AWS Region",
        "feeCode" : "Snowball-Extra-Days-Fee-Standard",
        "feeDescription" : "Fee for extra days of Snowball Standard",
        "usagetype" : "Snowball-Extra-Day-Charge",
        "operation" : "",
        "snowballType" : "Standard"
      }
    },
    "YZZQTVEVUHH8SEK8" : {
      "sku" : "YZZQTVEVUHH8SEK8",
      "productFamily" : "Extra Days",
      "attributes" : {
        "servicecode" : "SnowballExtraDays",
        "location" : "EU (Frankfurt)",
        "locationType" : "AWS Region",
        "feeCode" : "Snowball-Extra-Days-Fee-Edge",
        "feeDescription" : "Fee for extra days of Snowball Edge",
        "usagetype" : "FRA-Snowball-Edge-Extra-Day",
        "operation" : "",
        "snowballType" : "Edge"
      }
    },
    "MFRYM98MQP9575VW" : {
      "sku" : "MFRYM98MQP9575VW",
      "productFamily" : "Extra Days",
      "attributes" : {
        "servicecode" : "SnowballExtraDays",
        "location" : "US West (N. California)",
        "locationType" : "AWS Region",
        "feeCode" : "Snowball-Extra-Days-Fee-Standard",
        "feeDescription" : "Fee for extra days of Snowball Standard",
        "usagetype" : "SFO-Snowball-Extra-Day-Charge",
        "operation" : "",
        "snowballType" : "Standard"
      }
    },
    "3WU5XWM8KG7XFPQE" : {
      "sku" : "3WU5XWM8KG7XFPQE",
      "productFamily" : "Extra Days",
      "attributes" : {
        "servicecode" : "SnowballExtraDays",
        "location" : "South America (Sao Paulo)",
        "locationType" : "AWS Region",
        "feeCode" : "Snowball-Extra-Days-Fee-Standard",
        "feeDescription" : "Fee for extra days of Snowball Standard",
        "usagetype" : "GRU-Snowball-Extra-Day-Charge",
        "operation" : "",
        "snowballType" : "Standard"
      }
    },
    "HXHTG4NG7MSWZPDH" : {
      "sku" : "HXHTG4NG7MSWZPDH",
      "productFamily" : "Extra Days",
      "attributes" : {
        "servicecode" : "SnowballExtraDays",
        "location" : "US East (N. Virginia)",
        "locationType" : "AWS Region",
        "feeCode" : "Snowball-Extra-Days-Fee-Edge",
        "feeDescription" : "Fee for extra days of Snowball Edge",
        "usagetype" : "IAD-Snowball-Edge-Extra-Day",
        "operation" : "",
        "snowballType" : "Edge"
      }
    },
    "57T4CP98B78PRWET" : {
      "sku" : "57T4CP98B78PRWET",
      "productFamily" : "Extra Days",
      "attributes" : {
        "servicecode" : "SnowballExtraDays",
        "location" : "Canada (Central)",
        "locationType" : "AWS Region",
        "feeCode" : "Snowball-Extra-Days-Fee-Edge",
        "feeDescription" : "Fee for extra days of Snowball Edge",
        "usagetype" : "YUL-Snowball-Edge-Extra-Day",
        "operation" : "",
        "snowballType" : "Edge"
      }
    },
    "TXF5U634G4SZ7PDV" : {
      "sku" : "TXF5U634G4SZ7PDV",
      "productFamily" : "Extra Days",
      "attributes" : {
        "servicecode" : "SnowballExtraDays",
        "location" : "Canada (Central)",
        "locationType" : "AWS Region",
        "feeCode" : "Snowball-Extra-Days-Fee-Standard",
        "feeDescription" : "Fee for extra days of Snowball Standard",
        "usagetype" : "YUL-Snowball-Extra-Day-Charge",
        "operation" : "",
        "snowballType" : "Standard"
      }
    },
    "B2Z5PGHQSBY3KER5" : {
      "sku" : "B2Z5PGHQSBY3KER5",
      "productFamily" : "Extra Days",
      "attributes" : {
        "servicecode" : "SnowballExtraDays",
        "location" : "AWS GovCloud (US)",
        "locationType" : "AWS Region",
        "feeCode" : "Snowball-Extra-Days-Fee-Edge",
        "feeDescription" : "Fee for extra days of Snowball Edge",
        "usagetype" : "PDT-Snowball-Edge-Extra-Day",
        "operation" : "",
        "snowballType" : "Edge"
      }
    },
    "67559J6B67BUYC29" : {
      "sku" : "67559J6B67BUYC29",
      "productFamily" : "Extra Days",
      "attributes" : {
        "servicecode" : "SnowballExtraDays",
        "location" : "Asia Pacific (Sydney)",
        "locationType" : "AWS Region",
        "feeCode" : "Snowball-Extra-Days-Fee-Standard",
        "feeDescription" : "Fee for extra days of Snowball Standard",
        "usagetype" : "SYD-Snowball-Extra-Day-Charge",
        "operation" : "",
        "snowballType" : "Standard"
      }
    },
    "8PW7BC35HH47VX2M" : {
      "sku" : "8PW7BC35HH47VX2M",
      "productFamily" : "Extra Days",
      "attributes" : {
        "servicecode" : "SnowballExtraDays",
        "location" : "EU (Frankfurt)",
        "locationType" : "AWS Region",
        "feeCode" : "Snowball-Extra-Days-Fee-Standard",
        "feeDescription" : "Fee for extra days of Snowball Standard",
        "usagetype" : "FRA-Snowball-Extra-Day-Charge",
        "operation" : "",
        "snowballType" : "Standard"
      }
    },
    "THB6B3AJRCWRH7T5" : {
      "sku" : "THB6B3AJRCWRH7T5",
      "productFamily" : "Extra Days",
      "attributes" : {
        "servicecode" : "SnowballExtraDays",
        "location" : "US East (Ohio)",
        "locationType" : "AWS Region",
        "feeCode" : "Snowball-Extra-Days-Fee-Standard",
        "feeDescription" : "Fee for extra days of Snowball Standard",
        "usagetype" : "CMH-Snowball-Extra-Day-Charge",
        "operation" : "",
        "snowballType" : "Standard"
      }
    },
    "8ZNSAU8HUCZZ8CQQ" : {
      "sku" : "8ZNSAU8HUCZZ8CQQ",
      "productFamily" : "Extra Days",
      "attributes" : {
        "servicecode" : "SnowballExtraDays",
        "location" : "Asia Pacific (Tokyo)",
        "locationType" : "AWS Region",
        "feeCode" : "Snowball-Extra-Days-Fee-Edge",
        "feeDescription" : "Fee for extra days of Snowball Edge",
        "usagetype" : "NRT-Snowball-Edge-Extra-Day",
        "operation" : "",
        "snowballType" : "Edge"
      }
    },
    "FHYV8SFPT8KFMRJ4" : {
      "sku" : "FHYV8SFPT8KFMRJ4",
      "productFamily" : "Extra Days",
      "attributes" : {
        "servicecode" : "SnowballExtraDays",
        "location" : "South America (Sao Paulo)",
        "locationType" : "AWS Region",
        "feeCode" : "Snowball-Extra-Days-Fee-Edge",
        "feeDescription" : "Fee for extra days of Snowball Edge",
        "usagetype" : "GRU-Snowball-Edge-Extra-Day",
        "operation" : "",
        "snowballType" : "Edge"
      }
    },
    "F227KMQXFSN2BNYF" : {
      "sku" : "F227KMQXFSN2BNYF",
      "productFamily" : "Extra Days",
      "attributes" : {
        "servicecode" : "SnowballExtraDays",
        "location" : "US West (Oregon)",
        "locationType" : "AWS Region",
        "feeCode" : "Snowball-Extra-Days-Fee-Standard",
        "feeDescription" : "Fee for extra days of Snowball Standard",
        "usagetype" : "PDX-Snowball-Extra-Day-Charge",
        "operation" : "",
        "snowballType" : "Standard"
      }
    },
    "32PDTA5AZP4YHNKK" : {
      "sku" : "32PDTA5AZP4YHNKK",
      "productFamily" : "Extra Days",
      "attributes" : {
        "servicecode" : "SnowballExtraDays",
        "location" : "US East (Ohio)",
        "locationType" : "AWS Region",
        "feeCode" : "Snowball-Extra-Days-Fee-Edge",
        "feeDescription" : "Fee for extra days of Snowball Edge",
        "usagetype" : "CMH-Snowball-Edge-Extra-Day",
        "operation" : "",
        "snowballType" : "Edge"
      }
    }
  },
  "terms" : {
    "OnDemand" : {
      "CH954QTGHBP9GXDB" : {
        "CH954QTGHBP9GXDB.JRTCKXETXF" : {
          "offerTermCode" : "JRTCKXETXF",
          "sku" : "CH954QTGHBP9GXDB",
          "effectiveDate" : "2017-01-01T00:00:00Z",
          "priceDimensions" : {
            "CH954QTGHBP9GXDB.JRTCKXETXF.6YS6EN2CT7" : {
              "rateCode" : "CH954QTGHBP9GXDB.JRTCKXETXF.6YS6EN2CT7",
              "description" : "LHR Edge Extra Day Charge",
              "beginRange" : "0",
              "endRange" : "Inf",
              "unit" : "day",
              "pricePerUnit" : {
                "USD" : "30.0000000000"
              },
              "appliesTo" : [ ]
            }
          },
          "termAttributes" : { }
        }
      },
      "8SW5VJYDH6P2QZJW" : {
        "8SW5VJYDH6P2QZJW.JRTCKXETXF" : {
          "offerTermCode" : "JRTCKXETXF",
          "sku" : "8SW5VJYDH6P2QZJW",
          "effectiveDate" : "2017-01-01T00:00:00Z",
          "priceDimensions" : {
            "8SW5VJYDH6P2QZJW.JRTCKXETXF.6YS6EN2CT7" : {
              "rateCode" : "8SW5VJYDH6P2QZJW.JRTCKXETXF.6YS6EN2CT7",
              "description" : "LHR Extra Day Charge",
              "beginRange" : "0",
              "endRange" : "Inf",
              "unit" : "day",
              "pricePerUnit" : {
                "USD" : "15.0000000000"
              },
              "appliesTo" : [ ]
            }
          },
          "termAttributes" : { }
        }
      },
      "GD4UREAX6HNTFHUH" : {
        "GD4UREAX6HNTFHUH.JRTCKXETXF" : {
          "offerTermCode" : "JRTCKXETXF",
          "sku" : "GD4UREAX6HNTFHUH",
          "effectiveDate" : "2017-01-01T00:00:00Z",
          "priceDimensions" : {
            "GD4UREAX6HNTFHUH.JRTCKXETXF.6YS6EN2CT7" : {
              "rateCode" : "GD4UREAX6HNTFHUH.JRTCKXETXF.6YS6EN2CT7",
              "description" : "SYD Edge Extra Day Charge",
              "beginRange" : "0",
              "endRange" : "Inf",
              "unit" : "day",
              "pricePerUnit" : {
                "USD" : "30.0000000000"
              },
              "appliesTo" : [ ]
            }
          },
          "termAttributes" : { }
        }
      },
      "25BJH8UPDFV7H4FE" : {
        "25BJH8UPDFV7H4FE.JRTCKXETXF" : {
          "offerTermCode" : "JRTCKXETXF",
          "sku" : "25BJH8UPDFV7H4FE",
          "effectiveDate" : "2017-01-01T00:00:00Z",
          "priceDimensions" : {
            "25BJH8UPDFV7H4FE.JRTCKXETXF.6YS6EN2CT7" : {
              "rateCode" : "25BJH8UPDFV7H4FE.JRTCKXETXF.6YS6EN2CT7",
              "description" : "BOM Extra Day Charge",
              "beginRange" : "0",
              "endRange" : "Inf",
              "unit" : "day",
              "pricePerUnit" : {
                "USD" : "15.0000000000"
              },
              "appliesTo" : [ ]
            }
          },
          "termAttributes" : { }
        }
      },
      "AUJ8VRDMFNHMFAW7" : {
        "AUJ8VRDMFNHMFAW7.JRTCKXETXF" : {
          "offerTermCode" : "JRTCKXETXF",
          "sku" : "AUJ8VRDMFNHMFAW7",
          "effectiveDate" : "2017-01-01T00:00:00Z",
          "priceDimensions" : {
            "AUJ8VRDMFNHMFAW7.JRTCKXETXF.6YS6EN2CT7" : {
              "rateCode" : "AUJ8VRDMFNHMFAW7.JRTCKXETXF.6YS6EN2CT7",
              "description" : "DUB Extra Day Charge",
              "beginRange" : "0",
              "endRange" : "Inf",
              "unit" : "day",
              "pricePerUnit" : {
                "USD" : "15.0000000000"
              },
              "appliesTo" : [ ]
            }
          },
          "termAttributes" : { }
        }
      },
      "4K6KJKG7AT26FEPZ" : {
        "4K6KJKG7AT26FEPZ.JRTCKXETXF" : {
          "offerTermCode" : "JRTCKXETXF",
          "sku" : "4K6KJKG7AT26FEPZ",
          "effectiveDate" : "2017-01-01T00:00:00Z",
          "priceDimensions" : {
            "4K6KJKG7AT26FEPZ.JRTCKXETXF.6YS6EN2CT7" : {
              "rateCode" : "4K6KJKG7AT26FEPZ.JRTCKXETXF.6YS6EN2CT7",
              "description" : "DUB Edge Extra Day Charge",
              "beginRange" : "0",
              "endRange" : "Inf",
              "unit" : "day",
              "pricePerUnit" : {
                "USD" : "30.0000000000"
              },
              "appliesTo" : [ ]
            }
          },
          "termAttributes" : { }
        }
      },
      "P3BZ43QRSMPGAWX4" : {
        "P3BZ43QRSMPGAWX4.JRTCKXETXF" : {
          "offerTermCode" : "JRTCKXETXF",
          "sku" : "P3BZ43QRSMPGAWX4",
          "effectiveDate" : "2017-01-01T00:00:00Z",
          "priceDimensions" : {
            "P3BZ43QRSMPGAWX4.JRTCKXETXF.6YS6EN2CT7" : {
              "rateCode" : "P3BZ43QRSMPGAWX4.JRTCKXETXF.6YS6EN2CT7",
              "description" : "PDT Extra Day Charge",
              "beginRange" : "0",
              "endRange" : "Inf",
              "unit" : "day",
              "pricePerUnit" : {
                "USD" : "15.0000000000"
              },
              "appliesTo" : [ ]
            }
          },
          "termAttributes" : { }
        }
      },
      "EH476ZHC3X56YMT5" : {
        "EH476ZHC3X56YMT5.JRTCKXETXF" : {
          "offerTermCode" : "JRTCKXETXF",
          "sku" : "EH476ZHC3X56YMT5",
          "effectiveDate" : "2017-01-01T00:00:00Z",
          "priceDimensions" : {
            "EH476ZHC3X56YMT5.JRTCKXETXF.6YS6EN2CT7" : {
              "rateCode" : "EH476ZHC3X56YMT5.JRTCKXETXF.6YS6EN2CT7",
              "description" : "PDX Edge Extra Day Charge",
              "beginRange" : "0",
              "endRange" : "Inf",
              "unit" : "day",
              "pricePerUnit" : {
                "USD" : "30.0000000000"
              },
              "appliesTo" : [ ]
            }
          },
          "termAttributes" : { }
        }
      },
      "ZD25KABJB9WKPMJ7" : {
        "ZD25KABJB9WKPMJ7.JRTCKXETXF" : {
          "offerTermCode" : "JRTCKXETXF",
          "sku" : "ZD25KABJB9WKPMJ7",
          "effectiveDate" : "2017-01-01T00:00:00Z",
          "priceDimensions" : {
            "ZD25KABJB9WKPMJ7.JRTCKXETXF.6YS6EN2CT7" : {
              "rateCode" : "ZD25KABJB9WKPMJ7.JRTCKXETXF.6YS6EN2CT7",
              "description" : "BOM Edge Extra Day Charge",
              "beginRange" : "0",
              "endRange" : "Inf",
              "unit" : "day",
              "pricePerUnit" : {
                "USD" : "30.0000000000"
              },
              "appliesTo" : [ ]
            }
          },
          "termAttributes" : { }
        }
      },
      "PJ8BZ9XE7ECE9XBN" : {
        "PJ8BZ9XE7ECE9XBN.JRTCKXETXF" : {
          "offerTermCode" : "JRTCKXETXF",
          "sku" : "PJ8BZ9XE7ECE9XBN",
          "effectiveDate" : "2017-01-01T00:00:00Z",
          "priceDimensions" : {
            "PJ8BZ9XE7ECE9XBN.JRTCKXETXF.6YS6EN2CT7" : {
              "rateCode" : "PJ8BZ9XE7ECE9XBN.JRTCKXETXF.6YS6EN2CT7",
              "description" : "SFO Edge Extra Day Charge",
              "beginRange" : "0",
              "endRange" : "Inf",
              "unit" : "day",
              "pricePerUnit" : {
                "USD" : "30.0000000000"
              },
              "appliesTo" : [ ]
            }
          },
          "termAttributes" : { }
        }
      },
      "9GHW3MFNXS45ZP37" : {
        "9GHW3MFNXS45ZP37.JRTCKXETXF" : {
          "offerTermCode" : "JRTCKXETXF",
          "sku" : "9GHW3MFNXS45ZP37",
          "effectiveDate" : "2017-01-01T00:00:00Z",
          "priceDimensions" : {
            "9GHW3MFNXS45ZP37.JRTCKXETXF.6YS6EN2CT7" : {
              "rateCode" : "9GHW3MFNXS45ZP37.JRTCKXETXF.6YS6EN2CT7",
              "description" : "NRT Extra Day Charge",
              "beginRange" : "0",
              "endRange" : "Inf",
              "unit" : "day",
              "pricePerUnit" : {
                "USD" : "15.0000000000"
              },
              "appliesTo" : [ ]
            }
          },
          "termAttributes" : { }
        }
      },
      "9F8UVEUHFG45BTGJ" : {
        "9F8UVEUHFG45BTGJ.JRTCKXETXF" : {
          "offerTermCode" : "JRTCKXETXF",
          "sku" : "9F8UVEUHFG45BTGJ",
          "effectiveDate" : "2017-01-01T00:00:00Z",
          "priceDimensions" : {
            "9F8UVEUHFG45BTGJ.JRTCKXETXF.6YS6EN2CT7" : {
              "rateCode" : "9F8UVEUHFG45BTGJ.JRTCKXETXF.6YS6EN2CT7",
              "description" : "Extra Day Charge",
              "beginRange" : "0",
              "endRange" : "Inf",
              "unit" : "day",
              "pricePerUnit" : {
                "USD" : "15.0000000000"
              },
              "appliesTo" : [ ]
            }
          },
          "termAttributes" : { }
        }
      },
      "YZZQTVEVUHH8SEK8" : {
        "YZZQTVEVUHH8SEK8.JRTCKXETXF" : {
          "offerTermCode" : "JRTCKXETXF",
          "sku" : "YZZQTVEVUHH8SEK8",
          "effectiveDate" : "2017-01-01T00:00:00Z",
          "priceDimensions" : {
            "YZZQTVEVUHH8SEK8.JRTCKXETXF.6YS6EN2CT7" : {
              "rateCode" : "YZZQTVEVUHH8SEK8.JRTCKXETXF.6YS6EN2CT7",
              "description" : "FRA Edge Extra Day Charge",
              "beginRange" : "0",
              "endRange" : "Inf",
              "unit" : "day",
              "pricePerUnit" : {
                "USD" : "30.0000000000"
              },
              "appliesTo" : [ ]
            }
          },
          "termAttributes" : { }
        }
      },
      "MFRYM98MQP9575VW" : {
        "MFRYM98MQP9575VW.JRTCKXETXF" : {
          "offerTermCode" : "JRTCKXETXF",
          "sku" : "MFRYM98MQP9575VW",
          "effectiveDate" : "2017-01-01T00:00:00Z",
          "priceDimensions" : {
            "MFRYM98MQP9575VW.JRTCKXETXF.6YS6EN2CT7" : {
              "rateCode" : "MFRYM98MQP9575VW.JRTCKXETXF.6YS6EN2CT7",
              "description" : "SFO Extra Day Charge",
              "beginRange" : "0",
              "endRange" : "Inf",
              "unit" : "day",
              "pricePerUnit" : {
                "USD" : "15.0000000000"
              },
              "appliesTo" : [ ]
            }
          },
          "termAttributes" : { }
        }
      },
      "3WU5XWM8KG7XFPQE" : {
        "3WU5XWM8KG7XFPQE.JRTCKXETXF" : {
          "offerTermCode" : "JRTCKXETXF",
          "sku" : "3WU5XWM8KG7XFPQE",
          "effectiveDate" : "2017-01-01T00:00:00Z",
          "priceDimensions" : {
            "3WU5XWM8KG7XFPQE.JRTCKXETXF.6YS6EN2CT7" : {
              "rateCode" : "3WU5XWM8KG7XFPQE.JRTCKXETXF.6YS6EN2CT7",
              "description" : "GRU Extra Day Charge",
              "beginRange" : "0",
              "endRange" : "Inf",
              "unit" : "day",
              "pricePerUnit" : {
                "USD" : "15.0000000000"
              },
              "appliesTo" : [ ]
            }
          },
          "termAttributes" : { }
        }
      },
      "HXHTG4NG7MSWZPDH" : {
        "HXHTG4NG7MSWZPDH.JRTCKXETXF" : {
          "offerTermCode" : "JRTCKXETXF",
          "sku" : "HXHTG4NG7MSWZPDH",
          "effectiveDate" : "2017-01-01T00:00:00Z",
          "priceDimensions" : {
            "HXHTG4NG7MSWZPDH.JRTCKXETXF.6YS6EN2CT7" : {
              "rateCode" : "HXHTG4NG7MSWZPDH.JRTCKXETXF.6YS6EN2CT7",
              "description" : "IAD Edge Extra Day Charge",
              "beginRange" : "0",
              "endRange" : "Inf",
              "unit" : "day",
              "pricePerUnit" : {
                "USD" : "30.0000000000"
              },
              "appliesTo" : [ ]
            }
          },
          "termAttributes" : { }
        }
      },
      "57T4CP98B78PRWET" : {
        "57T4CP98B78PRWET.JRTCKXETXF" : {
          "offerTermCode" : "JRTCKXETXF",
          "sku" : "57T4CP98B78PRWET",
          "effectiveDate" : "2017-01-01T00:00:00Z",
          "priceDimensions" : {
            "57T4CP98B78PRWET.JRTCKXETXF.6YS6EN2CT7" : {
              "rateCode" : "57T4CP98B78PRWET.JRTCKXETXF.6YS6EN2CT7",
              "description" : "YUL Edge Extra Day Charge",
              "beginRange" : "0",
              "endRange" : "Inf",
              "unit" : "day",
              "pricePerUnit" : {
                "USD" : "30.0000000000"
              },
              "appliesTo" : [ ]
            }
          },
          "termAttributes" : { }
        }
      },
      "TXF5U634G4SZ7PDV" : {
        "TXF5U634G4SZ7PDV.JRTCKXETXF" : {
          "offerTermCode" : "JRTCKXETXF",
          "sku" : "TXF5U634G4SZ7PDV",
          "effectiveDate" : "2017-01-01T00:00:00Z",
          "priceDimensions" : {
            "TXF5U634G4SZ7PDV.JRTCKXETXF.6YS6EN2CT7" : {
              "rateCode" : "TXF5U634G4SZ7PDV.JRTCKXETXF.6YS6EN2CT7",
              "description" : "YUL Extra Day Charge",
              "beginRange" : "0",
              "endRange" : "Inf",
              "unit" : "day",
              "pricePerUnit" : {
                "USD" : "15.0000000000"
              },
              "appliesTo" : [ ]
            }
          },
          "termAttributes" : { }
        }
      },
      "B2Z5PGHQSBY3KER5" : {
        "B2Z5PGHQSBY3KER5.JRTCKXETXF" : {
          "offerTermCode" : "JRTCKXETXF",
          "sku" : "B2Z5PGHQSBY3KER5",
          "effectiveDate" : "2017-01-01T00:00:00Z",
          "priceDimensions" : {
            "B2Z5PGHQSBY3KER5.JRTCKXETXF.6YS6EN2CT7" : {
              "rateCode" : "B2Z5PGHQSBY3KER5.JRTCKXETXF.6YS6EN2CT7",
              "description" : "PDT Edge Extra Day Charge",
              "beginRange" : "0",
              "endRange" : "Inf",
              "unit" : "day",
              "pricePerUnit" : {
                "USD" : "30.0000000000"
              },
              "appliesTo" : [ ]
            }
          },
          "termAttributes" : { }
        }
      },
      "67559J6B67BUYC29" : {
        "67559J6B67BUYC29.JRTCKXETXF" : {
          "offerTermCode" : "JRTCKXETXF",
          "sku" : "67559J6B67BUYC29",
          "effectiveDate" : "2017-01-01T00:00:00Z",
          "priceDimensions" : {
            "67559J6B67BUYC29.JRTCKXETXF.6YS6EN2CT7" : {
              "rateCode" : "67559J6B67BUYC29.JRTCKXETXF.6YS6EN2CT7",
              "description" : "SYD Extra Day Charge",
              "beginRange" : "0",
              "endRange" : "Inf",
              "unit" : "day",
              "pricePerUnit" : {
                "USD" : "15.0000000000"
              },
              "appliesTo" : [ ]
            }
          },
          "termAttributes" : { }
        }
      },
      "8PW7BC35HH47VX2M" : {
        "8PW7BC35HH47VX2M.JRTCKXETXF" : {
          "offerTermCode" : "JRTCKXETXF",
          "sku" : "8PW7BC35HH47VX2M",
          "effectiveDate" : "2017-01-01T00:00:00Z",
          "priceDimensions" : {
            "8PW7BC35HH47VX2M.JRTCKXETXF.6YS6EN2CT7" : {
              "rateCode" : "8PW7BC35HH47VX2M.JRTCKXETXF.6YS6EN2CT7",
              "description" : "FRA Extra Day Charge",
              "beginRange" : "0",
              "endRange" : "Inf",
              "unit" : "day",
              "pricePerUnit" : {
                "USD" : "15.0000000000"
              },
              "appliesTo" : [ ]
            }
          },
          "termAttributes" : { }
        }
      },
      "THB6B3AJRCWRH7T5" : {
        "THB6B3AJRCWRH7T5.JRTCKXETXF" : {
          "offerTermCode" : "JRTCKXETXF",
          "sku" : "THB6B3AJRCWRH7T5",
          "effectiveDate" : "2017-01-01T00:00:00Z",
          "priceDimensions" : {
            "THB6B3AJRCWRH7T5.JRTCKXETXF.6YS6EN2CT7" : {
              "rateCode" : "THB6B3AJRCWRH7T5.JRTCKXETXF.6YS6EN2CT7",
              "description" : "CMH Extra Day Charge",
              "beginRange" : "0",
              "endRange" : "Inf",
              "unit" : "day",
              "pricePerUnit" : {
                "USD" : "15.0000000000"
              },
              "appliesTo" : [ ]
            }
          },
          "termAttributes" : { }
        }
      },
      "8ZNSAU8HUCZZ8CQQ" : {
        "8ZNSAU8HUCZZ8CQQ.JRTCKXETXF" : {
          "offerTermCode" : "JRTCKXETXF",
          "sku" : "8ZNSAU8HUCZZ8CQQ",
          "effectiveDate" : "2017-01-01T00:00:00Z",
          "priceDimensions" : {
            "8ZNSAU8HUCZZ8CQQ.JRTCKXETXF.6YS6EN2CT7" : {
              "rateCode" : "8ZNSAU8HUCZZ8CQQ.JRTCKXETXF.6YS6EN2CT7",
              "description" : "NRT Edge Extra Day Charge",
              "beginRange" : "0",
              "endRange" : "Inf",
              "unit" : "day",
              "pricePerUnit" : {
                "USD" : "30.0000000000"
              },
              "appliesTo" : [ ]
            }
          },
          "termAttributes" : { }
        }
      },
      "FHYV8SFPT8KFMRJ4" : {
        "FHYV8SFPT8KFMRJ4.JRTCKXETXF" : {
          "offerTermCode" : "JRTCKXETXF",
          "sku" : "FHYV8SFPT8KFMRJ4",
          "effectiveDate" : "2017-01-01T00:00:00Z",
          "priceDimensions" : {
            "FHYV8SFPT8KFMRJ4.JRTCKXETXF.6YS6EN2CT7" : {
              "rateCode" : "FHYV8SFPT8KFMRJ4.JRTCKXETXF.6YS6EN2CT7",
              "description" : "GRU Edge Extra Day Charge",
              "beginRange" : "0",
              "endRange" : "Inf",
              "unit" : "day",
              "pricePerUnit" : {
                "USD" : "30.0000000000"
              },
              "appliesTo" : [ ]
            }
          },
          "termAttributes" : { }
        }
      },
      "F227KMQXFSN2BNYF" : {
        "F227KMQXFSN2BNYF.JRTCKXETXF" : {
          "offerTermCode" : "JRTCKXETXF",
          "sku" : "F227KMQXFSN2BNYF",
          "effectiveDate" : "2017-01-01T00:00:00Z",
          "priceDimensions" : {
            "F227KMQXFSN2BNYF.JRTCKXETXF.6YS6EN2CT7" : {
              "rateCode" : "F227KMQXFSN2BNYF.JRTCKXETXF.6YS6EN2CT7",
              "description" : "PDX Extra Day Charge",
              "beginRange" : "0",
              "endRange" : "Inf",
              "unit" : "day",
              "pricePerUnit" : {
                "USD" : "15.0000000000"
              },
              "appliesTo" : [ ]
            }
          },
          "termAttributes" : { }
        }
      },
      "32PDTA5AZP4YHNKK" : {
        "32PDTA5AZP4YHNKK.JRTCKXETXF" : {
          "offerTermCode" : "JRTCKXETXF",
          "sku" : "32PDTA5AZP4YHNKK",
          "effectiveDate" : "2017-01-01T00:00:00Z",
          "priceDimensions" : {
            "32PDTA5AZP4YHNKK.JRTCKXETXF.6YS6EN2CT7" : {
              "rateCode" : "32PDTA5AZP4YHNKK.JRTCKXETXF.6YS6EN2CT7",
              "description" : "CMH Edge Extra Day Charge",
              "beginRange" : "0",
              "endRange" : "Inf",
              "unit" : "day",
              "pricePerUnit" : {
                "USD" : "30.0000000000"
              },
              "appliesTo" : [ ]
            }
          },
          "termAttributes" : { }
        }
      }
    }
  }
}