{
  "formatVersion" : "v1.0",
  "disclaimer" : "This pricing list is for informational purposes only. All prices are subject to the additional terms included in the pricing pages on http://aws.amazon.com. All Free Tier prices are also subject to the terms included at https://aws.amazon.com/free/",
  "offerCode" : "AmazonWorkMail",
  "version" : "20170419201245",
  "publicationDate" : "2017-04-19T20:12:45Z",
  "products" : {
    "67MBZGRH34DGJK57" : {
      "sku" : "67MBZGRH34DGJK57",
      "productFamily" : "Enterprise Applications",
      "attributes" : {
        "servicecode" : "AmazonWorkMail",
        "location" : "US West (Oregon)",
        "locationType" : "AWS Region",
        "usagetype" : "USW2-WorkMail-FreeTier-UserHrs",
        "operation" : "",
        "freeTier" : "Y",
        "mailboxStorage" : "50GB"
      }
    },
    "8PKFR8SGFERTRYG2" : {
      "sku" : "8PKFR8SGFERTRYG2",
      "productFamily" : "Enterprise Applications",
      "attributes" : {
        "servicecode" : "AmazonWorkMail",
        "location" : "US East (N. Virginia)",
        "locationType" : "AWS Region",
        "usagetype" : "USE1-WorkMail-FreeTier-UserHrs",
        "operation" : "",
        "freeTier" : "Y",
        "mailboxStorage" : "50GB"
      }
    },
    "GJ2WD77XFX753GMU" : {
      "sku" : "GJ2WD77XFX753GMU",
      "productFamily" : "Enterprise Applications",
      "attributes" : {
        "servicecode" : "AmazonWorkMail",
        "location" : "US East (N. Virginia)",
        "locationType" : "AWS Region",
        "usagetype" : "USE1-WorkMail-NormalTier-UserHrs",
        "operation" : "",
        "freeTier" : "N",
        "mailboxStorage" : "50GB"
      }
    },
    "5CW4TM93K8YJ224U" : {
      "sku" : "5CW4TM93K8YJ224U",
      "productFamily" : "Enterprise Applications",
      "attributes" : {
        "servicecode" : "AmazonWorkMail",
        "location" : "US West (Oregon)",
        "locationType" : "AWS Region",
        "usagetype" : "USW2-WorkMail-NormalTier-UserHrs",
        "operation" : "",
        "freeTier" : "N",
        "mailboxStorage" : "50GB"
      }
    },
    "EE3PBN5PPN72CV98" : {
      "sku" : "EE3PBN5PPN72CV98",
      "productFamily" : "Enterprise Applications",
      "attributes" : {
        "servicecode" : "AmazonWorkMail",
        "location" : "EU (Ireland)",
        "locationType" : "AWS Region",
        "usagetype" : "EUW1-WorkMail-NormalTier-UserHrs",
        "operation" : "",
        "freeTier" : "N",
        "mailboxStorage" : "50GB"
      }
    },
    "BT3JRDF6VZHPNDS4" : {
      "sku" : "BT3JRDF6VZHPNDS4",
      "productFamily" : "Enterprise Applications",
      "attributes" : {
        "servicecode" : "AmazonWorkMail",
        "location" : "EU (Ireland)",
        "locationType" : "AWS Region",
        "usagetype" : "EUW1-WorkMail-FreeTier-UserHrs",
        "operation" : "",
        "freeTier" : "Y",
        "mailboxStorage" : "50GB"
      }
    }
  },
  "terms" : {
    "OnDemand" : {
      "67MBZGRH34DGJK57" : {
        "67MBZGRH34DGJK57.JRTCKXETXF" : {
          "offerTermCode" : "JRTCKXETXF",
          "sku" : "67MBZGRH34DGJK57",
          "effectiveDate" : "2016-03-01T00:00:00Z",
          "priceDimensions" : {
            "67MBZGRH34DGJK57.JRTCKXETXF.6YS6EN2CT7" : {
              "rateCode" : "67MBZGRH34DGJK57.JRTCKXETXF.6YS6EN2CT7",
              "description" : "$0 per user per month under the free tier in the USW2 region",
              "beginRange" : "0",
              "endRange" : "Inf",
              "unit" : "User-Mo",
              "pricePerUnit" : {
                "USD" : "0.0000000000"
              },
              "appliesTo" : [ ]
            }
          },
          "termAttributes" : { }
        }
      },
      "8PKFR8SGFERTRYG2" : {
        "8PKFR8SGFERTRYG2.JRTCKXETXF" : {
          "offerTermCode" : "JRTCKXETXF",
          "sku" : "8PKFR8SGFERTRYG2",
          "effectiveDate" : "2016-03-01T00:00:00Z",
          "priceDimensions" : {
            "8PKFR8SGFERTRYG2.JRTCKXETXF.6YS6EN2CT7" : {
              "rateCode" : "8PKFR8SGFERTRYG2.JRTCKXETXF.6YS6EN2CT7",
              "description" : "$0 per user per month under the free tier in the USE1 region",
              "beginRange" : "0",
              "endRange" : "Inf",
              "unit" : "User-Mo",
              "pricePerUnit" : {
                "USD" : "0.0000000000"
              },
              "appliesTo" : [ ]
            }
          },
          "termAttributes" : { }
        }
      },
      "GJ2WD77XFX753GMU" : {
        "GJ2WD77XFX753GMU.JRTCKXETXF" : {
          "offerTermCode" : "JRTCKXETXF",
          "sku" : "GJ2WD77XFX753GMU",
          "effectiveDate" : "2016-03-01T00:00:00Z",
          "priceDimensions" : {
            "GJ2WD77XFX753GMU.JRTCKXETXF.6YS6EN2CT7" : {
              "rateCode" : "GJ2WD77XFX753GMU.JRTCKXETXF.6YS6EN2CT7",
              "description" : "$4 per user per month in the USE1 region",
              "beginRange" : "0",
              "endRange" : "Inf",
              "unit" : "User-Mo",
              "pricePerUnit" : {
                "USD" : "4.0000000000"
              },
              "appliesTo" : [ ]
            }
          },
          "termAttributes" : { }
        }
      },
      "5CW4TM93K8YJ224U" : {
        "5CW4TM93K8YJ224U.JRTCKXETXF" : {
          "offerTermCode" : "JRTCKXETXF",
          "sku" : "5CW4TM93K8YJ224U",
          "effectiveDate" : "2016-03-01T00:00:00Z",
          "priceDimensions" : {
            "5CW4TM93K8YJ224U.JRTCKXETXF.6YS6EN2CT7" : {
              "rateCode" : "5CW4TM93K8YJ224U.JRTCKXETXF.6YS6EN2CT7",
              "description" : "$4 per user per month under the normal tier in the USW2 region",
              "beginRange" : "0",
              "endRange" : "Inf",
              "unit" : "User-Mo",
              "pricePerUnit" : {
                "USD" : "4.0000000000"
              },
              "appliesTo" : [ ]
            }
          },
          "termAttributes" : { }
        }
      },
      "EE3PBN5PPN72CV98" : {
        "EE3PBN5PPN72CV98.JRTCKXETXF" : {
          "offerTermCode" : "JRTCKXETXF",
          "sku" : "EE3PBN5PPN72CV98",
          "effectiveDate" : "2016-03-01T00:00:00Z",
          "priceDimensions" : {
            "EE3PBN5PPN72CV98.JRTCKXETXF.6YS6EN2CT7" : {
              "rateCode" : "EE3PBN5PPN72CV98.JRTCKXETXF.6YS6EN2CT7",
              "description" : "$4 per user per month in the EUW1 region",
              "beginRange" : "0",
              "endRange" : "Inf",
              "unit" : "User-Mo",
              "pricePerUnit" : {
                "USD" : "4.0000000000"
              },
              "appliesTo" : [ ]
            }
          },
          "termAttributes" : { }
        }
      },
      "BT3JRDF6VZHPNDS4" : {
        "BT3JRDF6VZHPNDS4.JRTCKXETXF" : {
          "offerTermCode" : "JRTCKXETXF",
          "sku" : "BT3JRDF6VZHPNDS4",
          "effectiveDate" : "2016-03-01T00:00:00Z",
          "priceDimensions" : {
            "BT3JRDF6VZHPNDS4.JRTCKXETXF.6YS6EN2CT7" : {
              "rateCode" : "BT3JRDF6VZHPNDS4.JRTCKXETXF.6YS6EN2CT7",
              "description" : "$0 per user per month under the free tier in the EUW1 region",
              "beginRange" : "0",
              "endRange" : "Inf",
              "unit" : "User-Mo",
              "pricePerUnit" : {
                "USD" : "0.0000000000"
              },
              "appliesTo" : [ ]
            }
          },
          "termAttributes" : { }
        }
      }
    }
  }
}