{
  "formatVersion" : "v1.0",
  "disclaimer" : "This pricing list is for informational purposes only. All prices are subject to the additional terms included in the pricing pages on http://aws.amazon.com. All Free Tier prices are also subject to the terms included at https://aws.amazon.com/free/",
  "offerCode" : "AmazonETS",
  "version" : "20170419202053",
  "publicationDate" : "2017-04-19T20:20:53Z",
  "products" : {
    "6QXAV5C23X3N6D84" : {
      "sku" : "6QXAV5C23X3N6D84",
      "productFamily" : "Audio",
      "attributes" : {
        "servicecode" : "AmazonETS",
        "location" : "US West (N. California)",
        "locationType" : "AWS Region",
        "usagetype" : "USW1-ets-audio-success",
        "operation" : "",
        "transcodingResult" : "Success",
        "videoResolution" : "Audio only"
      }
    },
    "VRX2E85QV2N79R6N" : {
      "sku" : "VRX2E85QV2N79R6N",
      "productFamily" : "Standard Definition",
      "attributes" : {
        "servicecode" : "AmazonETS",
        "location" : "Asia Pacific (Tokyo)",
        "locationType" : "AWS Region",
        "usagetype" : "APN1-ets-sd-error",
        "operation" : "",
        "transcodingResult" : "Error",
        "videoResolution" : "Less than 720p"
      }
    },
    "5SRUP8SR837DJUPV" : {
      "sku" : "5SRUP8SR837DJUPV",
      "productFamily" : "Standard Definition",
      "attributes" : {
        "servicecode" : "AmazonETS",
        "location" : "US West (Oregon)",
        "locationType" : "AWS Region",
        "usagetype" : "USW2-ets-sd-error",
        "operation" : "",
        "transcodingResult" : "Error",
        "videoResolution" : "Less than 720p"
      }
    },
    "2PS5CWVUXYHZC42Q" : {
      "sku" : "2PS5CWVUXYHZC42Q",
      "productFamily" : "Audio",
      "attributes" : {
        "servicecode" : "AmazonETS",
        "location" : "US West (Oregon)",
        "locationType" : "AWS Region",
        "usagetype" : "USW2-ets-audio-success",
        "operation" : "",
        "transcodingResult" : "Success",
        "videoResolution" : "Audio only"
      }
    },
    "A4R97WC2EFV3B72Q" : {
      "sku" : "A4R97WC2EFV3B72Q",
      "productFamily" : "Standard Definition",
      "attributes" : {
        "servicecode" : "AmazonETS",
        "location" : "US East (N. Virginia)",
        "locationType" : "AWS Region",
        "usagetype" : "ets-sd-success",
        "operation" : "",
        "transcodingResult" : "Success",
        "videoResolution" : "Less than 720p"
      }
    },
    "VVXJCQFFCNHDQSR4" : {
      "sku" : "VVXJCQFFCNHDQSR4",
      "productFamily" : "High Definition",
      "attributes" : {
        "servicecode" : "AmazonETS",
        "location" : "Asia Pacific (Tokyo)",
        "locationType" : "AWS Region",
        "usagetype" : "APN1-ets-hd-success",
        "operation" : "",
        "transcodingResult" : "Success",
        "videoResolution" : "720p and above"
      }
    },
    "E8CZEMMMZ6VCQPSK" : {
      "sku" : "E8CZEMMMZ6VCQPSK",
      "productFamily" : "Standard Definition",
      "attributes" : {
        "servicecode" : "AmazonETS",
        "location" : "Asia Pacific (Sydney)",
        "locationType" : "AWS Region",
        "usagetype" : "APS2-ets-sd-error",
        "operation" : "",
        "transcodingResult" : "Error",
        "videoResolution" : "Less than 720p"
      }
    },
    "VJTHP8HDT5UYN9CA" : {
      "sku" : "VJTHP8HDT5UYN9CA",
      "productFamily" : "High Definition",
      "attributes" : {
        "servicecode" : "AmazonETS",
        "location" : "Asia Pacific (Mumbai)",
        "locationType" : "AWS Region",
        "usagetype" : "APS3-ets-hd-success",
        "operation" : "",
        "transcodingResult" : "Success",
        "videoResolution" : "720p and above"
      }
    },
    "YF8PPTSR7UM7CZG9" : {
      "sku" : "YF8PPTSR7UM7CZG9",
      "productFamily" : "High Definition",
      "attributes" : {
        "servicecode" : "AmazonETS",
        "location" : "US West (Oregon)",
        "locationType" : "AWS Region",
        "usagetype" : "USW2-ets-hd-success",
        "operation" : "",
        "transcodingResult" : "Success",
        "videoResolution" : "720p and above"
      }
    },
    "94N4V6GS7B8PS66B" : {
      "sku" : "94N4V6GS7B8PS66B",
      "productFamily" : "Audio",
      "attributes" : {
        "servicecode" : "AmazonETS",
        "location" : "US West (N. California)",
        "locationType" : "AWS Region",
        "usagetype" : "USW1-ets-audio-error",
        "operation" : "",
        "transcodingResult" : "Error",
        "videoResolution" : "Audio only"
      }
    },
    "G8X9SEMT6JWR5F5Z" : {
      "sku" : "G8X9SEMT6JWR5F5Z",
      "productFamily" : "Audio",
      "attributes" : {
        "servicecode" : "AmazonETS",
        "location" : "US East (N. Virginia)",
        "locationType" : "AWS Region",
        "usagetype" : "ets-audio-success",
        "operation" : "",
        "transcodingResult" : "Success",
        "videoResolution" : "Audio only"
      }
    },
    "XJ3HVNKEQ8QHZYQQ" : {
      "sku" : "XJ3HVNKEQ8QHZYQQ",
      "productFamily" : "Audio",
      "attributes" : {
        "servicecode" : "AmazonETS",
        "location" : "EU (Ireland)",
        "locationType" : "AWS Region",
        "usagetype" : "EU-ets-audio-success",
        "operation" : "",
        "transcodingResult" : "Success",
        "videoResolution" : "Audio only"
      }
    },
    "42TGA2CPGV274QR2" : {
      "sku" : "42TGA2CPGV274QR2",
      "productFamily" : "Standard Definition",
      "attributes" : {
        "servicecode" : "AmazonETS",
        "location" : "US East (N. Virginia)",
        "locationType" : "AWS Region",
        "usagetype" : "ets-sd-error",
        "operation" : "",
        "transcodingResult" : "Error",
        "videoResolution" : "Less than 720p"
      }
    },
    "TBRWHTQQ68FUJ23W" : {
      "sku" : "TBRWHTQQ68FUJ23W",
      "productFamily" : "Audio",
      "attributes" : {
        "servicecode" : "AmazonETS",
        "location" : "Asia Pacific (Tokyo)",
        "locationType" : "AWS Region",
        "usagetype" : "APN1-ets-audio-success",
        "operation" : "",
        "transcodingResult" : "Success",
        "videoResolution" : "Audio only"
      }
    },
    "2M7EQWCEEZSJ69U7" : {
      "sku" : "2M7EQWCEEZSJ69U7",
      "productFamily" : "Audio",
      "attributes" : {
        "servicecode" : "AmazonETS",
        "location" : "Asia Pacific (Singapore)",
        "locationType" : "AWS Region",
        "usagetype" : "APS1-ets-audio-success",
        "operation" : "",
        "transcodingResult" : "Success",
        "videoResolution" : "Audio only"
      }
    },
    "6DAYWSKZJNMDZ2G5" : {
      "sku" : "6DAYWSKZJNMDZ2G5",
      "productFamily" : "Standard Definition",
      "attributes" : {
        "servicecode" : "AmazonETS",
        "location" : "US West (N. California)",
        "locationType" : "AWS Region",
        "usagetype" : "USW1-ets-sd-error",
        "operation" : "",
        "transcodingResult" : "Error",
        "videoResolution" : "Less than 720p"
      }
    },
    "A2DWF9B3GF7UCPPR" : {
      "sku" : "A2DWF9B3GF7UCPPR",
      "productFamily" : "Audio",
      "attributes" : {
        "servicecode" : "AmazonETS",
        "location" : "Asia Pacific (Sydney)",
        "locationType" : "AWS Region",
        "usagetype" : "APS2-ets-audio-success",
        "operation" : "",
        "transcodingResult" : "Success",
        "videoResolution" : "Audio only"
      }
    },
    "F2XQ94QWHWJ9MQTC" : {
      "sku" : "F2XQ94QWHWJ9MQTC",
      "productFamily" : "Audio",
      "attributes" : {
        "servicecode" : "AmazonETS",
        "location" : "US East (N. Virginia)",
        "locationType" : "AWS Region",
        "usagetype" : "ets-audio-error",
        "operation" : "",
        "transcodingResult" : "Error",
        "videoResolution" : "Audio only"
      }
    },
    "V35CETBNGB4SQT2W" : {
      "sku" : "V35CETBNGB4SQT2W",
      "productFamily" : "Standard Definition",
      "attributes" : {
        "servicecode" : "AmazonETS",
        "location" : "Asia Pacific (Tokyo)",
        "locationType" : "AWS Region",
        "usagetype" : "APN1-ets-sd-success",
        "operation" : "",
        "transcodingResult" : "Success",
        "videoResolution" : "Less than 720p"
      }
    },
    "B694MF7JAZJDUSEW" : {
      "sku" : "B694MF7JAZJDUSEW",
      "productFamily" : "High Definition",
      "attributes" : {
        "servicecode" : "AmazonETS",
        "location" : "EU (Ireland)",
        "locationType" : "AWS Region",
        "usagetype" : "EU-ets-hd-error",
        "operation" : "",
        "transcodingResult" : "Error",
        "videoResolution" : "720p and above"
      }
    },
    "C2JR2Y4SZXFYKW7B" : {
      "sku" : "C2JR2Y4SZXFYKW7B",
      "productFamily" : "Standard Definition",
      "attributes" : {
        "servicecode" : "AmazonETS",
        "location" : "Asia Pacific (Mumbai)",
        "locationType" : "AWS Region",
        "usagetype" : "APS3-ets-sd-success",
        "operation" : "",
        "transcodingResult" : "Success",
        "videoResolution" : "Less than 720p"
      }
    },
    "4UPKWMT4XKGSPXTA" : {
      "sku" : "4UPKWMT4XKGSPXTA",
      "productFamily" : "Audio",
      "attributes" : {
        "servicecode" : "AmazonETS",
        "location" : "Asia Pacific (Tokyo)",
        "locationType" : "AWS Region",
        "usagetype" : "APN1-ets-audio-error",
        "operation" : "",
        "transcodingResult" : "Error",
        "videoResolution" : "Audio only"
      }
    },
    "7H54P7A8XSKKDVGF" : {
      "sku" : "7H54P7A8XSKKDVGF",
      "productFamily" : "Standard Definition",
      "attributes" : {
        "servicecode" : "AmazonETS",
        "location" : "US West (Oregon)",
        "locationType" : "AWS Region",
        "usagetype" : "USW2-ets-sd-success",
        "operation" : "",
        "transcodingResult" : "Success",
        "videoResolution" : "Less than 720p"
      }
    },
    "ACM5HUHV5MTBSQ32" : {
      "sku" : "ACM5HUHV5MTBSQ32",
      "productFamily" : "High Definition",
      "attributes" : {
        "servicecode" : "AmazonETS",
        "location" : "EU (Ireland)",
        "locationType" : "AWS Region",
        "usagetype" : "EU-ets-hd-success",
        "operation" : "",
        "transcodingResult" : "Success",
        "videoResolution" : "720p and above"
      }
    },
    "M4P5XCFENNGRF7ZG" : {
      "sku" : "M4P5XCFENNGRF7ZG",
      "productFamily" : "High Definition",
      "attributes" : {
        "servicecode" : "AmazonETS",
        "location" : "Any",
        "locationType" : "AWS Region",
        "usagetype" : "Global-ets-hd-success",
        "operation" : "",
        "transcodingResult" : "Success",
        "videoResolution" : "720p and above"
      }
    },
    "8MA3Q7YGNXUC9NF8" : {
      "sku" : "8MA3Q7YGNXUC9NF8",
      "productFamily" : "High Definition",
      "attributes" : {
        "servicecode" : "AmazonETS",
        "location" : "Asia Pacific (Mumbai)",
        "locationType" : "AWS Region",
        "usagetype" : "APS3-ets-hd-error",
        "operation" : "",
        "transcodingResult" : "Error",
        "videoResolution" : "720p and above"
      }
    },
    "Q3TNTH98MAC9Q9CV" : {
      "sku" : "Q3TNTH98MAC9Q9CV",
      "productFamily" : "Standard Definition",
      "attributes" : {
        "servicecode" : "AmazonETS",
        "location" : "EU (Ireland)",
        "locationType" : "AWS Region",
        "usagetype" : "EU-ets-sd-error",
        "operation" : "",
        "transcodingResult" : "Error",
        "videoResolution" : "Less than 720p"
      }
    },
    "PBJ28CAUYT3C3APY" : {
      "sku" : "PBJ28CAUYT3C3APY",
      "productFamily" : "Standard Definition",
      "attributes" : {
        "servicecode" : "AmazonETS",
        "location" : "Asia Pacific (Singapore)",
        "locationType" : "AWS Region",
        "usagetype" : "APS1-ets-sd-success",
        "operation" : "",
        "transcodingResult" : "Success",
        "videoResolution" : "Less than 720p"
      }
    },
    "4JD3VGHAHQ6QWPVT" : {
      "sku" : "4JD3VGHAHQ6QWPVT",
      "productFamily" : "Standard Definition",
      "attributes" : {
        "servicecode" : "AmazonETS",
        "location" : "Asia Pacific (Sydney)",
        "locationType" : "AWS Region",
        "usagetype" : "APS2-ets-sd-success",
        "operation" : "",
        "transcodingResult" : "Success",
        "videoResolution" : "Less than 720p"
      }
    },
    "W2HGVVFS6R8Y863H" : {
      "sku" : "W2HGVVFS6R8Y863H",
      "productFamily" : "High Definition",
      "attributes" : {
        "servicecode" : "AmazonETS",
        "location" : "US West (N. California)",
        "locationType" : "AWS Region",
        "usagetype" : "USW1-ets-hd-error",
        "operation" : "",
        "transcodingResult" : "Error",
        "videoResolution" : "720p and above"
      }
    },
    "U5KDAK4CQ2VWEG49" : {
      "sku" : "U5KDAK4CQ2VWEG49",
      "productFamily" : "High Definition",
      "attributes" : {
        "servicecode" : "AmazonETS",
        "location" : "Asia Pacific (Sydney)",
        "locationType" : "AWS Region",
        "usagetype" : "APS2-ets-hd-success",
        "operation" : "",
        "transcodingResult" : "Success",
        "videoResolution" : "720p and above"
      }
    },
    "J3XRKMYKBKWWR34R" : {
      "sku" : "J3XRKMYKBKWWR34R",
      "productFamily" : "Standard Definition",
      "attributes" : {
        "servicecode" : "AmazonETS",
        "location" : "Asia Pacific (Singapore)",
        "locationType" : "AWS Region",
        "usagetype" : "APS1-ets-sd-error",
        "operation" : "",
        "transcodingResult" : "Error",
        "videoResolution" : "Less than 720p"
      }
    },
    "2WCD8HSZSBUVUN4K" : {
      "sku" : "2WCD8HSZSBUVUN4K",
      "productFamily" : "High Definition",
      "attributes" : {
        "servicecode" : "AmazonETS",
        "location" : "US East (N. Virginia)",
        "locationType" : "AWS Region",
        "usagetype" : "ets-hd-error",
        "operation" : "",
        "transcodingResult" : "Error",
        "videoResolution" : "720p and above"
      }
    },
    "THWWGST7GXXEMM2P" : {
      "sku" : "THWWGST7GXXEMM2P",
      "productFamily" : "Audio",
      "attributes" : {
        "servicecode" : "AmazonETS",
        "location" : "EU (Ireland)",
        "locationType" : "AWS Region",
        "usagetype" : "EU-ets-audio-error",
        "operation" : "",
        "transcodingResult" : "Error",
        "videoResolution" : "Audio only"
      }
    },
    "5FYNDTBJGFNQ8E2F" : {
      "sku" : "5FYNDTBJGFNQ8E2F",
      "productFamily" : "Standard Definition",
      "attributes" : {
        "servicecode" : "AmazonETS",
        "location" : "Any",
        "locationType" : "AWS Region",
        "usagetype" : "Global-ets-sd-success",
        "operation" : "",
        "transcodingResult" : "Success",
        "videoResolution" : "Less than 720p"
      }
    },
    "2N4MPTUXKPSSU7VJ" : {
      "sku" : "2N4MPTUXKPSSU7VJ",
      "productFamily" : "Audio",
      "attributes" : {
        "servicecode" : "AmazonETS",
        "location" : "Asia Pacific (Mumbai)",
        "locationType" : "AWS Region",
        "usagetype" : "APS3-ets-audio-success",
        "operation" : "",
        "transcodingResult" : "Success",
        "videoResolution" : "Audio only"
      }
    },
    "5GHU6594JCWR72VZ" : {
      "sku" : "5GHU6594JCWR72VZ",
      "productFamily" : "High Definition",
      "attributes" : {
        "servicecode" : "AmazonETS",
        "location" : "US West (N. California)",
        "locationType" : "AWS Region",
        "usagetype" : "USW1-ets-hd-success",
        "operation" : "",
        "transcodingResult" : "Success",
        "videoResolution" : "720p and above"
      }
    },
    "6KNNYA363QH2R346" : {
      "sku" : "6KNNYA363QH2R346",
      "productFamily" : "Standard Definition",
      "attributes" : {
        "servicecode" : "AmazonETS",
        "location" : "US West (N. California)",
        "locationType" : "AWS Region",
        "usagetype" : "USW1-ets-sd-success",
        "operation" : "",
        "transcodingResult" : "Success",
        "videoResolution" : "Less than 720p"
      }
    },
    "MQZ2STE75H44RXFY" : {
      "sku" : "MQZ2STE75H44RXFY",
      "productFamily" : "High Definition",
      "attributes" : {
        "servicecode" : "AmazonETS",
        "location" : "Asia Pacific (Singapore)",
        "locationType" : "AWS Region",
        "usagetype" : "APS1-ets-hd-success",
        "operation" : "",
        "transcodingResult" : "Success",
        "videoResolution" : "720p and above"
      }
    },
    "VW6FJWRWVMBC5TBY" : {
      "sku" : "VW6FJWRWVMBC5TBY",
      "productFamily" : "Standard Definition",
      "attributes" : {
        "servicecode" : "AmazonETS",
        "location" : "EU (Ireland)",
        "locationType" : "AWS Region",
        "usagetype" : "EU-ets-sd-success",
        "operation" : "",
        "transcodingResult" : "Success",
        "videoResolution" : "Less than 720p"
      }
    },
    "WDSV22AHS3FNCC2T" : {
      "sku" : "WDSV22AHS3FNCC2T",
      "productFamily" : "Audio",
      "attributes" : {
        "servicecode" : "AmazonETS",
        "location" : "Any",
        "locationType" : "AWS Region",
        "usagetype" : "global-ets-audio-success",
        "operation" : "",
        "transcodingResult" : "Success",
        "videoResolution" : "Audio only"
      }
    },
    "BE6KWNC3HZJUS2VS" : {
      "sku" : "BE6KWNC3HZJUS2VS",
      "productFamily" : "High Definition",
      "attributes" : {
        "servicecode" : "AmazonETS",
        "location" : "US West (Oregon)",
        "locationType" : "AWS Region",
        "usagetype" : "USW2-ets-hd-error",
        "operation" : "",
        "transcodingResult" : "Error",
        "videoResolution" : "720p and above"
      }
    },
    "X3ZQVUYKP78J9PFT" : {
      "sku" : "X3ZQVUYKP78J9PFT",
      "productFamily" : "Audio",
      "attributes" : {
        "servicecode" : "AmazonETS",
        "location" : "Asia Pacific (Singapore)",
        "locationType" : "AWS Region",
        "usagetype" : "APS1-ets-audio-error",
        "operation" : "",
        "transcodingResult" : "Error",
        "videoResolution" : "Audio only"
      }
    },
    "CBGFG8NH4X7QF9RZ" : {
      "sku" : "CBGFG8NH4X7QF9RZ",
      "productFamily" : "High Definition",
      "attributes" : {
        "servicecode" : "AmazonETS",
        "location" : "US East (N. Virginia)",
        "locationType" : "AWS Region",
        "usagetype" : "ets-hd-success",
        "operation" : "",
        "transcodingResult" : "Success",
        "videoResolution" : "720p and above"
      }
    },
    "82E72WZ2BXYNPX7X" : {
      "sku" : "82E72WZ2BXYNPX7X",
      "productFamily" : "Standard Definition",
      "attributes" : {
        "servicecode" : "AmazonETS",
        "location" : "Asia Pacific (Mumbai)",
        "locationType" : "AWS Region",
        "usagetype" : "APS3-ets-sd-error",
        "operation" : "",
        "transcodingResult" : "Error",
        "videoResolution" : "Less than 720p"
      }
    },
    "EGN95ZAVRCNEWGGC" : {
      "sku" : "EGN95ZAVRCNEWGGC",
      "productFamily" : "High Definition",
      "attributes" : {
        "servicecode" : "AmazonETS",
        "location" : "Asia Pacific (Singapore)",
        "locationType" : "AWS Region",
        "usagetype" : "APS1-ets-hd-error",
        "operation" : "",
        "transcodingResult" : "Error",
        "videoResolution" : "720p and above"
      }
    },
    "69U6EQ84TGYFKAHF" : {
      "sku" : "69U6EQ84TGYFKAHF",
      "productFamily" : "Audio",
      "attributes" : {
        "servicecode" : "AmazonETS",
        "location" : "Asia Pacific (Sydney)",
        "locationType" : "AWS Region",
        "usagetype" : "APS2-ets-audio-error",
        "operation" : "",
        "transcodingResult" : "Error",
        "videoResolution" : "Audio only"
      }
    },
    "Z49M4D8ES2PX5C3P" : {
      "sku" : "Z49M4D8ES2PX5C3P",
      "productFamily" : "High Definition",
      "attributes" : {
        "servicecode" : "AmazonETS",
        "location" : "Asia Pacific (Tokyo)",
        "locationType" : "AWS Region",
        "usagetype" : "APN1-ets-hd-error",
        "operation" : "",
        "transcodingResult" : "Error",
        "videoResolution" : "720p and above"
      }
    },
    "F2NUSMMZ4QY68JVJ" : {
      "sku" : "F2NUSMMZ4QY68JVJ",
      "productFamily" : "Audio",
      "attributes" : {
        "servicecode" : "AmazonETS",
        "location" : "US West (Oregon)",
        "locationType" : "AWS Region",
        "usagetype" : "USW2-ets-audio-error",
        "operation" : "",
        "transcodingResult" : "Error",
        "videoResolution" : "Audio only"
      }
    },
    "XJW24V4SCXQUGVP8" : {
      "sku" : "XJW24V4SCXQUGVP8",
      "productFamily" : "Audio",
      "attributes" : {
        "servicecode" : "AmazonETS",
        "location" : "Asia Pacific (Mumbai)",
        "locationType" : "AWS Region",
        "usagetype" : "APS3-ets-audio-error",
        "operation" : "",
        "transcodingResult" : "Error",
        "videoResolution" : "Audio only"
      }
    },
    "M285SQPS49XR3GGV" : {
      "sku" : "M285SQPS49XR3GGV",
      "productFamily" : "High Definition",
      "attributes" : {
        "servicecode" : "AmazonETS",
        "location" : "Asia Pacific (Sydney)",
        "locationType" : "AWS Region",
        "usagetype" : "APS2-ets-hd-error",
        "operation" : "",
        "transcodingResult" : "Error",
        "videoResolution" : "720p and above"
      }
    }
  },
  "terms" : {
    "OnDemand" : {
      "6QXAV5C23X3N6D84" : {
        "6QXAV5C23X3N6D84.JRTCKXETXF" : {
          "offerTermCode" : "JRTCKXETXF",
          "sku" : "6QXAV5C23X3N6D84",
          "effectiveDate" : "2016-09-01T00:00:00Z",
          "priceDimensions" : {
            "6QXAV5C23X3N6D84.JRTCKXETXF.6YS6EN2CT7" : {
              "rateCode" : "6QXAV5C23X3N6D84.JRTCKXETXF.6YS6EN2CT7",
              "description" : "US West (N California) $0.00522 per minute for audio-only transcoding using Amazon Elastic Transcoder",
              "beginRange" : "0",
              "endRange" : "Inf",
              "unit" : "minutes",
              "pricePerUnit" : {
                "USD" : "0.0052200000"
              },
              "appliesTo" : [ ]
            }
          },
          "termAttributes" : { }
        }
      },
      "VRX2E85QV2N79R6N" : {
        "VRX2E85QV2N79R6N.JRTCKXETXF" : {
          "offerTermCode" : "JRTCKXETXF",
          "sku" : "VRX2E85QV2N79R6N",
          "effectiveDate" : "2016-09-01T00:00:00Z",
          "priceDimensions" : {
            "VRX2E85QV2N79R6N.JRTCKXETXF.6YS6EN2CT7" : {
              "rateCode" : "VRX2E85QV2N79R6N.JRTCKXETXF.6YS6EN2CT7",
              "description" : "Asia Pacific (Tokyo) $0.000 for SD content that failed to transcode using Amazon Elastic Transcoder",
              "beginRange" : "0",
              "endRange" : "Inf",
              "unit" : "minutes",
              "pricePerUnit" : {
                "USD" : "0.0000000000"
              },
              "appliesTo" : [ ]
            }
          },
          "termAttributes" : { }
        }
      },
      "5SRUP8SR837DJUPV" : {
        "5SRUP8SR837DJUPV.JRTCKXETXF" : {
          "offerTermCode" : "JRTCKXETXF",
          "sku" : "5SRUP8SR837DJUPV",
          "effectiveDate" : "2016-09-01T00:00:00Z",
          "priceDimensions" : {
            "5SRUP8SR837DJUPV.JRTCKXETXF.6YS6EN2CT7" : {
              "rateCode" : "5SRUP8SR837DJUPV.JRTCKXETXF.6YS6EN2CT7",
              "description" : "US West (Oregon) $0.000 for SD content that failed to transcode using Amazon Elastic Transcoder",
              "beginRange" : "0",
              "endRange" : "Inf",
              "unit" : "minutes",
              "pricePerUnit" : {
                "USD" : "0.0000000000"
              },
              "appliesTo" : [ ]
            }
          },
          "termAttributes" : { }
        }
      },
      "2PS5CWVUXYHZC42Q" : {
        "2PS5CWVUXYHZC42Q.JRTCKXETXF" : {
          "offerTermCode" : "JRTCKXETXF",
          "sku" : "2PS5CWVUXYHZC42Q",
          "effectiveDate" : "2016-09-01T00:00:00Z",
          "priceDimensions" : {
            "2PS5CWVUXYHZC42Q.JRTCKXETXF.6YS6EN2CT7" : {
              "rateCode" : "2PS5CWVUXYHZC42Q.JRTCKXETXF.6YS6EN2CT7",
              "description" : "US West (Oregon) $0.0045 per minute for audio-only transcoding using Amazon Elastic Transcoder",
              "beginRange" : "0",
              "endRange" : "Inf",
              "unit" : "minutes",
              "pricePerUnit" : {
                "USD" : "0.0045000000"
              },
              "appliesTo" : [ ]
            }
          },
          "termAttributes" : { }
        }
      },
      "A4R97WC2EFV3B72Q" : {
        "A4R97WC2EFV3B72Q.JRTCKXETXF" : {
          "offerTermCode" : "JRTCKXETXF",
          "sku" : "A4R97WC2EFV3B72Q",
          "effectiveDate" : "2016-09-01T00:00:00Z",
          "priceDimensions" : {
            "A4R97WC2EFV3B72Q.JRTCKXETXF.6YS6EN2CT7" : {
              "rateCode" : "A4R97WC2EFV3B72Q.JRTCKXETXF.6YS6EN2CT7",
              "description" : "US East (N. Virginia) $0.015 per minute for SD content transcoded using Amazon Elastic Transcoder",
              "beginRange" : "0",
              "endRange" : "Inf",
              "unit" : "minutes",
              "pricePerUnit" : {
                "USD" : "0.0150000000"
              },
              "appliesTo" : [ ]
            }
          },
          "termAttributes" : { }
        }
      },
      "VVXJCQFFCNHDQSR4" : {
        "VVXJCQFFCNHDQSR4.JRTCKXETXF" : {
          "offerTermCode" : "JRTCKXETXF",
          "sku" : "VVXJCQFFCNHDQSR4",
          "effectiveDate" : "2016-09-01T00:00:00Z",
          "priceDimensions" : {
            "VVXJCQFFCNHDQSR4.JRTCKXETXF.6YS6EN2CT7" : {
              "rateCode" : "VVXJCQFFCNHDQSR4.JRTCKXETXF.6YS6EN2CT7",
              "description" : "Asia Pacific (Tokyo) $0.034 per minute for HD content transcoded using Amazon Elastic Transcoder",
              "beginRange" : "0",
              "endRange" : "Inf",
              "unit" : "minutes",
              "pricePerUnit" : {
                "USD" : "0.0340000000"
              },
              "appliesTo" : [ ]
            }
          },
          "termAttributes" : { }
        }
      },
      "E8CZEMMMZ6VCQPSK" : {
        "E8CZEMMMZ6VCQPSK.JRTCKXETXF" : {
          "offerTermCode" : "JRTCKXETXF",
          "sku" : "E8CZEMMMZ6VCQPSK",
          "effectiveDate" : "2016-09-01T00:00:00Z",
          "priceDimensions" : {
            "E8CZEMMMZ6VCQPSK.JRTCKXETXF.6YS6EN2CT7" : {
              "rateCode" : "E8CZEMMMZ6VCQPSK.JRTCKXETXF.6YS6EN2CT7",
              "description" : "Asia Pacific (Sydney) $0.000 for SD content that failed to transcode using Amazon Elastic Transcoder",
              "beginRange" : "0",
              "endRange" : "Inf",
              "unit" : "minutes",
              "pricePerUnit" : {
                "USD" : "0.0000000000"
              },
              "appliesTo" : [ ]
            }
          },
          "termAttributes" : { }
        }
      },
      "VJTHP8HDT5UYN9CA" : {
        "VJTHP8HDT5UYN9CA.JRTCKXETXF" : {
          "offerTermCode" : "JRTCKXETXF",
          "sku" : "VJTHP8HDT5UYN9CA",
          "effectiveDate" : "2016-09-01T00:00:00Z",
          "priceDimensions" : {
            "VJTHP8HDT5UYN9CA.JRTCKXETXF.6YS6EN2CT7" : {
              "rateCode" : "VJTHP8HDT5UYN9CA.JRTCKXETXF.6YS6EN2CT7",
              "description" : "Asia Pacific (Mumbai) $0.030 per minute for HD content transcoded using Amazon Elastic Transcoder",
              "beginRange" : "0",
              "endRange" : "Inf",
              "unit" : "minutes",
              "pricePerUnit" : {
                "USD" : "0.0300000000"
              },
              "appliesTo" : [ ]
            }
          },
          "termAttributes" : { }
        }
      },
      "YF8PPTSR7UM7CZG9" : {
        "YF8PPTSR7UM7CZG9.JRTCKXETXF" : {
          "offerTermCode" : "JRTCKXETXF",
          "sku" : "YF8PPTSR7UM7CZG9",
          "effectiveDate" : "2016-09-01T00:00:00Z",
          "priceDimensions" : {
            "YF8PPTSR7UM7CZG9.JRTCKXETXF.6YS6EN2CT7" : {
              "rateCode" : "YF8PPTSR7UM7CZG9.JRTCKXETXF.6YS6EN2CT7",
              "description" : "US West (Oregon) $0.030 per minute for HD content transcoded using Amazon Elastic Transcoder",
              "beginRange" : "0",
              "endRange" : "Inf",
              "unit" : "minutes",
              "pricePerUnit" : {
                "USD" : "0.0300000000"
              },
              "appliesTo" : [ ]
            }
          },
          "termAttributes" : { }
        }
      },
      "94N4V6GS7B8PS66B" : {
        "94N4V6GS7B8PS66B.JRTCKXETXF" : {
          "offerTermCode" : "JRTCKXETXF",
          "sku" : "94N4V6GS7B8PS66B",
          "effectiveDate" : "2016-09-01T00:00:00Z",
          "priceDimensions" : {
            "94N4V6GS7B8PS66B.JRTCKXETXF.6YS6EN2CT7" : {
              "rateCode" : "94N4V6GS7B8PS66B.JRTCKXETXF.6YS6EN2CT7",
              "description" : "US West (N California) audio that failed to transcode using Amazon Elastic Transcoder",
              "beginRange" : "0",
              "endRange" : "Inf",
              "unit" : "minutes",
              "pricePerUnit" : {
                "USD" : "0.0000000000"
              },
              "appliesTo" : [ ]
            }
          },
          "termAttributes" : { }
        }
      },
      "G8X9SEMT6JWR5F5Z" : {
        "G8X9SEMT6JWR5F5Z.JRTCKXETXF" : {
          "offerTermCode" : "JRTCKXETXF",
          "sku" : "G8X9SEMT6JWR5F5Z",
          "effectiveDate" : "2016-09-01T00:00:00Z",
          "priceDimensions" : {
            "G8X9SEMT6JWR5F5Z.JRTCKXETXF.6YS6EN2CT7" : {
              "rateCode" : "G8X9SEMT6JWR5F5Z.JRTCKXETXF.6YS6EN2CT7",
              "description" : "US East (N. Virginia) $0.0045 per minute for audio-only transcoding using Amazon Elastic Transcoder",
              "beginRange" : "0",
              "endRange" : "Inf",
              "unit" : "minutes",
              "pricePerUnit" : {
                "USD" : "0.0045000000"
              },
              "appliesTo" : [ ]
            }
          },
          "termAttributes" : { }
        }
      },
      "XJ3HVNKEQ8QHZYQQ" : {
        "XJ3HVNKEQ8QHZYQQ.JRTCKXETXF" : {
          "offerTermCode" : "JRTCKXETXF",
          "sku" : "XJ3HVNKEQ8QHZYQQ",
          "effectiveDate" : "2016-09-01T00:00:00Z",
          "priceDimensions" : {
            "XJ3HVNKEQ8QHZYQQ.JRTCKXETXF.6YS6EN2CT7" : {
              "rateCode" : "XJ3HVNKEQ8QHZYQQ.JRTCKXETXF.6YS6EN2CT7",
              "description" : "EU (Ireland) $0.00522 per minute for audio-only transcoding using Amazon Elastic Transcoder",
              "beginRange" : "0",
              "endRange" : "Inf",
              "unit" : "minutes",
              "pricePerUnit" : {
                "USD" : "0.0052200000"
              },
              "appliesTo" : [ ]
            }
          },
          "termAttributes" : { }
        }
      },
      "42TGA2CPGV274QR2" : {
        "42TGA2CPGV274QR2.JRTCKXETXF" : {
          "offerTermCode" : "JRTCKXETXF",
          "sku" : "42TGA2CPGV274QR2",
          "effectiveDate" : "2016-09-01T00:00:00Z",
          "priceDimensions" : {
            "42TGA2CPGV274QR2.JRTCKXETXF.6YS6EN2CT7" : {
              "rateCode" : "42TGA2CPGV274QR2.JRTCKXETXF.6YS6EN2CT7",
              "description" : "US East (N. Virginia) $0.000 for SD content that failed to transcode using Amazon Elastic Transcoder",
              "beginRange" : "0",
              "endRange" : "Inf",
              "unit" : "minutes",
              "pricePerUnit" : {
                "USD" : "0.0000000000"
              },
              "appliesTo" : [ ]
            }
          },
          "termAttributes" : { }
        }
      },
      "TBRWHTQQ68FUJ23W" : {
        "TBRWHTQQ68FUJ23W.JRTCKXETXF" : {
          "offerTermCode" : "JRTCKXETXF",
          "sku" : "TBRWHTQQ68FUJ23W",
          "effectiveDate" : "2016-09-01T00:00:00Z",
          "priceDimensions" : {
            "TBRWHTQQ68FUJ23W.JRTCKXETXF.6YS6EN2CT7" : {
              "rateCode" : "TBRWHTQQ68FUJ23W.JRTCKXETXF.6YS6EN2CT7",
              "description" : "Asia Pacific (Tokyo) $0.00522 per minute for audio-only transcoding using Amazon Elastic Transcoder",
              "beginRange" : "0",
              "endRange" : "Inf",
              "unit" : "minutes",
              "pricePerUnit" : {
                "USD" : "0.0052200000"
              },
              "appliesTo" : [ ]
            }
          },
          "termAttributes" : { }
        }
      },
      "2M7EQWCEEZSJ69U7" : {
        "2M7EQWCEEZSJ69U7.JRTCKXETXF" : {
          "offerTermCode" : "JRTCKXETXF",
          "sku" : "2M7EQWCEEZSJ69U7",
          "effectiveDate" : "2016-09-01T00:00:00Z",
          "priceDimensions" : {
            "2M7EQWCEEZSJ69U7.JRTCKXETXF.6YS6EN2CT7" : {
              "rateCode" : "2M7EQWCEEZSJ69U7.JRTCKXETXF.6YS6EN2CT7",
              "description" : "Asia Pacific (Singapore) $0.00522 per minute for audio-only transcoding using Amazon Elastic Transcoder",
              "beginRange" : "0",
              "endRange" : "Inf",
              "unit" : "minutes",
              "pricePerUnit" : {
                "USD" : "0.0052200000"
              },
              "appliesTo" : [ ]
            }
          },
          "termAttributes" : { }
        }
      },
      "6DAYWSKZJNMDZ2G5" : {
        "6DAYWSKZJNMDZ2G5.JRTCKXETXF" : {
          "offerTermCode" : "JRTCKXETXF",
          "sku" : "6DAYWSKZJNMDZ2G5",
          "effectiveDate" : "2016-09-01T00:00:00Z",
          "priceDimensions" : {
            "6DAYWSKZJNMDZ2G5.JRTCKXETXF.6YS6EN2CT7" : {
              "rateCode" : "6DAYWSKZJNMDZ2G5.JRTCKXETXF.6YS6EN2CT7",
              "description" : "US West (N California) $0.000 for SD content that failed to transcode using Amazon Elastic Transcoder",
              "beginRange" : "0",
              "endRange" : "Inf",
              "unit" : "minutes",
              "pricePerUnit" : {
                "USD" : "0.0000000000"
              },
              "appliesTo" : [ ]
            }
          },
          "termAttributes" : { }
        }
      },
      "A2DWF9B3GF7UCPPR" : {
        "A2DWF9B3GF7UCPPR.JRTCKXETXF" : {
          "offerTermCode" : "JRTCKXETXF",
          "sku" : "A2DWF9B3GF7UCPPR",
          "effectiveDate" : "2016-09-01T00:00:00Z",
          "priceDimensions" : {
            "A2DWF9B3GF7UCPPR.JRTCKXETXF.6YS6EN2CT7" : {
              "rateCode" : "A2DWF9B3GF7UCPPR.JRTCKXETXF.6YS6EN2CT7",
              "description" : "Asia Pacific (Sydney) $0.00522 per minute for audio-only transcoding using Amazon Elastic Transcoder",
              "beginRange" : "0",
              "endRange" : "Inf",
              "unit" : "minutes",
              "pricePerUnit" : {
                "USD" : "0.0052200000"
              },
              "appliesTo" : [ ]
            }
          },
          "termAttributes" : { }
        }
      },
      "F2XQ94QWHWJ9MQTC" : {
        "F2XQ94QWHWJ9MQTC.JRTCKXETXF" : {
          "offerTermCode" : "JRTCKXETXF",
          "sku" : "F2XQ94QWHWJ9MQTC",
          "effectiveDate" : "2016-09-01T00:00:00Z",
          "priceDimensions" : {
            "F2XQ94QWHWJ9MQTC.JRTCKXETXF.6YS6EN2CT7" : {
              "rateCode" : "F2XQ94QWHWJ9MQTC.JRTCKXETXF.6YS6EN2CT7",
              "description" : "US East (N. Virginia) audio that failed to transcode using Amazon Elastic Transcoder",
              "beginRange" : "0",
              "endRange" : "Inf",
              "unit" : "minutes",
              "pricePerUnit" : {
                "USD" : "0.0000000000"
              },
              "appliesTo" : [ ]
            }
          },
          "termAttributes" : { }
        }
      },
      "V35CETBNGB4SQT2W" : {
        "V35CETBNGB4SQT2W.JRTCKXETXF" : {
          "offerTermCode" : "JRTCKXETXF",
          "sku" : "V35CETBNGB4SQT2W",
          "effectiveDate" : "2016-09-01T00:00:00Z",
          "priceDimensions" : {
            "V35CETBNGB4SQT2W.JRTCKXETXF.6YS6EN2CT7" : {
              "rateCode" : "V35CETBNGB4SQT2W.JRTCKXETXF.6YS6EN2CT7",
              "description" : "Asia Pacific (Tokyo) $0.017 per minute for SD content transcoded using Amazon Elastic Transcoder",
              "beginRange" : "0",
              "endRange" : "Inf",
              "unit" : "minutes",
              "pricePerUnit" : {
                "USD" : "0.0170000000"
              },
              "appliesTo" : [ ]
            }
          },
          "termAttributes" : { }
        }
      },
      "B694MF7JAZJDUSEW" : {
        "B694MF7JAZJDUSEW.JRTCKXETXF" : {
          "offerTermCode" : "JRTCKXETXF",
          "sku" : "B694MF7JAZJDUSEW",
          "effectiveDate" : "2016-09-01T00:00:00Z",
          "priceDimensions" : {
            "B694MF7JAZJDUSEW.JRTCKXETXF.6YS6EN2CT7" : {
              "rateCode" : "B694MF7JAZJDUSEW.JRTCKXETXF.6YS6EN2CT7",
              "description" : "EU (Ireland) $0.000 for HD content that failed to transcode using Amazon Elastic Transcoder",
              "beginRange" : "0",
              "endRange" : "Inf",
              "unit" : "minutes",
              "pricePerUnit" : {
                "USD" : "0.0000000000"
              },
              "appliesTo" : [ ]
            }
          },
          "termAttributes" : { }
        }
      },
      "C2JR2Y4SZXFYKW7B" : {
        "C2JR2Y4SZXFYKW7B.JRTCKXETXF" : {
          "offerTermCode" : "JRTCKXETXF",
          "sku" : "C2JR2Y4SZXFYKW7B",
          "effectiveDate" : "2016-09-01T00:00:00Z",
          "priceDimensions" : {
            "C2JR2Y4SZXFYKW7B.JRTCKXETXF.6YS6EN2CT7" : {
              "rateCode" : "C2JR2Y4SZXFYKW7B.JRTCKXETXF.6YS6EN2CT7",
              "description" : "Asia Pacific (Mumbai) $0.015 per minute for SD content transcoded using Amazon Elastic Transcoder",
              "beginRange" : "0",
              "endRange" : "Inf",
              "unit" : "minutes",
              "pricePerUnit" : {
                "USD" : "0.0150000000"
              },
              "appliesTo" : [ ]
            }
          },
          "termAttributes" : { }
        }
      },
      "4UPKWMT4XKGSPXTA" : {
        "4UPKWMT4XKGSPXTA.JRTCKXETXF" : {
          "offerTermCode" : "JRTCKXETXF",
          "sku" : "4UPKWMT4XKGSPXTA",
          "effectiveDate" : "2016-09-01T00:00:00Z",
          "priceDimensions" : {
            "4UPKWMT4XKGSPXTA.JRTCKXETXF.6YS6EN2CT7" : {
              "rateCode" : "4UPKWMT4XKGSPXTA.JRTCKXETXF.6YS6EN2CT7",
              "description" : "Asia Pacific (Tokyo) audio that failed to transcode using Amazon Elastic Transcoder",
              "beginRange" : "0",
              "endRange" : "Inf",
              "unit" : "minutes",
              "pricePerUnit" : {
                "USD" : "0.0000000000"
              },
              "appliesTo" : [ ]
            }
          },
          "termAttributes" : { }
        }
      },
      "7H54P7A8XSKKDVGF" : {
        "7H54P7A8XSKKDVGF.JRTCKXETXF" : {
          "offerTermCode" : "JRTCKXETXF",
          "sku" : "7H54P7A8XSKKDVGF",
          "effectiveDate" : "2016-09-01T00:00:00Z",
          "priceDimensions" : {
            "7H54P7A8XSKKDVGF.JRTCKXETXF.6YS6EN2CT7" : {
              "rateCode" : "7H54P7A8XSKKDVGF.JRTCKXETXF.6YS6EN2CT7",
              "description" : "US West (Oregon) $0.015 per minute for SD content transcoded using Amazon Elastic Transcoder",
              "beginRange" : "0",
              "endRange" : "Inf",
              "unit" : "minutes",
              "pricePerUnit" : {
                "USD" : "0.0150000000"
              },
              "appliesTo" : [ ]
            }
          },
          "termAttributes" : { }
        }
      },
      "ACM5HUHV5MTBSQ32" : {
        "ACM5HUHV5MTBSQ32.JRTCKXETXF" : {
          "offerTermCode" : "JRTCKXETXF",
          "sku" : "ACM5HUHV5MTBSQ32",
          "effectiveDate" : "2016-09-01T00:00:00Z",
          "priceDimensions" : {
            "ACM5HUHV5MTBSQ32.JRTCKXETXF.6YS6EN2CT7" : {
              "rateCode" : "ACM5HUHV5MTBSQ32.JRTCKXETXF.6YS6EN2CT7",
              "description" : "EU (Ireland) $0.034 per minute for HD content transcoded using Amazon Elastic Transcoder",
              "beginRange" : "0",
              "endRange" : "Inf",
              "unit" : "minutes",
              "pricePerUnit" : {
                "USD" : "0.0340000000"
              },
              "appliesTo" : [ ]
            }
          },
          "termAttributes" : { }
        }
      },
      "M4P5XCFENNGRF7ZG" : {
        "M4P5XCFENNGRF7ZG.A429C66SYZ" : {
          "offerTermCode" : "A429C66SYZ",
          "sku" : "M4P5XCFENNGRF7ZG",
          "effectiveDate" : "2016-09-01T00:00:00Z",
          "priceDimensions" : {
            "M4P5XCFENNGRF7ZG.A429C66SYZ.DGNP37V5JW" : {
              "rateCode" : "M4P5XCFENNGRF7ZG.A429C66SYZ.DGNP37V5JW",
              "description" : "Global Free Tier for HD",
              "beginRange" : "0",
              "endRange" : "10",
              "unit" : "minutes",
              "pricePerUnit" : {
                "USD" : "0.0000000000"
              },
              "appliesTo" : [ "CBGFG8NH4X7QF9RZ", "5GHU6594JCWR72VZ", "VVXJCQFFCNHDQSR4", "MQZ2STE75H44RXFY", "VJTHP8HDT5UYN9CA", "YF8PPTSR7UM7CZG9", "ACM5HUHV5MTBSQ32", "U5KDAK4CQ2VWEG49" ]
            }
          },
          "termAttributes" : { }
        }
      },
      "8MA3Q7YGNXUC9NF8" : {
        "8MA3Q7YGNXUC9NF8.JRTCKXETXF" : {
          "offerTermCode" : "JRTCKXETXF",
          "sku" : "8MA3Q7YGNXUC9NF8",
          "effectiveDate" : "2016-09-01T00:00:00Z",
          "priceDimensions" : {
            "8MA3Q7YGNXUC9NF8.JRTCKXETXF.6YS6EN2CT7" : {
              "rateCode" : "8MA3Q7YGNXUC9NF8.JRTCKXETXF.6YS6EN2CT7",
              "description" : "Asia Pacific (Mumbai) $0.000 for HD content that failed to transcode using Amazon Elastic Transcoder",
              "beginRange" : "0",
              "endRange" : "Inf",
              "unit" : "minutes",
              "pricePerUnit" : {
                "USD" : "0.0000000000"
              },
              "appliesTo" : [ ]
            }
          },
          "termAttributes" : { }
        }
      },
      "Q3TNTH98MAC9Q9CV" : {
        "Q3TNTH98MAC9Q9CV.JRTCKXETXF" : {
          "offerTermCode" : "JRTCKXETXF",
          "sku" : "Q3TNTH98MAC9Q9CV",
          "effectiveDate" : "2016-09-01T00:00:00Z",
          "priceDimensions" : {
            "Q3TNTH98MAC9Q9CV.JRTCKXETXF.6YS6EN2CT7" : {
              "rateCode" : "Q3TNTH98MAC9Q9CV.JRTCKXETXF.6YS6EN2CT7",
              "description" : "EU (Ireland) $0.000 for SD content that failed to transcode using Amazon Elastic Transcoder",
              "beginRange" : "0",
              "endRange" : "Inf",
              "unit" : "minutes",
              "pricePerUnit" : {
                "USD" : "0.0000000000"
              },
              "appliesTo" : [ ]
            }
          },
          "termAttributes" : { }
        }
      },
      "PBJ28CAUYT3C3APY" : {
        "PBJ28CAUYT3C3APY.JRTCKXETXF" : {
          "offerTermCode" : "JRTCKXETXF",
          "sku" : "PBJ28CAUYT3C3APY",
          "effectiveDate" : "2016-09-01T00:00:00Z",
          "priceDimensions" : {
            "PBJ28CAUYT3C3APY.JRTCKXETXF.6YS6EN2CT7" : {
              "rateCode" : "PBJ28CAUYT3C3APY.JRTCKXETXF.6YS6EN2CT7",
              "description" : "Asia Pacific (Singapore) $0.017 per minute for SD content transcoded using Amazon Elastic Transcoder",
              "beginRange" : "0",
              "endRange" : "Inf",
              "unit" : "minutes",
              "pricePerUnit" : {
                "USD" : "0.0170000000"
              },
              "appliesTo" : [ ]
            }
          },
          "termAttributes" : { }
        }
      },
      "4JD3VGHAHQ6QWPVT" : {
        "4JD3VGHAHQ6QWPVT.JRTCKXETXF" : {
          "offerTermCode" : "JRTCKXETXF",
          "sku" : "4JD3VGHAHQ6QWPVT",
          "effectiveDate" : "2016-09-01T00:00:00Z",
          "priceDimensions" : {
            "4JD3VGHAHQ6QWPVT.JRTCKXETXF.6YS6EN2CT7" : {
              "rateCode" : "4JD3VGHAHQ6QWPVT.JRTCKXETXF.6YS6EN2CT7",
              "description" : "Asia Pacific (Sydney) $0.017 per minute for SD content transcoded using Amazon Elastic Transcoder",
              "beginRange" : "0",
              "endRange" : "Inf",
              "unit" : "minutes",
              "pricePerUnit" : {
                "USD" : "0.0170000000"
              },
              "appliesTo" : [ ]
            }
          },
          "termAttributes" : { }
        }
      },
      "W2HGVVFS6R8Y863H" : {
        "W2HGVVFS6R8Y863H.JRTCKXETXF" : {
          "offerTermCode" : "JRTCKXETXF",
          "sku" : "W2HGVVFS6R8Y863H",
          "effectiveDate" : "2016-09-01T00:00:00Z",
          "priceDimensions" : {
            "W2HGVVFS6R8Y863H.JRTCKXETXF.6YS6EN2CT7" : {
              "rateCode" : "W2HGVVFS6R8Y863H.JRTCKXETXF.6YS6EN2CT7",
              "description" : "US West (N California) $0.000 for HD content that failed to transcode using Amazon Elastic Transcoder",
              "beginRange" : "0",
              "endRange" : "Inf",
              "unit" : "minutes",
              "pricePerUnit" : {
                "USD" : "0.0000000000"
              },
              "appliesTo" : [ ]
            }
          },
          "termAttributes" : { }
        }
      },
      "U5KDAK4CQ2VWEG49" : {
        "U5KDAK4CQ2VWEG49.JRTCKXETXF" : {
          "offerTermCode" : "JRTCKXETXF",
          "sku" : "U5KDAK4CQ2VWEG49",
          "effectiveDate" : "2016-09-01T00:00:00Z",
          "priceDimensions" : {
            "U5KDAK4CQ2VWEG49.JRTCKXETXF.6YS6EN2CT7" : {
              "rateCode" : "U5KDAK4CQ2VWEG49.JRTCKXETXF.6YS6EN2CT7",
              "description" : "Asia Pacific (Sydney) $0.034 per minute for HD content transcoded using Amazon Elastic Transcoder",
              "beginRange" : "0",
              "endRange" : "Inf",
              "unit" : "minutes",
              "pricePerUnit" : {
                "USD" : "0.0340000000"
              },
              "appliesTo" : [ ]
            }
          },
          "termAttributes" : { }
        }
      },
      "J3XRKMYKBKWWR34R" : {
        "J3XRKMYKBKWWR34R.JRTCKXETXF" : {
          "offerTermCode" : "JRTCKXETXF",
          "sku" : "J3XRKMYKBKWWR34R",
          "effectiveDate" : "2016-09-01T00:00:00Z",
          "priceDimensions" : {
            "J3XRKMYKBKWWR34R.JRTCKXETXF.6YS6EN2CT7" : {
              "rateCode" : "J3XRKMYKBKWWR34R.JRTCKXETXF.6YS6EN2CT7",
              "description" : "Asia Pacific (Singapore) $0.000 for SD content that failed to transcode using Amazon Elastic Transcoder",
              "beginRange" : "0",
              "endRange" : "Inf",
              "unit" : "minutes",
              "pricePerUnit" : {
                "USD" : "0.0000000000"
              },
              "appliesTo" : [ ]
            }
          },
          "termAttributes" : { }
        }
      },
      "2WCD8HSZSBUVUN4K" : {
        "2WCD8HSZSBUVUN4K.JRTCKXETXF" : {
          "offerTermCode" : "JRTCKXETXF",
          "sku" : "2WCD8HSZSBUVUN4K",
          "effectiveDate" : "2016-09-01T00:00:00Z",
          "priceDimensions" : {
            "2WCD8HSZSBUVUN4K.JRTCKXETXF.6YS6EN2CT7" : {
              "rateCode" : "2WCD8HSZSBUVUN4K.JRTCKXETXF.6YS6EN2CT7",
              "description" : "US East (N. Virginia) $0.000 for HD content that failed to transcode using Amazon Elastic Transcoder",
              "beginRange" : "0",
              "endRange" : "Inf",
              "unit" : "minutes",
              "pricePerUnit" : {
                "USD" : "0.0000000000"
              },
              "appliesTo" : [ ]
            }
          },
          "termAttributes" : { }
        }
      },
      "THWWGST7GXXEMM2P" : {
        "THWWGST7GXXEMM2P.JRTCKXETXF" : {
          "offerTermCode" : "JRTCKXETXF",
          "sku" : "THWWGST7GXXEMM2P",
          "effectiveDate" : "2016-09-01T00:00:00Z",
          "priceDimensions" : {
            "THWWGST7GXXEMM2P.JRTCKXETXF.6YS6EN2CT7" : {
              "rateCode" : "THWWGST7GXXEMM2P.JRTCKXETXF.6YS6EN2CT7",
              "description" : "EU (Ireland) audio that failed to transcode using Amazon Elastic Transcoder",
              "beginRange" : "0",
              "endRange" : "Inf",
              "unit" : "minutes",
              "pricePerUnit" : {
                "USD" : "0.0000000000"
              },
              "appliesTo" : [ ]
            }
          },
          "termAttributes" : { }
        }
      },
      "5FYNDTBJGFNQ8E2F" : {
        "5FYNDTBJGFNQ8E2F.A429C66SYZ" : {
          "offerTermCode" : "A429C66SYZ",
          "sku" : "5FYNDTBJGFNQ8E2F",
          "effectiveDate" : "2016-09-01T00:00:00Z",
          "priceDimensions" : {
            "5FYNDTBJGFNQ8E2F.A429C66SYZ.HC9A29KZQM" : {
              "rateCode" : "5FYNDTBJGFNQ8E2F.A429C66SYZ.HC9A29KZQM",
              "description" : "Global Free Tier for SD",
              "beginRange" : "0",
              "endRange" : "20",
              "unit" : "minutes",
              "pricePerUnit" : {
                "USD" : "0.0000000000"
              },
              "appliesTo" : [ "6KNNYA363QH2R346", "C2JR2Y4SZXFYKW7B", "A4R97WC2EFV3B72Q", "VW6FJWRWVMBC5TBY", "PBJ28CAUYT3C3APY", "7H54P7A8XSKKDVGF", "V35CETBNGB4SQT2W", "4JD3VGHAHQ6QWPVT" ]
            }
          },
          "termAttributes" : { }
        }
      },
      "2N4MPTUXKPSSU7VJ" : {
        "2N4MPTUXKPSSU7VJ.JRTCKXETXF" : {
          "offerTermCode" : "JRTCKXETXF",
          "sku" : "2N4MPTUXKPSSU7VJ",
          "effectiveDate" : "2016-09-01T00:00:00Z",
          "priceDimensions" : {
            "2N4MPTUXKPSSU7VJ.JRTCKXETXF.6YS6EN2CT7" : {
              "rateCode" : "2N4MPTUXKPSSU7VJ.JRTCKXETXF.6YS6EN2CT7",
              "description" : "Asia Pacific (Mumbai) $0.0045 per minute for audio-only transcoding using Amazon Elastic Transcoder",
              "beginRange" : "0",
              "endRange" : "Inf",
              "unit" : "minutes",
              "pricePerUnit" : {
                "USD" : "0.0045000000"
              },
              "appliesTo" : [ ]
            }
          },
          "termAttributes" : { }
        }
      },
      "5GHU6594JCWR72VZ" : {
        "5GHU6594JCWR72VZ.JRTCKXETXF" : {
          "offerTermCode" : "JRTCKXETXF",
          "sku" : "5GHU6594JCWR72VZ",
          "effectiveDate" : "2016-09-01T00:00:00Z",
          "priceDimensions" : {
            "5GHU6594JCWR72VZ.JRTCKXETXF.6YS6EN2CT7" : {
              "rateCode" : "5GHU6594JCWR72VZ.JRTCKXETXF.6YS6EN2CT7",
              "description" : "US West (N California) $0.034 per minute for HD content transcoded using Amazon Elastic Transcoder",
              "beginRange" : "0",
              "endRange" : "Inf",
              "unit" : "minutes",
              "pricePerUnit" : {
                "USD" : "0.0340000000"
              },
              "appliesTo" : [ ]
            }
          },
          "termAttributes" : { }
        }
      },
      "6KNNYA363QH2R346" : {
        "6KNNYA363QH2R346.JRTCKXETXF" : {
          "offerTermCode" : "JRTCKXETXF",
          "sku" : "6KNNYA363QH2R346",
          "effectiveDate" : "2016-09-01T00:00:00Z",
          "priceDimensions" : {
            "6KNNYA363QH2R346.JRTCKXETXF.6YS6EN2CT7" : {
              "rateCode" : "6KNNYA363QH2R346.JRTCKXETXF.6YS6EN2CT7",
              "description" : "US West (N California) $0.017 per minute for SD content transcoded using Amazon Elastic Transcoder",
              "beginRange" : "0",
              "endRange" : "Inf",
              "unit" : "minutes",
              "pricePerUnit" : {
                "USD" : "0.0170000000"
              },
              "appliesTo" : [ ]
            }
          },
          "termAttributes" : { }
        }
      },
      "MQZ2STE75H44RXFY" : {
        "MQZ2STE75H44RXFY.JRTCKXETXF" : {
          "offerTermCode" : "JRTCKXETXF",
          "sku" : "MQZ2STE75H44RXFY",
          "effectiveDate" : "2016-09-01T00:00:00Z",
          "priceDimensions" : {
            "MQZ2STE75H44RXFY.JRTCKXETXF.6YS6EN2CT7" : {
              "rateCode" : "MQZ2STE75H44RXFY.JRTCKXETXF.6YS6EN2CT7",
              "description" : "Asia Pacific (Singapore) $0.034 per minute for HD content transcoded using Amazon Elastic Transcoder",
              "beginRange" : "0",
              "endRange" : "Inf",
              "unit" : "minutes",
              "pricePerUnit" : {
                "USD" : "0.0340000000"
              },
              "appliesTo" : [ ]
            }
          },
          "termAttributes" : { }
        }
      },
      "VW6FJWRWVMBC5TBY" : {
        "VW6FJWRWVMBC5TBY.JRTCKXETXF" : {
          "offerTermCode" : "JRTCKXETXF",
          "sku" : "VW6FJWRWVMBC5TBY",
          "effectiveDate" : "2016-09-01T00:00:00Z",
          "priceDimensions" : {
            "VW6FJWRWVMBC5TBY.JRTCKXETXF.6YS6EN2CT7" : {
              "rateCode" : "VW6FJWRWVMBC5TBY.JRTCKXETXF.6YS6EN2CT7",
              "description" : "EU (Ireland) $0.017 per minute for SD content transcoded using Amazon Elastic Transcoder",
              "beginRange" : "0",
              "endRange" : "Inf",
              "unit" : "minutes",
              "pricePerUnit" : {
                "USD" : "0.0170000000"
              },
              "appliesTo" : [ ]
            }
          },
          "termAttributes" : { }
        }
      },
      "WDSV22AHS3FNCC2T" : {
        "WDSV22AHS3FNCC2T.A429C66SYZ" : {
          "offerTermCode" : "A429C66SYZ",
          "sku" : "WDSV22AHS3FNCC2T",
          "effectiveDate" : "2016-09-01T00:00:00Z",
          "priceDimensions" : {
            "WDSV22AHS3FNCC2T.A429C66SYZ.HC9A29KZQM" : {
              "rateCode" : "WDSV22AHS3FNCC2T.A429C66SYZ.HC9A29KZQM",
              "description" : "Global Free Tier for audio",
              "beginRange" : "0",
              "endRange" : "20",
              "unit" : "minutes",
              "pricePerUnit" : {
                "USD" : "0.0000000000"
              },
              "appliesTo" : [ "6QXAV5C23X3N6D84", "A2DWF9B3GF7UCPPR", "2PS5CWVUXYHZC42Q", "G8X9SEMT6JWR5F5Z", "XJ3HVNKEQ8QHZYQQ", "TBRWHTQQ68FUJ23W", "2N4MPTUXKPSSU7VJ", "2M7EQWCEEZSJ69U7" ]
            }
          },
          "termAttributes" : { }
        }
      },
      "BE6KWNC3HZJUS2VS" : {
        "BE6KWNC3HZJUS2VS.JRTCKXETXF" : {
          "offerTermCode" : "JRTCKXETXF",
          "sku" : "BE6KWNC3HZJUS2VS",
          "effectiveDate" : "2016-09-01T00:00:00Z",
          "priceDimensions" : {
            "BE6KWNC3HZJUS2VS.JRTCKXETXF.6YS6EN2CT7" : {
              "rateCode" : "BE6KWNC3HZJUS2VS.JRTCKXETXF.6YS6EN2CT7",
              "description" : "US West (Oregon) $0.000 for HD content that failed to transcode using Amazon Elastic Transcoder",
              "beginRange" : "0",
              "endRange" : "Inf",
              "unit" : "minutes",
              "pricePerUnit" : {
                "USD" : "0.0000000000"
              },
              "appliesTo" : [ ]
            }
          },
          "termAttributes" : { }
        }
      },
      "X3ZQVUYKP78J9PFT" : {
        "X3ZQVUYKP78J9PFT.JRTCKXETXF" : {
          "offerTermCode" : "JRTCKXETXF",
          "sku" : "X3ZQVUYKP78J9PFT",
          "effectiveDate" : "2016-09-01T00:00:00Z",
          "priceDimensions" : {
            "X3ZQVUYKP78J9PFT.JRTCKXETXF.6YS6EN2CT7" : {
              "rateCode" : "X3ZQVUYKP78J9PFT.JRTCKXETXF.6YS6EN2CT7",
              "description" : "Asia Pacific (Singapore) audio that failed to transcode using Amazon Elastic Transcoder",
              "beginRange" : "0",
              "endRange" : "Inf",
              "unit" : "minutes",
              "pricePerUnit" : {
                "USD" : "0.0000000000"
              },
              "appliesTo" : [ ]
            }
          },
          "termAttributes" : { }
        }
      },
      "CBGFG8NH4X7QF9RZ" : {
        "CBGFG8NH4X7QF9RZ.JRTCKXETXF" : {
          "offerTermCode" : "JRTCKXETXF",
          "sku" : "CBGFG8NH4X7QF9RZ",
          "effectiveDate" : "2016-09-01T00:00:00Z",
          "priceDimensions" : {
            "CBGFG8NH4X7QF9RZ.JRTCKXETXF.6YS6EN2CT7" : {
              "rateCode" : "CBGFG8NH4X7QF9RZ.JRTCKXETXF.6YS6EN2CT7",
              "description" : "US East (N. Virginia) $0.030 per minute for HD content transcoded using Amazon Elastic Transcoder",
              "beginRange" : "0",
              "endRange" : "Inf",
              "unit" : "minutes",
              "pricePerUnit" : {
                "USD" : "0.0300000000"
              },
              "appliesTo" : [ ]
            }
          },
          "termAttributes" : { }
        }
      },
      "82E72WZ2BXYNPX7X" : {
        "82E72WZ2BXYNPX7X.JRTCKXETXF" : {
          "offerTermCode" : "JRTCKXETXF",
          "sku" : "82E72WZ2BXYNPX7X",
          "effectiveDate" : "2016-09-01T00:00:00Z",
          "priceDimensions" : {
            "82E72WZ2BXYNPX7X.JRTCKXETXF.6YS6EN2CT7" : {
              "rateCode" : "82E72WZ2BXYNPX7X.JRTCKXETXF.6YS6EN2CT7",
              "description" : "Asia Pacific (Mumbai) $0.000 for SD content that failed to transcode using Amazon Elastic Transcoder",
              "beginRange" : "0",
              "endRange" : "Inf",
              "unit" : "minutes",
              "pricePerUnit" : {
                "USD" : "0.0000000000"
              },
              "appliesTo" : [ ]
            }
          },
          "termAttributes" : { }
        }
      },
      "EGN95ZAVRCNEWGGC" : {
        "EGN95ZAVRCNEWGGC.JRTCKXETXF" : {
          "offerTermCode" : "JRTCKXETXF",
          "sku" : "EGN95ZAVRCNEWGGC",
          "effectiveDate" : "2016-09-01T00:00:00Z",
          "priceDimensions" : {
            "EGN95ZAVRCNEWGGC.JRTCKXETXF.6YS6EN2CT7" : {
              "rateCode" : "EGN95ZAVRCNEWGGC.JRTCKXETXF.6YS6EN2CT7",
              "description" : "Asia Pacific (Singapore) $0.000 for HD content that failed to transcode using Amazon Elastic Transcoder",
              "beginRange" : "0",
              "endRange" : "Inf",
              "unit" : "minutes",
              "pricePerUnit" : {
                "USD" : "0.0000000000"
              },
              "appliesTo" : [ ]
            }
          },
          "termAttributes" : { }
        }
      },
      "69U6EQ84TGYFKAHF" : {
        "69U6EQ84TGYFKAHF.JRTCKXETXF" : {
          "offerTermCode" : "JRTCKXETXF",
          "sku" : "69U6EQ84TGYFKAHF",
          "effectiveDate" : "2016-09-01T00:00:00Z",
          "priceDimensions" : {
            "69U6EQ84TGYFKAHF.JRTCKXETXF.6YS6EN2CT7" : {
              "rateCode" : "69U6EQ84TGYFKAHF.JRTCKXETXF.6YS6EN2CT7",
              "description" : "Asia Pacific (Sydney) audio that failed to transcode using Amazon Elastic Transcoder",
              "beginRange" : "0",
              "endRange" : "Inf",
              "unit" : "minutes",
              "pricePerUnit" : {
                "USD" : "0.0000000000"
              },
              "appliesTo" : [ ]
            }
          },
          "termAttributes" : { }
        }
      },
      "Z49M4D8ES2PX5C3P" : {
        "Z49M4D8ES2PX5C3P.JRTCKXETXF" : {
          "offerTermCode" : "JRTCKXETXF",
          "sku" : "Z49M4D8ES2PX5C3P",
          "effectiveDate" : "2016-09-01T00:00:00Z",
          "priceDimensions" : {
            "Z49M4D8ES2PX5C3P.JRTCKXETXF.6YS6EN2CT7" : {
              "rateCode" : "Z49M4D8ES2PX5C3P.JRTCKXETXF.6YS6EN2CT7",
              "description" : "Asia Pacific (Tokyo) $0.000 for HD content that failed to transcode using Amazon Elastic Transcoder",
              "beginRange" : "0",
              "endRange" : "Inf",
              "unit" : "minutes",
              "pricePerUnit" : {
                "USD" : "0.0000000000"
              },
              "appliesTo" : [ ]
            }
          },
          "termAttributes" : { }
        }
      },
      "F2NUSMMZ4QY68JVJ" : {
        "F2NUSMMZ4QY68JVJ.JRTCKXETXF" : {
          "offerTermCode" : "JRTCKXETXF",
          "sku" : "F2NUSMMZ4QY68JVJ",
          "effectiveDate" : "2016-09-01T00:00:00Z",
          "priceDimensions" : {
            "F2NUSMMZ4QY68JVJ.JRTCKXETXF.6YS6EN2CT7" : {
              "rateCode" : "F2NUSMMZ4QY68JVJ.JRTCKXETXF.6YS6EN2CT7",
              "description" : "US West (Oregon) audio that failed to transcode using Amazon Elastic Transcoder",
              "beginRange" : "0",
              "endRange" : "Inf",
              "unit" : "minutes",
              "pricePerUnit" : {
                "USD" : "0.0000000000"
              },
              "appliesTo" : [ ]
            }
          },
          "termAttributes" : { }
        }
      },
      "XJW24V4SCXQUGVP8" : {
        "XJW24V4SCXQUGVP8.JRTCKXETXF" : {
          "offerTermCode" : "JRTCKXETXF",
          "sku" : "XJW24V4SCXQUGVP8",
          "effectiveDate" : "2016-09-01T00:00:00Z",
          "priceDimensions" : {
            "XJW24V4SCXQUGVP8.JRTCKXETXF.6YS6EN2CT7" : {
              "rateCode" : "XJW24V4SCXQUGVP8.JRTCKXETXF.6YS6EN2CT7",
              "description" : "Asia Pacific (Mumbai) audio that failed to transcode using Amazon Elastic Transcoder",
              "beginRange" : "0",
              "endRange" : "Inf",
              "unit" : "minutes",
              "pricePerUnit" : {
                "USD" : "0.0000000000"
              },
              "appliesTo" : [ ]
            }
          },
          "termAttributes" : { }
        }
      },
      "M285SQPS49XR3GGV" : {
        "M285SQPS49XR3GGV.JRTCKXETXF" : {
          "offerTermCode" : "JRTCKXETXF",
          "sku" : "M285SQPS49XR3GGV",
          "effectiveDate" : "2016-09-01T00:00:00Z",
          "priceDimensions" : {
            "M285SQPS49XR3GGV.JRTCKXETXF.6YS6EN2CT7" : {
              "rateCode" : "M285SQPS49XR3GGV.JRTCKXETXF.6YS6EN2CT7",
              "description" : "Asia Pacific (Sydney) $0.000 for HD content that failed to transcode using Amazon Elastic Transcoder",
              "beginRange" : "0",
              "endRange" : "Inf",
              "unit" : "minutes",
              "pricePerUnit" : {
                "USD" : "0.0000000000"
              },
              "appliesTo" : [ ]
            }
          },
          "termAttributes" : { }
        }
      }
    }
  }
}