{
  "formatVersion" : "v1.0",
  "disclaimer" : "This pricing list is for informational purposes only. All prices are subject to the additional terms included in the pricing pages on http://aws.amazon.com. All Free Tier prices are also subject to the terms included at https://aws.amazon.com/free/",
  "offerCode" : "awswaf",
  "version" : "20170526185723",
  "publicationDate" : "2017-05-26T18:57:23Z",
  "products" : {
    "G3KXB6WCD8HBMTB9" : {
      "sku" : "G3KXB6WCD8HBMTB9",
      "productFamily" : "Web Application Firewall",
      "attributes" : {
        "servicecode" : "awswaf",
        "location" : "Any",
        "locationType" : "AWS Edge Location",
        "group" : "Request",
        "groupDescription" : "Number of Web Requests received",
        "usagetype" : "Request",
        "operation" : ""
      }
    },
    "PJQM8PKU9GAJ6WKY" : {
      "sku" : "PJQM8PKU9GAJ6WKY",
      "productFamily" : "Web Application Firewall",
      "attributes" : {
        "servicecode" : "awswaf",
        "location" : "US East (N. Virginia)",
        "locationType" : "AWS Region",
        "group" : "Web ACL",
        "groupDescription" : "Number of Web Access Control Lists",
        "usagetype" : "USE1-WebACL",
        "operation" : ""
      }
    },
    "JPRWH9JCZC46VQSV" : {
      "sku" : "JPRWH9JCZC46VQSV",
      "productFamily" : "Web Application Firewall",
      "attributes" : {
        "servicecode" : "awswaf",
        "location" : "Asia Pacific (Tokyo)",
        "locationType" : "AWS Region",
        "group" : "Web ACL",
        "groupDescription" : "Number of Web Access Control Lists",
        "usagetype" : "APN1-WebACL",
        "operation" : ""
      }
    },
    "PU42GB5M3SUVM6V8" : {
      "sku" : "PU42GB5M3SUVM6V8",
      "productFamily" : "Web Application Firewall",
      "attributes" : {
        "servicecode" : "awswaf",
        "location" : "EU (Ireland)",
        "locationType" : "AWS Region",
        "group" : "Rule",
        "groupDescription" : "Number of Rules added per Web Access Control Lists",
        "usagetype" : "EU-Rule",
        "operation" : ""
      }
    },
    "JPZ69WNFHBDKV4YR" : {
      "sku" : "JPZ69WNFHBDKV4YR",
      "productFamily" : "Web Application Firewall",
      "attributes" : {
        "servicecode" : "awswaf",
        "location" : "Asia Pacific (Tokyo)",
        "locationType" : "AWS Region",
        "group" : "Rule",
        "groupDescription" : "Number of Rules added per Web Access Control Lists",
        "usagetype" : "APN1-Rule",
        "operation" : ""
      }
    },
    "BMU2S96RXZ3X38VZ" : {
      "sku" : "BMU2S96RXZ3X38VZ",
      "productFamily" : "Web Application Firewall",
      "attributes" : {
        "servicecode" : "awswaf",
        "location" : "US West (Oregon)",
        "locationType" : "AWS Region",
        "group" : "Rule",
        "groupDescription" : "Number of Rules added per Web Access Control Lists",
        "usagetype" : "USW2-Rule",
        "operation" : ""
      }
    },
    "KSPBACJQQS375Q6B" : {
      "sku" : "KSPBACJQQS375Q6B",
      "productFamily" : "Web Application Firewall",
      "attributes" : {
        "servicecode" : "awswaf",
        "location" : "US West (Oregon)",
        "locationType" : "AWS Region",
        "group" : "Request",
        "groupDescription" : "Number of Web Requests received",
        "usagetype" : "USW2-Request",
        "operation" : ""
      }
    },
    "SUTEC637ESKYGS4N" : {
      "sku" : "SUTEC637ESKYGS4N",
      "productFamily" : "Web Application Firewall",
      "attributes" : {
        "servicecode" : "awswaf",
        "location" : "US West (N. California)",
        "locationType" : "AWS Region",
        "group" : "Web ACL",
        "groupDescription" : "Number of Web Access Control Lists",
        "usagetype" : "USW1-WebACL",
        "operation" : ""
      }
    },
    "C342DJPGVP5ZXQCT" : {
      "sku" : "C342DJPGVP5ZXQCT",
      "productFamily" : "Web Application Firewall",
      "attributes" : {
        "servicecode" : "awswaf",
        "location" : "US East (N. Virginia)",
        "locationType" : "AWS Region",
        "group" : "Request",
        "groupDescription" : "Number of Web Requests received",
        "usagetype" : "USE1-Request",
        "operation" : ""
      }
    },
    "U4GMFNJMFXECHPBP" : {
      "sku" : "U4GMFNJMFXECHPBP",
      "productFamily" : "Web Application Firewall",
      "attributes" : {
        "servicecode" : "awswaf",
        "location" : "US West (N. California)",
        "locationType" : "AWS Region",
        "group" : "Request",
        "groupDescription" : "Number of Web Requests received",
        "usagetype" : "USW1-Request",
        "operation" : ""
      }
    },
    "QRB49QB4DBPAGHSS" : {
      "sku" : "QRB49QB4DBPAGHSS",
      "productFamily" : "Web Application Firewall",
      "attributes" : {
        "servicecode" : "awswaf",
        "location" : "US West (N. California)",
        "locationType" : "AWS Region",
        "group" : "Rule",
        "groupDescription" : "Number of Rules added per Web Access Control Lists",
        "usagetype" : "USW1-Rule",
        "operation" : ""
      }
    },
    "MMK6882R53ZPMBQG" : {
      "sku" : "MMK6882R53ZPMBQG",
      "productFamily" : "Web Application Firewall",
      "attributes" : {
        "servicecode" : "awswaf",
        "location" : "US East (N. Virginia)",
        "locationType" : "AWS Region",
        "group" : "Rule",
        "groupDescription" : "Number of Rules added per Web Access Control Lists",
        "usagetype" : "USE1-Rule",
        "operation" : ""
      }
    },
    "K7J8MPHCUP7NYZHS" : {
      "sku" : "K7J8MPHCUP7NYZHS",
      "productFamily" : "Web Application Firewall",
      "attributes" : {
        "servicecode" : "awswaf",
        "location" : "EU (Ireland)",
        "locationType" : "AWS Region",
        "group" : "Request",
        "groupDescription" : "Number of Web Requests received",
        "usagetype" : "EU-Request",
        "operation" : ""
      }
    },
    "E2CZ664C5BMWZTBN" : {
      "sku" : "E2CZ664C5BMWZTBN",
      "productFamily" : "Web Application Firewall",
      "attributes" : {
        "servicecode" : "awswaf",
        "location" : "US West (Oregon)",
        "locationType" : "AWS Region",
        "group" : "Web ACL",
        "groupDescription" : "Number of Web Access Control Lists",
        "usagetype" : "USW2-WebACL",
        "operation" : ""
      }
    },
    "UMRQSXANSWSDKRH6" : {
      "sku" : "UMRQSXANSWSDKRH6",
      "productFamily" : "Web Application Firewall",
      "attributes" : {
        "servicecode" : "awswaf",
        "location" : "Any",
        "locationType" : "AWS Edge Location",
        "group" : "Web ACL",
        "groupDescription" : "Number of Web Access Control Lists",
        "usagetype" : "WebACL",
        "operation" : ""
      }
    },
    "GWFQ5HRBYJMUH9D4" : {
      "sku" : "GWFQ5HRBYJMUH9D4",
      "productFamily" : "Web Application Firewall",
      "attributes" : {
        "servicecode" : "awswaf",
        "location" : "Asia Pacific (Tokyo)",
        "locationType" : "AWS Region",
        "group" : "Request",
        "groupDescription" : "Number of Web Requests received",
        "usagetype" : "APN1-Request",
        "operation" : ""
      }
    },
    "7G4GAKZPYS82NXZT" : {
      "sku" : "7G4GAKZPYS82NXZT",
      "productFamily" : "Web Application Firewall",
      "attributes" : {
        "servicecode" : "awswaf",
        "location" : "Any",
        "locationType" : "AWS Edge Location",
        "group" : "Rule",
        "groupDescription" : "Number of Rules added per Web Access Control Lists",
        "usagetype" : "Rule",
        "operation" : ""
      }
    },
    "U2AQ9KMPXF9DQWBH" : {
      "sku" : "U2AQ9KMPXF9DQWBH",
      "productFamily" : "Web Application Firewall",
      "attributes" : {
        "servicecode" : "awswaf",
        "location" : "EU (Ireland)",
        "locationType" : "AWS Region",
        "group" : "Web ACL",
        "groupDescription" : "Number of Web Access Control Lists",
        "usagetype" : "EU-WebACL",
        "operation" : ""
      }
    }
  },
  "terms" : {
    "OnDemand" : {
      "G3KXB6WCD8HBMTB9" : {
        "G3KXB6WCD8HBMTB9.JRTCKXETXF" : {
          "offerTermCode" : "JRTCKXETXF",
          "sku" : "G3KXB6WCD8HBMTB9",
          "effectiveDate" : "2017-05-01T00:00:00Z",
          "priceDimensions" : {
            "G3KXB6WCD8HBMTB9.JRTCKXETXF.6YS6EN2CT7" : {
              "rateCode" : "G3KXB6WCD8HBMTB9.JRTCKXETXF.6YS6EN2CT7",
              "description" : "Price per HTTP request",
              "beginRange" : "0",
              "endRange" : "Inf",
              "unit" : "Requests",
              "pricePerUnit" : {
                "USD" : "0.0000006000"
              },
              "appliesTo" : [ ]
            }
          },
          "termAttributes" : { }
        }
      },
      "PJQM8PKU9GAJ6WKY" : {
        "PJQM8PKU9GAJ6WKY.JRTCKXETXF" : {
          "offerTermCode" : "JRTCKXETXF",
          "sku" : "PJQM8PKU9GAJ6WKY",
          "effectiveDate" : "2017-05-01T00:00:00Z",
          "priceDimensions" : {
            "PJQM8PKU9GAJ6WKY.JRTCKXETXF.6YS6EN2CT7" : {
              "rateCode" : "PJQM8PKU9GAJ6WKY.JRTCKXETXF.6YS6EN2CT7",
              "description" : "Price per WebACL",
              "beginRange" : "0",
              "endRange" : "Inf",
              "unit" : "month",
              "pricePerUnit" : {
                "USD" : "5.0000000000"
              },
              "appliesTo" : [ ]
            }
          },
          "termAttributes" : { }
        }
      },
      "JPRWH9JCZC46VQSV" : {
        "JPRWH9JCZC46VQSV.JRTCKXETXF" : {
          "offerTermCode" : "JRTCKXETXF",
          "sku" : "JPRWH9JCZC46VQSV",
          "effectiveDate" : "2017-05-01T00:00:00Z",
          "priceDimensions" : {
            "JPRWH9JCZC46VQSV.JRTCKXETXF.6YS6EN2CT7" : {
              "rateCode" : "JPRWH9JCZC46VQSV.JRTCKXETXF.6YS6EN2CT7",
              "description" : "Price per WebACL",
              "beginRange" : "0",
              "endRange" : "Inf",
              "unit" : "month",
              "pricePerUnit" : {
                "USD" : "5.0000000000"
              },
              "appliesTo" : [ ]
            }
          },
          "termAttributes" : { }
        }
      },
      "PU42GB5M3SUVM6V8" : {
        "PU42GB5M3SUVM6V8.JRTCKXETXF" : {
          "offerTermCode" : "JRTCKXETXF",
          "sku" : "PU42GB5M3SUVM6V8",
          "effectiveDate" : "2017-05-01T00:00:00Z",
          "priceDimensions" : {
            "PU42GB5M3SUVM6V8.JRTCKXETXF.6YS6EN2CT7" : {
              "rateCode" : "PU42GB5M3SUVM6V8.JRTCKXETXF.6YS6EN2CT7",
              "description" : "Price per Rule",
              "beginRange" : "0",
              "endRange" : "Inf",
              "unit" : "month",
              "pricePerUnit" : {
                "USD" : "1.0000000000"
              },
              "appliesTo" : [ ]
            }
          },
          "termAttributes" : { }
        }
      },
      "JPZ69WNFHBDKV4YR" : {
        "JPZ69WNFHBDKV4YR.JRTCKXETXF" : {
          "offerTermCode" : "JRTCKXETXF",
          "sku" : "JPZ69WNFHBDKV4YR",
          "effectiveDate" : "2017-05-01T00:00:00Z",
          "priceDimensions" : {
            "JPZ69WNFHBDKV4YR.JRTCKXETXF.6YS6EN2CT7" : {
              "rateCode" : "JPZ69WNFHBDKV4YR.JRTCKXETXF.6YS6EN2CT7",
              "description" : "Price per Rule",
              "beginRange" : "0",
              "endRange" : "Inf",
              "unit" : "month",
              "pricePerUnit" : {
                "USD" : "1.0000000000"
              },
              "appliesTo" : [ ]
            }
          },
          "termAttributes" : { }
        }
      },
      "BMU2S96RXZ3X38VZ" : {
        "BMU2S96RXZ3X38VZ.JRTCKXETXF" : {
          "offerTermCode" : "JRTCKXETXF",
          "sku" : "BMU2S96RXZ3X38VZ",
          "effectiveDate" : "2017-05-01T00:00:00Z",
          "priceDimensions" : {
            "BMU2S96RXZ3X38VZ.JRTCKXETXF.6YS6EN2CT7" : {
              "rateCode" : "BMU2S96RXZ3X38VZ.JRTCKXETXF.6YS6EN2CT7",
              "description" : "Price per Rule",
              "beginRange" : "0",
              "endRange" : "Inf",
              "unit" : "month",
              "pricePerUnit" : {
                "USD" : "1.0000000000"
              },
              "appliesTo" : [ ]
            }
          },
          "termAttributes" : { }
        }
      },
      "KSPBACJQQS375Q6B" : {
        "KSPBACJQQS375Q6B.JRTCKXETXF" : {
          "offerTermCode" : "JRTCKXETXF",
          "sku" : "KSPBACJQQS375Q6B",
          "effectiveDate" : "2017-05-01T00:00:00Z",
          "priceDimensions" : {
            "KSPBACJQQS375Q6B.JRTCKXETXF.6YS6EN2CT7" : {
              "rateCode" : "KSPBACJQQS375Q6B.JRTCKXETXF.6YS6EN2CT7",
              "description" : "Price per HTTP request",
              "beginRange" : "0",
              "endRange" : "Inf",
              "unit" : "Requests",
              "pricePerUnit" : {
                "USD" : "0.0000006000"
              },
              "appliesTo" : [ ]
            }
          },
          "termAttributes" : { }
        }
      },
      "SUTEC637ESKYGS4N" : {
        "SUTEC637ESKYGS4N.JRTCKXETXF" : {
          "offerTermCode" : "JRTCKXETXF",
          "sku" : "SUTEC637ESKYGS4N",
          "effectiveDate" : "2017-05-01T00:00:00Z",
          "priceDimensions" : {
            "SUTEC637ESKYGS4N.JRTCKXETXF.6YS6EN2CT7" : {
              "rateCode" : "SUTEC637ESKYGS4N.JRTCKXETXF.6YS6EN2CT7",
              "description" : "Price per WebACL",
              "beginRange" : "0",
              "endRange" : "Inf",
              "unit" : "month",
              "pricePerUnit" : {
                "USD" : "5.0000000000"
              },
              "appliesTo" : [ ]
            }
          },
          "termAttributes" : { }
        }
      },
      "C342DJPGVP5ZXQCT" : {
        "C342DJPGVP5ZXQCT.JRTCKXETXF" : {
          "offerTermCode" : "JRTCKXETXF",
          "sku" : "C342DJPGVP5ZXQCT",
          "effectiveDate" : "2017-05-01T00:00:00Z",
          "priceDimensions" : {
            "C342DJPGVP5ZXQCT.JRTCKXETXF.6YS6EN2CT7" : {
              "rateCode" : "C342DJPGVP5ZXQCT.JRTCKXETXF.6YS6EN2CT7",
              "description" : "Price per HTTP request",
              "beginRange" : "0",
              "endRange" : "Inf",
              "unit" : "Requests",
              "pricePerUnit" : {
                "USD" : "0.0000006000"
              },
              "appliesTo" : [ ]
            }
          },
          "termAttributes" : { }
        }
      },
      "U4GMFNJMFXECHPBP" : {
        "U4GMFNJMFXECHPBP.JRTCKXETXF" : {
          "offerTermCode" : "JRTCKXETXF",
          "sku" : "U4GMFNJMFXECHPBP",
          "effectiveDate" : "2017-05-01T00:00:00Z",
          "priceDimensions" : {
            "U4GMFNJMFXECHPBP.JRTCKXETXF.6YS6EN2CT7" : {
              "rateCode" : "U4GMFNJMFXECHPBP.JRTCKXETXF.6YS6EN2CT7",
              "description" : "Price per HTTP request",
              "beginRange" : "0",
              "endRange" : "Inf",
              "unit" : "Request",
              "pricePerUnit" : {
                "USD" : "0.0000006000"
              },
              "appliesTo" : [ ]
            }
          },
          "termAttributes" : { }
        }
      },
      "QRB49QB4DBPAGHSS" : {
        "QRB49QB4DBPAGHSS.JRTCKXETXF" : {
          "offerTermCode" : "JRTCKXETXF",
          "sku" : "QRB49QB4DBPAGHSS",
          "effectiveDate" : "2017-05-01T00:00:00Z",
          "priceDimensions" : {
            "QRB49QB4DBPAGHSS.JRTCKXETXF.6YS6EN2CT7" : {
              "rateCode" : "QRB49QB4DBPAGHSS.JRTCKXETXF.6YS6EN2CT7",
              "description" : "Price per Rule",
              "beginRange" : "0",
              "endRange" : "Inf",
              "unit" : "month",
              "pricePerUnit" : {
                "USD" : "1.0000000000"
              },
              "appliesTo" : [ ]
            }
          },
          "termAttributes" : { }
        }
      },
      "MMK6882R53ZPMBQG" : {
        "MMK6882R53ZPMBQG.JRTCKXETXF" : {
          "offerTermCode" : "JRTCKXETXF",
          "sku" : "MMK6882R53ZPMBQG",
          "effectiveDate" : "2017-05-01T00:00:00Z",
          "priceDimensions" : {
            "MMK6882R53ZPMBQG.JRTCKXETXF.6YS6EN2CT7" : {
              "rateCode" : "MMK6882R53ZPMBQG.JRTCKXETXF.6YS6EN2CT7",
              "description" : "Price per Rule",
              "beginRange" : "0",
              "endRange" : "Inf",
              "unit" : "month",
              "pricePerUnit" : {
                "USD" : "1.0000000000"
              },
              "appliesTo" : [ ]
            }
          },
          "termAttributes" : { }
        }
      },
      "K7J8MPHCUP7NYZHS" : {
        "K7J8MPHCUP7NYZHS.JRTCKXETXF" : {
          "offerTermCode" : "JRTCKXETXF",
          "sku" : "K7J8MPHCUP7NYZHS",
          "effectiveDate" : "2017-05-01T00:00:00Z",
          "priceDimensions" : {
            "K7J8MPHCUP7NYZHS.JRTCKXETXF.6YS6EN2CT7" : {
              "rateCode" : "K7J8MPHCUP7NYZHS.JRTCKXETXF.6YS6EN2CT7",
              "description" : "Price per HTTP request",
              "beginRange" : "0",
              "endRange" : "Inf",
              "unit" : "Requests",
              "pricePerUnit" : {
                "USD" : "0.0000006000"
              },
              "appliesTo" : [ ]
            }
          },
          "termAttributes" : { }
        }
      },
      "E2CZ664C5BMWZTBN" : {
        "E2CZ664C5BMWZTBN.JRTCKXETXF" : {
          "offerTermCode" : "JRTCKXETXF",
          "sku" : "E2CZ664C5BMWZTBN",
          "effectiveDate" : "2017-05-01T00:00:00Z",
          "priceDimensions" : {
            "E2CZ664C5BMWZTBN.JRTCKXETXF.6YS6EN2CT7" : {
              "rateCode" : "E2CZ664C5BMWZTBN.JRTCKXETXF.6YS6EN2CT7",
              "description" : "Price per WebACL",
              "beginRange" : "0",
              "endRange" : "Inf",
              "unit" : "month",
              "pricePerUnit" : {
                "USD" : "5.0000000000"
              },
              "appliesTo" : [ ]
            }
          },
          "termAttributes" : { }
        }
      },
      "UMRQSXANSWSDKRH6" : {
        "UMRQSXANSWSDKRH6.JRTCKXETXF" : {
          "offerTermCode" : "JRTCKXETXF",
          "sku" : "UMRQSXANSWSDKRH6",
          "effectiveDate" : "2017-05-01T00:00:00Z",
          "priceDimensions" : {
            "UMRQSXANSWSDKRH6.JRTCKXETXF.6YS6EN2CT7" : {
              "rateCode" : "UMRQSXANSWSDKRH6.JRTCKXETXF.6YS6EN2CT7",
              "description" : "Price per WebACL",
              "beginRange" : "0",
              "endRange" : "Inf",
              "unit" : "month",
              "pricePerUnit" : {
                "USD" : "5.0000000000"
              },
              "appliesTo" : [ ]
            }
          },
          "termAttributes" : { }
        }
      },
      "GWFQ5HRBYJMUH9D4" : {
        "GWFQ5HRBYJMUH9D4.JRTCKXETXF" : {
          "offerTermCode" : "JRTCKXETXF",
          "sku" : "GWFQ5HRBYJMUH9D4",
          "effectiveDate" : "2017-05-01T00:00:00Z",
          "priceDimensions" : {
            "GWFQ5HRBYJMUH9D4.JRTCKXETXF.6YS6EN2CT7" : {
              "rateCode" : "GWFQ5HRBYJMUH9D4.JRTCKXETXF.6YS6EN2CT7",
              "description" : "Price per HTTP request",
              "beginRange" : "0",
              "endRange" : "Inf",
              "unit" : "Requests",
              "pricePerUnit" : {
                "USD" : "0.0000006000"
              },
              "appliesTo" : [ ]
            }
          },
          "termAttributes" : { }
        }
      },
      "7G4GAKZPYS82NXZT" : {
        "7G4GAKZPYS82NXZT.JRTCKXETXF" : {
          "offerTermCode" : "JRTCKXETXF",
          "sku" : "7G4GAKZPYS82NXZT",
          "effectiveDate" : "2017-05-01T00:00:00Z",
          "priceDimensions" : {
            "7G4GAKZPYS82NXZT.JRTCKXETXF.6YS6EN2CT7" : {
              "rateCode" : "7G4GAKZPYS82NXZT.JRTCKXETXF.6YS6EN2CT7",
              "description" : "Price per Rule",
              "beginRange" : "0",
              "endRange" : "Inf",
              "unit" : "month",
              "pricePerUnit" : {
                "USD" : "1.0000000000"
              },
              "appliesTo" : [ ]
            }
          },
          "termAttributes" : { }
        }
      },
      "U2AQ9KMPXF9DQWBH" : {
        "U2AQ9KMPXF9DQWBH.JRTCKXETXF" : {
          "offerTermCode" : "JRTCKXETXF",
          "sku" : "U2AQ9KMPXF9DQWBH",
          "effectiveDate" : "2017-05-01T00:00:00Z",
          "priceDimensions" : {
            "U2AQ9KMPXF9DQWBH.JRTCKXETXF.6YS6EN2CT7" : {
              "rateCode" : "U2AQ9KMPXF9DQWBH.JRTCKXETXF.6YS6EN2CT7",
              "description" : "Price per WebACL",
              "beginRange" : "0",
              "endRange" : "Inf",
              "unit" : "month",
              "pricePerUnit" : {
                "USD" : "5.0000000000"
              },
              "appliesTo" : [ ]
            }
          },
          "termAttributes" : { }
        }
      }
    }
  }
}