{
  "offers": {
    "AmazonElastiCache": {
      "currentVersionUrl": "/offers/v1.0/aws/AmazonElastiCache/current/index.json",
      "offerCode": "AmazonElastiCache",
      "versionIndexUrl": "/offers/v1.0/aws/AmazonElastiCache/index.json",
      "currentRegionIndexUrl": "/offers/v1.0/aws/AmazonElastiCache/current/region_index.json"
    },
    "AmazonWorkSpaces": {
      "currentVersionUrl": "/offers/v1.0/aws/AmazonWorkSpaces/current/index.json",
      "offerCode": "AmazonWorkSpaces",
      "versionIndexUrl": "/offers/v1.0/aws/AmazonWorkSpaces/index.json",
      "currentRegionIndexUrl": "/offers/v1.0/aws/AmazonWorkSpaces/current/region_index.json"
    },
    "AmazonApiGateway": {
      "currentVersionUrl": "/offers/v1.0/aws/AmazonApiGateway/current/index.json",
      "offerCode": "AmazonApiGateway",
      "versionIndexUrl": "/offers/v1.0/aws/AmazonApiGateway/index.json",
      "currentRegionIndexUrl": "/offers/v1.0/aws/AmazonApiGateway/current/region_index.json"
    },
    "ContactCenterTelecomm": {
      "currentVersionUrl": "/offers/v1.0/aws/ContactCenterTelecomm/current/index.json",
      "offerCode": "ContactCenterTelecomm",
      "versionIndexUrl": "/offers/v1.0/aws/ContactCenterTelecomm/index.json",
      "currentRegionIndexUrl": "/offers/v1.0/aws/ContactCenterTelecomm/current/region_index.json"
    },
    "AWSDeviceFarm": {
      "currentVersionUrl": "/offers/v1.0/aws/AWSDeviceFarm/current/index.json",
      "offerCode": "AWSDeviceFarm",
      "versionIndexUrl": "/offers/v1.0/aws/AWSDeviceFarm/index.json",
      "currentRegionIndexUrl": "/offers/v1.0/aws/AWSDeviceFarm/current/region_index.json"
    },
    "AWSSupportEnterprise": {
      "currentVersionUrl": "/offers/v1.0/aws/AWSSupportEnterprise/current/index.json",
      "offerCode": "AWSSupportEnterprise",
      "versionIndexUrl": "/offers/v1.0/aws/AWSSupportEnterprise/index.json",
      "currentRegionIndexUrl": "/offers/v1.0/aws/AWSSupportEnterprise/current/region_index.json"
    },
    "AmazonAthena": {
      "currentVersionUrl": "/offers/v1.0/aws/AmazonAthena/current/index.json",
      "offerCode": "AmazonAthena",
      "versionIndexUrl": "/offers/v1.0/aws/AmazonAthena/index.json",
      "currentRegionIndexUrl": "/offers/v1.0/aws/AmazonAthena/current/region_index.json"
    },
    "AWSXRay": {
      "currentVersionUrl": "/offers/v1.0/aws/AWSXRay/current/index.json",
      "offerCode": "AWSXRay",
      "versionIndexUrl": "/offers/v1.0/aws/AWSXRay/index.json",
      "currentRegionIndexUrl": "/offers/v1.0/aws/AWSXRay/current/region_index.json"
    },
    "AmazonEC2": {
      "currentVersionUrl": "/offers/v1.0/aws/AmazonEC2/current/index.json",
      "offerCode": "AmazonEC2",
      "versionIndexUrl": "/offers/v1.0/aws/AmazonEC2/index.json",
      "currentRegionIndexUrl": "/offers/v1.0/aws/AmazonEC2/current/region_index.json"
    },
    "AmazonChime": {
      "currentVersionUrl": "/offers/v1.0/aws/AmazonChime/current/index.json",
      "offerCode": "AmazonChime",
      "versionIndexUrl": "/offers/v1.0/aws/AmazonChime/index.json",
      "currentRegionIndexUrl": "/offers/v1.0/aws/AmazonChime/current/region_index.json"
    },
    "AmazonWorkDocs": {
      "currentVersionUrl": "/offers/v1.0/aws/AmazonWorkDocs/current/index.json",
      "offerCode": "AmazonWorkDocs",
      "versionIndexUrl": "/offers/v1.0/aws/AmazonWorkDocs/index.json",
      "currentRegionIndexUrl": "/offers/v1.0/aws/AmazonWorkDocs/current/region_index.json"
    },
    "AmazonLightsail": {
      "currentVersionUrl": "/offers/v1.0/aws/AmazonLightsail/current/index.json",
      "offerCode": "AmazonLightsail",
      "versionIndexUrl": "/offers/v1.0/aws/AmazonLightsail/index.json",
      "currentRegionIndexUrl": "/offers/v1.0/aws/AmazonLightsail/current/region_index.json"
    },
    "AWSCodeDeploy": {
      "currentVersionUrl": "/offers/v1.0/aws/AWSCodeDeploy/current/index.json",
      "offerCode": "AWSCodeDeploy",
      "versionIndexUrl": "/offers/v1.0/aws/AWSCodeDeploy/index.json",
      "currentRegionIndexUrl": "/offers/v1.0/aws/AWSCodeDeploy/current/region_index.json"
    },
    "AWSCloudTrail": {
      "currentVersionUrl": "/offers/v1.0/aws/AWSCloudTrail/current/index.json",
      "offerCode": "AWSCloudTrail",
      "versionIndexUrl": "/offers/v1.0/aws/AWSCloudTrail/index.json",
      "currentRegionIndexUrl": "/offers/v1.0/aws/AWSCloudTrail/current/region_index.json"
    },
    "AmazonGlacier": {
      "currentVersionUrl": "/offers/v1.0/aws/AmazonGlacier/current/index.json",
      "offerCode": "AmazonGlacier",
      "versionIndexUrl": "/offers/v1.0/aws/AmazonGlacier/index.json",
      "currentRegionIndexUrl": "/offers/v1.0/aws/AmazonGlacier/current/region_index.json"
    },
    "AmazonCloudDirectory": {
      "currentVersionUrl": "/offers/v1.0/aws/AmazonCloudDirectory/current/index.json",
      "offerCode": "AmazonCloudDirectory",
      "versionIndexUrl": "/offers/v1.0/aws/AmazonCloudDirectory/index.json",
      "currentRegionIndexUrl": "/offers/v1.0/aws/AmazonCloudDirectory/current/region_index.json"
    },
    "AmazonChimeDialin": {
      "currentVersionUrl": "/offers/v1.0/aws/AmazonChimeDialin/current/index.json",
      "offerCode": "AmazonChimeDialin",
      "versionIndexUrl": "/offers/v1.0/aws/AmazonChimeDialin/index.json",
      "currentRegionIndexUrl": "/offers/v1.0/aws/AmazonChimeDialin/current/region_index.json"
    },
    "AmazonRDS": {
      "currentVersionUrl": "/offers/v1.0/aws/AmazonRDS/current/index.json",
      "offerCode": "AmazonRDS",
      "versionIndexUrl": "/offers/v1.0/aws/AmazonRDS/index.json",
      "currentRegionIndexUrl": "/offers/v1.0/aws/AmazonRDS/current/region_index.json"
    },
    "CloudHSM": {
      "currentVersionUrl": "/offers/v1.0/aws/CloudHSM/current/index.json",
      "offerCode": "CloudHSM",
      "versionIndexUrl": "/offers/v1.0/aws/CloudHSM/index.json",
      "currentRegionIndexUrl": "/offers/v1.0/aws/CloudHSM/current/region_index.json"
    },
    "IngestionService": {
      "currentVersionUrl": "/offers/v1.0/aws/IngestionService/current/index.json",
      "offerCode": "IngestionService",
      "versionIndexUrl": "/offers/v1.0/aws/IngestionService/index.json",
      "currentRegionIndexUrl": "/offers/v1.0/aws/IngestionService/current/region_index.json"
    },
    "AmazonWAM": {
      "currentVersionUrl": "/offers/v1.0/aws/AmazonWAM/current/index.json",
      "offerCode": "AmazonWAM",
      "versionIndexUrl": "/offers/v1.0/aws/AmazonWAM/index.json",
      "currentRegionIndexUrl": "/offers/v1.0/aws/AmazonWAM/current/region_index.json"
    },
    "AWSDirectConnect": {
      "currentVersionUrl": "/offers/v1.0/aws/AWSDirectConnect/current/index.json",
      "offerCode": "AWSDirectConnect",
      "versionIndexUrl": "/offers/v1.0/aws/AWSDirectConnect/index.json",
      "currentRegionIndexUrl": "/offers/v1.0/aws/AWSDirectConnect/current/region_index.json"
    },
    "AmazonCloudFront": {
      "currentVersionUrl": "/offers/v1.0/aws/AmazonCloudFront/current/index.json",
      "offerCode": "AmazonCloudFront",
      "versionIndexUrl": "/offers/v1.0/aws/AmazonCloudFront/index.json",
      "currentRegionIndexUrl": "/offers/v1.0/aws/AmazonCloudFront/current/region_index.json"
    },
    "AmazonCloudWatch": {
      "currentVersionUrl": "/offers/v1.0/aws/AmazonCloudWatch/current/index.json",
      "offerCode": "AmazonCloudWatch",
      "versionIndexUrl": "/offers/v1.0/aws/AmazonCloudWatch/index.json",
      "currentRegionIndexUrl": "/offers/v1.0/aws/AmazonCloudWatch/current/region_index.json"
    },
    "AWSLambda": {
      "currentVersionUrl": "/offers/v1.0/aws/AWSLambda/current/index.json",
      "offerCode": "AWSLambda",
      "versionIndexUrl": "/offers/v1.0/aws/AWSLambda/index.json",
      "currentRegionIndexUrl": "/offers/v1.0/aws/AWSLambda/current/region_index.json"
    },
    "AmazonEFS": {
      "currentVersionUrl": "/offers/v1.0/aws/AmazonEFS/current/index.json",
      "offerCode": "AmazonEFS",
      "versionIndexUrl": "/offers/v1.0/aws/AmazonEFS/index.json",
      "currentRegionIndexUrl": "/offers/v1.0/aws/AmazonEFS/current/region_index.json"
    },
    "AWSIoT": {
      "currentVersionUrl": "/offers/v1.0/aws/AWSIoT/current/index.json",
      "offerCode": "AWSIoT",
      "versionIndexUrl": "/offers/v1.0/aws/AWSIoT/index.json",
      "currentRegionIndexUrl": "/offers/v1.0/aws/AWSIoT/current/region_index.json"
    },
    "AmazonRedshift": {
      "currentVersionUrl": "/offers/v1.0/aws/AmazonRedshift/current/index.json",
      "offerCode": "AmazonRedshift",
      "versionIndexUrl": "/offers/v1.0/aws/AmazonRedshift/index.json",
      "currentRegionIndexUrl": "/offers/v1.0/aws/AmazonRedshift/current/region_index.json"
    },
    "AWSDirectoryService": {
      "currentVersionUrl": "/offers/v1.0/aws/AWSDirectoryService/current/index.json",
      "offerCode": "AWSDirectoryService",
      "versionIndexUrl": "/offers/v1.0/aws/AWSDirectoryService/index.json",
      "currentRegionIndexUrl": "/offers/v1.0/aws/AWSDirectoryService/current/region_index.json"
    },
    "SnowballExtraDays": {
      "currentVersionUrl": "/offers/v1.0/aws/SnowballExtraDays/current/index.json",
      "offerCode": "SnowballExtraDays",
      "versionIndexUrl": "/offers/v1.0/aws/SnowballExtraDays/index.json",
      "currentRegionIndexUrl": "/offers/v1.0/aws/SnowballExtraDays/current/region_index.json"
    },
    "AmazonPinpoint": {
      "currentVersionUrl": "/offers/v1.0/aws/AmazonPinpoint/current/index.json",
      "offerCode": "AmazonPinpoint",
      "versionIndexUrl": "/offers/v1.0/aws/AmazonPinpoint/index.json",
      "currentRegionIndexUrl": "/offers/v1.0/aws/AmazonPinpoint/current/region_index.json"
    },
    "AWSCodePipeline": {
      "currentVersionUrl": "/offers/v1.0/aws/AWSCodePipeline/current/index.json",
      "offerCode": "AWSCodePipeline",
      "versionIndexUrl": "/offers/v1.0/aws/AWSCodePipeline/index.json",
      "currentRegionIndexUrl": "/offers/v1.0/aws/AWSCodePipeline/current/region_index.json"
    },
    "AmazonWorkMail": {
      "currentVersionUrl": "/offers/v1.0/aws/AmazonWorkMail/current/index.json",
      "offerCode": "AmazonWorkMail",
      "versionIndexUrl": "/offers/v1.0/aws/AmazonWorkMail/index.json",
      "currentRegionIndexUrl": "/offers/v1.0/aws/AmazonWorkMail/current/region_index.json"
    },
    "awskms": {
      "currentVersionUrl": "/offers/v1.0/aws/awskms/current/index.json",
      "offerCode": "awskms",
      "versionIndexUrl": "/offers/v1.0/aws/awskms/index.json",
      "currentRegionIndexUrl": "/offers/v1.0/aws/awskms/current/region_index.json"
    },
    "AWSDatabaseMigrationSvc": {
      "currentVersionUrl": "/offers/v1.0/aws/AWSDatabaseMigrationSvc/current/index.json",
      "offerCode": "AWSDatabaseMigrationSvc",
      "versionIndexUrl": "/offers/v1.0/aws/AWSDatabaseMigrationSvc/index.json",
      "currentRegionIndexUrl": "/offers/v1.0/aws/AWSDatabaseMigrationSvc/current/region_index.json"
    },
    "AmazonS3": {
      "currentVersionUrl": "/offers/v1.0/aws/AmazonS3/current/index.json",
      "offerCode": "AmazonS3",
      "versionIndexUrl": "/offers/v1.0/aws/AmazonS3/index.json",
      "currentRegionIndexUrl": "/offers/v1.0/aws/AmazonS3/current/region_index.json"
    },
    "AlexaTopSites": {
      "currentVersionUrl": "/offers/v1.0/aws/AlexaTopSites/current/index.json",
      "offerCode": "AlexaTopSites",
      "versionIndexUrl": "/offers/v1.0/aws/AlexaTopSites/index.json",
      "currentRegionIndexUrl": "/offers/v1.0/aws/AlexaTopSites/current/region_index.json"
    },
    "AWSDeveloperSupport": {
      "currentVersionUrl": "/offers/v1.0/aws/AWSDeveloperSupport/current/index.json",
      "offerCode": "AWSDeveloperSupport",
      "versionIndexUrl": "/offers/v1.0/aws/AWSDeveloperSupport/index.json",
      "currentRegionIndexUrl": "/offers/v1.0/aws/AWSDeveloperSupport/current/region_index.json"
    },
    "AmazonGameLift": {
      "currentVersionUrl": "/offers/v1.0/aws/AmazonGameLift/current/index.json",
      "offerCode": "AmazonGameLift",
      "versionIndexUrl": "/offers/v1.0/aws/AmazonGameLift/index.json",
      "currentRegionIndexUrl": "/offers/v1.0/aws/AmazonGameLift/current/region_index.json"
    },
    "awswaf": {
      "currentVersionUrl": "/offers/v1.0/aws/awswaf/current/index.json",
      "offerCode": "awswaf",
      "versionIndexUrl": "/offers/v1.0/aws/awswaf/index.json",
      "currentRegionIndexUrl": "/offers/v1.0/aws/awswaf/current/region_index.json"
    },
    "AmazonLex": {
      "currentVersionUrl": "/offers/v1.0/aws/AmazonLex/current/index.json",
      "offerCode": "AmazonLex",
      "versionIndexUrl": "/offers/v1.0/aws/AmazonLex/index.json",
      "currentRegionIndexUrl": "/offers/v1.0/aws/AmazonLex/current/region_index.json"
    },
    "AmazonKinesisFirehose": {
      "currentVersionUrl": "/offers/v1.0/aws/AmazonKinesisFirehose/current/index.json",
      "offerCode": "AmazonKinesisFirehose",
      "versionIndexUrl": "/offers/v1.0/aws/AmazonKinesisFirehose/index.json",
      "currentRegionIndexUrl": "/offers/v1.0/aws/AmazonKinesisFirehose/current/region_index.json"
    },
    "ElasticMapReduce": {
      "currentVersionUrl": "/offers/v1.0/aws/ElasticMapReduce/current/index.json",
      "offerCode": "ElasticMapReduce",
      "versionIndexUrl": "/offers/v1.0/aws/ElasticMapReduce/index.json",
      "currentRegionIndexUrl": "/offers/v1.0/aws/ElasticMapReduce/current/region_index.json"
    },
    "AmazonCloudSearch": {
      "currentVersionUrl": "/offers/v1.0/aws/AmazonCloudSearch/current/index.json",
      "offerCode": "AmazonCloudSearch",
      "versionIndexUrl": "/offers/v1.0/aws/AmazonCloudSearch/index.json",
      "currentRegionIndexUrl": "/offers/v1.0/aws/AmazonCloudSearch/current/region_index.json"
    },
    "AmazonSimpleDB": {
      "currentVersionUrl": "/offers/v1.0/aws/AmazonSimpleDB/current/index.json",
      "offerCode": "AmazonSimpleDB",
      "versionIndexUrl": "/offers/v1.0/aws/AmazonSimpleDB/index.json"
    },
    "AWSSupportBusiness": {
      "currentVersionUrl": "/offers/v1.0/aws/AWSSupportBusiness/current/index.json",
      "offerCode": "AWSSupportBusiness",
      "versionIndexUrl": "/offers/v1.0/aws/AWSSupportBusiness/index.json",
      "currentRegionIndexUrl": "/offers/v1.0/aws/AWSSupportBusiness/current/region_index.json"
    },
    "AWSEvents": {
      "currentVersionUrl": "/offers/v1.0/aws/AWSEvents/current/index.json",
      "offerCode": "AWSEvents",
      "versionIndexUrl": "/offers/v1.0/aws/AWSEvents/index.json",
      "currentRegionIndexUrl": "/offers/v1.0/aws/AWSEvents/current/region_index.json"
    },
    "AWSCodeCommit": {
      "currentVersionUrl": "/offers/v1.0/aws/AWSCodeCommit/current/index.json",
      "offerCode": "AWSCodeCommit",
      "versionIndexUrl": "/offers/v1.0/aws/AWSCodeCommit/index.json",
      "currentRegionIndexUrl": "/offers/v1.0/aws/AWSCodeCommit/current/region_index.json"
    },
    "AmazonRoute53": {
      "currentVersionUrl": "/offers/v1.0/aws/AmazonRoute53/current/index.json",
      "offerCode": "AmazonRoute53",
      "versionIndexUrl": "/offers/v1.0/aws/AmazonRoute53/index.json",
      "currentRegionIndexUrl": "/offers/v1.0/aws/AmazonRoute53/current/region_index.json"
    },
    "AmazonSNS": {
      "currentVersionUrl": "/offers/v1.0/aws/AmazonSNS/current/index.json",
      "offerCode": "AmazonSNS",
      "versionIndexUrl": "/offers/v1.0/aws/AmazonSNS/index.json",
      "currentRegionIndexUrl": "/offers/v1.0/aws/AmazonSNS/current/region_index.json"
    },
    "AmazonKinesis": {
      "currentVersionUrl": "/offers/v1.0/aws/AmazonKinesis/current/index.json",
      "offerCode": "AmazonKinesis",
      "versionIndexUrl": "/offers/v1.0/aws/AmazonKinesis/index.json",
      "currentRegionIndexUrl": "/offers/v1.0/aws/AmazonKinesis/current/region_index.json"
    },
    "AlexaWebInfoService": {
      "currentVersionUrl": "/offers/v1.0/aws/AlexaWebInfoService/current/index.json",
      "offerCode": "AlexaWebInfoService",
      "versionIndexUrl": "/offers/v1.0/aws/AlexaWebInfoService/index.json",
      "currentRegionIndexUrl": "/offers/v1.0/aws/AlexaWebInfoService/current/region_index.json"
    },
    "datapipeline": {
      "currentVersionUrl": "/offers/v1.0/aws/datapipeline/current/index.json",
      "offerCode": "datapipeline",
      "versionIndexUrl": "/offers/v1.0/aws/datapipeline/index.json",
      "currentRegionIndexUrl": "/offers/v1.0/aws/datapipeline/current/region_index.json"
    },
    "AWSShield": {
      "currentVersionUrl": "/offers/v1.0/aws/AWSShield/current/index.json",
      "offerCode": "AWSShield",
      "versionIndexUrl": "/offers/v1.0/aws/AWSShield/index.json",
      "currentRegionIndexUrl": "/offers/v1.0/aws/AWSShield/current/region_index.json"
    },
    "AWSConfig": {
      "currentVersionUrl": "/offers/v1.0/aws/AWSConfig/current/index.json",
      "offerCode": "AWSConfig",
      "versionIndexUrl": "/offers/v1.0/aws/AWSConfig/index.json",
      "currentRegionIndexUrl": "/offers/v1.0/aws/AWSConfig/current/region_index.json"
    },
    "AmazonRekognition": {
      "currentVersionUrl": "/offers/v1.0/aws/AmazonRekognition/current/index.json",
      "offerCode": "AmazonRekognition",
      "versionIndexUrl": "/offers/v1.0/aws/AmazonRekognition/index.json",
      "currentRegionIndexUrl": "/offers/v1.0/aws/AmazonRekognition/current/region_index.json"
    },
    "mobileanalytics": {
      "currentVersionUrl": "/offers/v1.0/aws/mobileanalytics/current/index.json",
      "offerCode": "mobileanalytics",
      "versionIndexUrl": "/offers/v1.0/aws/mobileanalytics/index.json",
      "currentRegionIndexUrl": "/offers/v1.0/aws/mobileanalytics/current/region_index.json"
    },
    "AmazonPolly": {
      "currentVersionUrl": "/offers/v1.0/aws/AmazonPolly/current/index.json",
      "offerCode": "AmazonPolly",
      "versionIndexUrl": "/offers/v1.0/aws/AmazonPolly/index.json",
      "currentRegionIndexUrl": "/offers/v1.0/aws/AmazonPolly/current/region_index.json"
    },
    "AmazonDynamoDB": {
      "currentVersionUrl": "/offers/v1.0/aws/AmazonDynamoDB/current/index.json",
      "offerCode": "AmazonDynamoDB",
      "versionIndexUrl": "/offers/v1.0/aws/AmazonDynamoDB/index.json",
      "currentRegionIndexUrl": "/offers/v1.0/aws/AmazonDynamoDB/current/region_index.json"
    },
    "AWSServiceCatalog": {
      "currentVersionUrl": "/offers/v1.0/aws/AWSServiceCatalog/current/index.json",
      "offerCode": "AWSServiceCatalog",
      "versionIndexUrl": "/offers/v1.0/aws/AWSServiceCatalog/index.json",
      "currentRegionIndexUrl": "/offers/v1.0/aws/AWSServiceCatalog/current/region_index.json"
    },
    "AmazonDAX": {
      "currentVersionUrl": "/offers/v1.0/aws/AmazonDAX/current/index.json",
      "offerCode": "AmazonDAX",
      "versionIndexUrl": "/offers/v1.0/aws/AmazonDAX/index.json",
      "currentRegionIndexUrl": "/offers/v1.0/aws/AmazonDAX/current/region_index.json"
    },
    "AmazonES": {
      "currentVersionUrl": "/offers/v1.0/aws/AmazonES/current/index.json",
      "offerCode": "AmazonES",
      "versionIndexUrl": "/offers/v1.0/aws/AmazonES/index.json",
      "currentRegionIndexUrl": "/offers/v1.0/aws/AmazonES/current/region_index.json"
    },
    "CodeBuild": {
      "currentVersionUrl": "/offers/v1.0/aws/CodeBuild/current/index.json",
      "offerCode": "CodeBuild",
      "versionIndexUrl": "/offers/v1.0/aws/CodeBuild/index.json",
      "currentRegionIndexUrl": "/offers/v1.0/aws/CodeBuild/current/region_index.json"
    },
    "AWSBudgets": {
      "currentVersionUrl": "/offers/v1.0/aws/AWSBudgets/current/index.json",
      "offerCode": "AWSBudgets",
      "versionIndexUrl": "/offers/v1.0/aws/AWSBudgets/index.json",
      "currentRegionIndexUrl": "/offers/v1.0/aws/AWSBudgets/current/region_index.json"
    },
    "AmazonKinesisAnalytics": {
      "currentVersionUrl": "/offers/v1.0/aws/AmazonKinesisAnalytics/current/index.json",
      "offerCode": "AmazonKinesisAnalytics",
      "versionIndexUrl": "/offers/v1.0/aws/AmazonKinesisAnalytics/index.json",
      "currentRegionIndexUrl": "/offers/v1.0/aws/AmazonKinesisAnalytics/current/region_index.json"
    },
    "AmazonCognitoSync": {
      "currentVersionUrl": "/offers/v1.0/aws/AmazonCognitoSync/current/index.json",
      "offerCode": "AmazonCognitoSync",
      "versionIndexUrl": "/offers/v1.0/aws/AmazonCognitoSync/index.json",
      "currentRegionIndexUrl": "/offers/v1.0/aws/AmazonCognitoSync/current/region_index.json"
    },
    "AmazonConnect": {
      "currentVersionUrl": "/offers/v1.0/aws/AmazonConnect/current/index.json",
      "offerCode": "AmazonConnect",
      "versionIndexUrl": "/offers/v1.0/aws/AmazonConnect/index.json",
      "currentRegionIndexUrl": "/offers/v1.0/aws/AmazonConnect/current/region_index.json"
    },
    "AWSQueueService": {
      "currentVersionUrl": "/offers/v1.0/aws/AWSQueueService/current/index.json",
      "offerCode": "AWSQueueService",
      "versionIndexUrl": "/offers/v1.0/aws/AWSQueueService/index.json",
      "currentRegionIndexUrl": "/offers/v1.0/aws/AWSQueueService/current/region_index.json"
    },
    "AmazonETS": {
      "currentVersionUrl": "/offers/v1.0/aws/AmazonETS/current/index.json",
      "offerCode": "AmazonETS",
      "versionIndexUrl": "/offers/v1.0/aws/AmazonETS/index.json",
      "currentRegionIndexUrl": "/offers/v1.0/aws/AmazonETS/current/region_index.json"
    },
    "AmazonECR": {
      "currentVersionUrl": "/offers/v1.0/aws/AmazonECR/current/index.json",
      "offerCode": "AmazonECR",
      "versionIndexUrl": "/offers/v1.0/aws/AmazonECR/index.json",
      "currentRegionIndexUrl": "/offers/v1.0/aws/AmazonECR/current/region_index.json"
    },
    "IngestionServiceSnowball": {
      "currentVersionUrl": "/offers/v1.0/aws/IngestionServiceSnowball/current/index.json",
      "offerCode": "IngestionServiceSnowball",
      "versionIndexUrl": "/offers/v1.0/aws/IngestionServiceSnowball/index.json",
      "currentRegionIndexUrl": "/offers/v1.0/aws/IngestionServiceSnowball/current/region_index.json"
    },
    "AWSStorageGateway": {
      "currentVersionUrl": "/offers/v1.0/aws/AWSStorageGateway/current/index.json",
      "offerCode": "AWSStorageGateway",
      "versionIndexUrl": "/offers/v1.0/aws/AWSStorageGateway/index.json",
      "currentRegionIndexUrl": "/offers/v1.0/aws/AWSStorageGateway/current/region_index.json"
    },
    "AmazonCognito": {
      "currentVersionUrl": "/offers/v1.0/aws/AmazonCognito/current/index.json",
      "offerCode": "AmazonCognito",
      "versionIndexUrl": "/offers/v1.0/aws/AmazonCognito/index.json",
      "currentRegionIndexUrl": "/offers/v1.0/aws/AmazonCognito/current/region_index.json"
    },
    "AmazonStates": {
      "currentVersionUrl": "/offers/v1.0/aws/AmazonStates/current/index.json",
      "offerCode": "AmazonStates",
      "versionIndexUrl": "/offers/v1.0/aws/AmazonStates/index.json",
      "currentRegionIndexUrl": "/offers/v1.0/aws/AmazonStates/current/region_index.json"
    },
    "AmazonSES": {
      "currentVersionUrl": "/offers/v1.0/aws/AmazonSES/current/index.json",
      "offerCode": "AmazonSES",
      "versionIndexUrl": "/offers/v1.0/aws/AmazonSES/index.json"
    },
    "AWSGreengrass": {
      "currentVersionUrl": "/offers/v1.0/aws/AWSGreengrass/current/index.json",
      "offerCode": "AWSGreengrass",
      "versionIndexUrl": "/offers/v1.0/aws/AWSGreengrass/index.json",
      "currentRegionIndexUrl": "/offers/v1.0/aws/AWSGreengrass/current/region_index.json"
    },
    "OpsWorks": {
      "currentVersionUrl": "/offers/v1.0/aws/OpsWorks/current/index.json",
      "offerCode": "OpsWorks",
      "versionIndexUrl": "/offers/v1.0/aws/OpsWorks/index.json",
      "currentRegionIndexUrl": "/offers/v1.0/aws/OpsWorks/current/region_index.json"
    },
    "AmazonML": {
      "currentVersionUrl": "/offers/v1.0/aws/AmazonML/current/index.json",
      "offerCode": "AmazonML",
      "versionIndexUrl": "/offers/v1.0/aws/AmazonML/index.json",
      "currentRegionIndexUrl": "/offers/v1.0/aws/AmazonML/current/region_index.json"
    },
    "AmazonSWF": {
      "currentVersionUrl": "/offers/v1.0/aws/AmazonSWF/current/index.json",
      "offerCode": "AmazonSWF",
      "versionIndexUrl": "/offers/v1.0/aws/AmazonSWF/index.json",
      "currentRegionIndexUrl": "/offers/v1.0/aws/AmazonSWF/current/region_index.json"
    },
    "AWSGlue": {
      "currentVersionUrl": "/offers/v1.0/aws/AWSGlue/current/index.json",
      "offerCode": "AWSGlue",
      "versionIndexUrl": "/offers/v1.0/aws/AWSGlue/index.json",
      "currentRegionIndexUrl": "/offers/v1.0/aws/AWSGlue/current/region_index.json"
    },
    "AmazonQuickSight": {
      "currentVersionUrl": "/offers/v1.0/aws/AmazonQuickSight/current/index.json",
      "offerCode": "AmazonQuickSight",
      "versionIndexUrl": "/offers/v1.0/aws/AmazonQuickSight/index.json"
    },
    "AmazonVPC": {
      "currentVersionUrl": "/offers/v1.0/aws/AmazonVPC/current/index.json",
      "offerCode": "AmazonVPC",
      "versionIndexUrl": "/offers/v1.0/aws/AmazonVPC/index.json",
      "currentRegionIndexUrl": "/offers/v1.0/aws/AmazonVPC/current/region_index.json"
    },
    "AmazonInspector": {
      "currentVersionUrl": "/offers/v1.0/aws/AmazonInspector/current/index.json",
      "offerCode": "AmazonInspector",
      "versionIndexUrl": "/offers/v1.0/aws/AmazonInspector/index.json",
      "currentRegionIndexUrl": "/offers/v1.0/aws/AmazonInspector/current/region_index.json"
    }
  },
  "disclaimer": "This pricing list is for informational purposes only. All prices are subject to the additional terms included in the pricing pages on http://aws.amazon.com. All Free Tier prices are also subject to the terms included at https://aws.amazon.com/free/",
  "publicationDate": "2017-11-22T19:44:08Z",
  "formatVersion": "v1.0"
}