"FormatVersion","v1.0"
"Disclaimer","This pricing list is for informational purposes only. All prices are subject to the additional terms included in the pricing pages on http://aws.amazon.com. All Free Tier prices are also subject to the terms included at https://aws.amazon.com/free/"
"Publication Date","2017-04-19T19:46:32Z"
"Version","20170419194632"
"OfferCode","AlexaWebInfoService"
"SKU","OfferTermCode","RateCode","TermType","PriceDescription","EffectiveDate","StartingRange","EndingRange","Unit","PricePerUnit","Currency","Product Family","serviceCode","Location","Location Type","usageType","operation"
"JWUWJ8C74TWVJ4H2","JRTCKXETXF","JWUWJ8C74TWVJ4H2.JRTCKXETXF.JXGPBPHWFF","OnDemand","Up to 1,000 requests/month - Free","2016-12-01","0","1000","Requests","0.0000000000","USD","Alexa Web Information Service Requests","AlexaWebInfoService","Any","AWS Region","Requests",""
"JWUWJ8C74TWVJ4H2","JRTCKXETXF","JWUWJ8C74TWVJ4H2.JRTCKXETXF.7RSP7MAP2R","OnDemand","1,001 to 1,000,000 requests/month - $0.00045 per request","2016-12-01","1000","1000000","Requests","0.0004500000","USD","Alexa Web Information Service Requests","AlexaWebInfoService","Any","AWS Region","Requests",""
"JWUWJ8C74TWVJ4H2","JRTCKXETXF","JWUWJ8C74TWVJ4H2.JRTCKXETXF.VNJQCFJPS4","OnDemand","Over 1,000,000 requests/month - $0.00030 per request","2016-12-01","1000000","Inf","Requests","0.0003000000","USD","Alexa Web Information Service Requests","AlexaWebInfoService","Any","AWS Region","Requests",""
