"FormatVersion","v1.0"
"Disclaimer","This pricing list is for informational purposes only. All prices are subject to the additional terms included in the pricing pages on http://aws.amazon.com. All Free Tier prices are also subject to the terms included at https://aws.amazon.com/free/"
"Publication Date","2016-12-27T21:23:22Z"
"Version","20161227212322"
"OfferCode","AmazonQuickSight"
"SKU","OfferTermCode","RateCode","TermType","PriceDescription","EffectiveDate","StartingRange","EndingRange","Unit","PricePerUnit","Currency","Product Family","serviceCode","Location","Location Type","Group","Group Description","usageType","operation","Edition","Subscription Type"
"8SGX62U3CNQPU6BE","JRTCKXETXF","8SGX62U3CNQPU6BE.JRTCKXETXF.6YS6EN2CT7","OnDemand","QuickSight Provisioned Enterprise SPICE Capacity in us-west-2","2016-11-01","0","Inf","GB","0.3800000000","USD","Business Analytics","AmazonQuickSight","US West (Oregon)","AWS Region","SPICE Purchase","Number of SPICE capacity (GB) provisioned","USW2-QS-Enterprise-SPICE","","Enterprise","Not Applicable"
"6PUUASV482EAS582","JRTCKXETXF","6PUUASV482EAS582.JRTCKXETXF.6YS6EN2CT7","OnDemand","QuickSight Enterprise Edition User - Annual Subscription","2016-11-01","0","Inf","User","18.0000000000","USD","Business Analytics","AmazonQuickSight","Any","AWS Region","User Subscription","Number of user subscriptions in the service","QS-User-Enterprise-Annual","","Enterprise","Annual"
"CW7RVAQTZ3XDSJ2K","JRTCKXETXF","CW7RVAQTZ3XDSJ2K.JRTCKXETXF.6YS6EN2CT7","OnDemand","QuickSight Provisioned SPICE Capacity in us-west-2","2016-11-01","0","Inf","GB","0.2500000000","USD","Business Analytics","AmazonQuickSight","US West (Oregon)","AWS Region","SPICE Purchase","Number of SPICE capacity (GB) provisioned","USW2-QS-Provisioned-SPICE","","Standard","Not Applicable"
"NZ7Q6TBMPBKHKGDB","JRTCKXETXF","NZ7Q6TBMPBKHKGDB.JRTCKXETXF.6YS6EN2CT7","OnDemand","QuickSight Provisioned Enterprise SPICE Capacity in eu-west-1","2016-11-01","0","Inf","GB","0.3800000000","USD","Business Analytics","AmazonQuickSight","EU (Ireland)","AWS Region","SPICE Purchase","Number of SPICE capacity (GB) provisioned","EU-QS-Enterprise-SPICE","","Enterprise","Not Applicable"
"PG8RJ65RVGUEJ5DS","JRTCKXETXF","PG8RJ65RVGUEJ5DS.JRTCKXETXF.6YS6EN2CT7","OnDemand","QuickSight Enterprise Edition User","2016-11-01","0","Inf","User","24.0000000000","USD","Business Analytics","AmazonQuickSight","Any","AWS Region","User Subscription","Number of user subscriptions in the service","QS-User-Enterprise-Month","","Enterprise","Monthly"
"T4GAEKP5WQQWCUD5","JRTCKXETXF","T4GAEKP5WQQWCUD5.JRTCKXETXF.6YS6EN2CT7","OnDemand","QuickSight Provisioned SPICE Capacity in us-east-1","2016-11-01","0","Inf","GB","0.2500000000","USD","Business Analytics","AmazonQuickSight","US East (N. Virginia)","AWS Region","SPICE Purchase","Number of SPICE capacity (GB) provisioned","USE1-QS-Provisioned-SPICE","","Standard","Not Applicable"
"96CPD4MN7Q6WKPAM","JRTCKXETXF","96CPD4MN7Q6WKPAM.JRTCKXETXF.6YS6EN2CT7","OnDemand","QuickSight Standard Edition User","2016-11-01","0","Inf","User","12.0000000000","USD","Business Analytics","AmazonQuickSight","Any","AWS Region","User Subscription","Number of user subscriptions in the service","QS-User-Standard-Month","","Standard","Monthly"
"R8PKSKFCHES8YSKK","JRTCKXETXF","R8PKSKFCHES8YSKK.JRTCKXETXF.6YS6EN2CT7","OnDemand","QuickSight Provisioned Enterprise SPICE Capacity in us-east-1","2016-11-01","0","Inf","GB","0.3800000000","USD","Business Analytics","AmazonQuickSight","US East (N. Virginia)","AWS Region","SPICE Purchase","Number of SPICE capacity (GB) provisioned","USE1-QS-Enterprise-SPICE","","Enterprise","Not Applicable"
"RPCHPS89C2U6A7NP","JRTCKXETXF","RPCHPS89C2U6A7NP.JRTCKXETXF.6YS6EN2CT7","OnDemand","Free QuickSight User","2016-11-01","0","Inf","User","0.0000000000","USD","Business Analytics","AmazonQuickSight","Any","AWS Region","User Subscription","Number of user subscriptions in the service","QS-User-Free","","Free","Free"
"G26TQGRFRVCT8359","JRTCKXETXF","G26TQGRFRVCT8359.JRTCKXETXF.6YS6EN2CT7","OnDemand","QuickSight Provisioned SPICE Capacity in eu-west-1","2016-11-01","0","Inf","GB","0.2500000000","USD","Business Analytics","AmazonQuickSight","EU (Ireland)","AWS Region","SPICE Purchase","Number of SPICE capacity (GB) provisioned","EU-QS-Provisioned-SPICE","","Standard","Not Applicable"
"XQ2A7SUYZX36HHCR","JRTCKXETXF","XQ2A7SUYZX36HHCR.JRTCKXETXF.6YS6EN2CT7","OnDemand","QuickSight Standard Edition User - Annual Subscription","2016-11-01","0","Inf","User","9.0000000000","USD","Business Analytics","AmazonQuickSight","Any","AWS Region","User Subscription","Number of user subscriptions in the service","QS-User-Standard-Annual","","Standard","Annual"
