"FormatVersion","v1.0"
"Disclaimer","This pricing list is for informational purposes only. All prices are subject to the additional terms included in the pricing pages on http://aws.amazon.com. All Free Tier prices are also subject to the terms included at https://aws.amazon.com/free/"
"Publication Date","2017-04-19T20:12:45Z"
"Version","20170419201245"
"OfferCode","AmazonWorkMail"
"SKU","OfferTermCode","RateCode","TermType","PriceDescription","EffectiveDate","StartingRange","EndingRange","Unit","PricePerUnit","Currency","Product Family","serviceCode","Location","Location Type","usageType","operation","Free Tier","Mailbox Storage"
"EE3PBN5PPN72CV98","JRTCKXETXF","EE3PBN5PPN72CV98.JRTCKXETXF.6YS6EN2CT7","OnDemand","$4 per user per month in the EUW1 region","2016-03-01","0","Inf","User-Mo","4.0000000000","USD","Enterprise Applications","AmazonWorkMail","EU (Ireland)","AWS Region","EUW1-WorkMail-NormalTier-UserHrs","","N","50GB"
"5CW4TM93K8YJ224U","JRTCKXETXF","5CW4TM93K8YJ224U.JRTCKXETXF.6YS6EN2CT7","OnDemand","$4 per user per month under the normal tier in the USW2 region","2016-03-01","0","Inf","User-Mo","4.0000000000","USD","Enterprise Applications","AmazonWorkMail","US West (Oregon)","AWS Region","USW2-WorkMail-NormalTier-UserHrs","","N","50GB"
"BT3JRDF6VZHPNDS4","JRTCKXETXF","BT3JRDF6VZHPNDS4.JRTCKXETXF.6YS6EN2CT7","OnDemand","$0 per user per month under the free tier in the EUW1 region","2016-03-01","0","Inf","User-Mo","0.0000000000","USD","Enterprise Applications","AmazonWorkMail","EU (Ireland)","AWS Region","EUW1-WorkMail-FreeTier-UserHrs","","Y","50GB"
"8PKFR8SGFERTRYG2","JRTCKXETXF","8PKFR8SGFERTRYG2.JRTCKXETXF.6YS6EN2CT7","OnDemand","$0 per user per month under the free tier in the USE1 region","2016-03-01","0","Inf","User-Mo","0.0000000000","USD","Enterprise Applications","AmazonWorkMail","US East (N. Virginia)","AWS Region","USE1-WorkMail-FreeTier-UserHrs","","Y","50GB"
"GJ2WD77XFX753GMU","JRTCKXETXF","GJ2WD77XFX753GMU.JRTCKXETXF.6YS6EN2CT7","OnDemand","$4 per user per month in the USE1 region","2016-03-01","0","Inf","User-Mo","4.0000000000","USD","Enterprise Applications","AmazonWorkMail","US East (N. Virginia)","AWS Region","USE1-WorkMail-NormalTier-UserHrs","","N","50GB"
"67MBZGRH34DGJK57","JRTCKXETXF","67MBZGRH34DGJK57.JRTCKXETXF.6YS6EN2CT7","OnDemand","$0 per user per month under the free tier in the USW2 region","2016-03-01","0","Inf","User-Mo","0.0000000000","USD","Enterprise Applications","AmazonWorkMail","US West (Oregon)","AWS Region","USW2-WorkMail-FreeTier-UserHrs","","Y","50GB"
