"FormatVersion","v1.0"
"Disclaimer","This pricing list is for informational purposes only. All prices are subject to the additional terms included in the pricing pages on http://aws.amazon.com. All Free Tier prices are also subject to the terms included at https://aws.amazon.com/free/"
"Publication Date","2017-04-19T20:11:09Z"
"Version","20170419201109"
"OfferCode","AmazonWAM"
"SKU","OfferTermCode","RateCode","TermType","PriceDescription","EffectiveDate","StartingRange","EndingRange","Unit","PricePerUnit","Currency","Product Family","serviceCode","Location","Location Type","Group","usageType","operation","Plan Type"
"Q7WTZ7BTSEYN88NZ","JRTCKXETXF","Q7WTZ7BTSEYN88NZ.JRTCKXETXF.6YS6EN2CT7","OnDemand","$0.00 per user per app per month US-East-1 Region WAM app fee","2016-02-01","0","Inf","UserApp-Mo","0.0000000000","USD","WorkSpaces Application Manager","AmazonWAM","US East (N. Virginia)","AWS Region","Amazon WAM Line of Business","USE1-WAM-LOB","","Standard"
"M3BG5N6DK6AVBKD9","JRTCKXETXF","M3BG5N6DK6AVBKD9.JRTCKXETXF.6YS6EN2CT7","OnDemand","$0.00 per user per month Asia Pacific(Singapore) region Amazon WAM Lite subscription fee","2016-02-01","0","Inf","APS1-WAM-LITE","0.0000000000","USD","WorkSpaces Application Manager","AmazonWAM","Asia Pacific (Singapore)","AWS Region","Amazon WAM Lite","APS1-WAM-LITE","","Lite"
"2WXEN78UWEZDJ3JV","JRTCKXETXF","2WXEN78UWEZDJ3JV.JRTCKXETXF.6YS6EN2CT7","OnDemand","$5.00 per user assignment per month US-West-2 Region WAM STD subscription fee","2016-02-01","0","Inf","User-Mo","5.0000000000","USD","WorkSpaces Application Manager","AmazonWAM","US West (Oregon)","AWS Region","Amazon WAM Standard","USW2-WAM-STD","","Standard"
"AZVH2VVAEKBT8C2C","JRTCKXETXF","AZVH2VVAEKBT8C2C.JRTCKXETXF.6YS6EN2CT7","OnDemand","$0.00 per user per month Asia Pacific(Sydney) region Amazon WAM Lite subscription fee","2016-02-01","0","Inf","APS2-WAM-LITE","0.0000000000","USD","WorkSpaces Application Manager","AmazonWAM","Asia Pacific (Sydney)","AWS Region","Amazon WAM Lite","APS2-WAM-LITE","","Lite"
"SE2C3T2VKYHCH3QE","JRTCKXETXF","SE2C3T2VKYHCH3QE.JRTCKXETXF.6YS6EN2CT7","OnDemand","$5.00 per user per month Asia Pacific(Sydney) region Amazon WAM Standard subscription fee","2016-02-01","0","Inf","APS2-WAM-STD","5.0000000000","USD","WorkSpaces Application Manager","AmazonWAM","Asia Pacific (Sydney)","AWS Region","Amazon WAM Standard","APS2-WAM-STD","","Standard"
"TZ82SUMQDBZEN786","JRTCKXETXF","TZ82SUMQDBZEN786.JRTCKXETXF.6YS6EN2CT7","OnDemand","$0.00 per user per month US-West-2 Region WAM subscription fee","2016-02-01","0","Inf","User-Mo","0.0000000000","USD","WorkSpaces Application Manager","AmazonWAM","US West (Oregon)","AWS Region","Amazon WAM Service Entitlement","USW2-WAM-SE","","Standard"
"AKEVEUB9F8WY83R8","JRTCKXETXF","AKEVEUB9F8WY83R8.JRTCKXETXF.6YS6EN2CT7","OnDemand","$5.00 per user assignment per month US-East-1 Region WAM STD subscription fee","2016-02-01","0","Inf","User-Mo","5.0000000000","USD","WorkSpaces Application Manager","AmazonWAM","US East (N. Virginia)","AWS Region","Amazon WAM Standard","USE1-WAM-STD","","Standard"
"3Q9FMAFJH9YJS9T4","JRTCKXETXF","3Q9FMAFJH9YJS9T4.JRTCKXETXF.6YS6EN2CT7","OnDemand","$0.00 per user per month US-East-1 Region WAM subscription fee","2016-02-01","0","Inf","User-Mo","0.0000000000","USD","WorkSpaces Application Manager","AmazonWAM","US East (N. Virginia)","AWS Region","Amazon WAM Service Entitlement","USE1-WAM-SE","","Standard"
"2UUFTT4T2ZQH9NWT","JRTCKXETXF","2UUFTT4T2ZQH9NWT.JRTCKXETXF.6YS6EN2CT7","OnDemand","$0.00 per user per app per month US-West-2 Region WAM app fee","2016-02-01","0","Inf","UserApp-Mo","0.0000000000","USD","WorkSpaces Application Manager","AmazonWAM","US West (Oregon)","AWS Region","Amazon WAM Line of Business","USW2-WAM-LOB","","Lite"
"FTYP88JJ9W67MA9X","JRTCKXETXF","FTYP88JJ9W67MA9X.JRTCKXETXF.6YS6EN2CT7","OnDemand","$0.00 per user per month EU Region Amazon WAM Lite subscription fee","2016-02-01","0","Inf","User-Mo","0.0000000000","USD","WorkSpaces Application Manager","AmazonWAM","EU (Ireland)","AWS Region","Amazon WAM Lite","EU-WAM-LITE","","Lite"
"ZR2JR85NY7Y2VBTT","JRTCKXETXF","ZR2JR85NY7Y2VBTT.JRTCKXETXF.6YS6EN2CT7","OnDemand","$0.00 per user assignment per month US-West-2 Region WAM LITE subscription fee","2016-02-01","0","Inf","User-Mo","0.0000000000","USD","WorkSpaces Application Manager","AmazonWAM","US West (Oregon)","AWS Region","Amazon WAM Lite","USW2-WAM-LITE","","Lite"
"BMZBHJNGKDXSDDQP","JRTCKXETXF","BMZBHJNGKDXSDDQP.JRTCKXETXF.6YS6EN2CT7","OnDemand","$0.00 per user assignment per month US-East-1 Region WAM LITE subscription fee","2016-02-01","0","Inf","User-Mo","0.0000000000","USD","WorkSpaces Application Manager","AmazonWAM","US East (N. Virginia)","AWS Region","Amazon WAM Lite","USE1-WAM-LITE","","Lite"
"SF6KT5RMJYXEYHMJ","JRTCKXETXF","SF6KT5RMJYXEYHMJ.JRTCKXETXF.6YS6EN2CT7","OnDemand","$5.00 per user per month EU Region Amazon WAM Standard subscription fee","2016-02-01","0","Inf","User-Mo","5.0000000000","USD","WorkSpaces Application Manager","AmazonWAM","EU (Ireland)","AWS Region","Amazon WAM Standard","EU-WAM-STD","","Standard"
"AMJG2K2AB84SP7H4","JRTCKXETXF","AMJG2K2AB84SP7H4.JRTCKXETXF.6YS6EN2CT7","OnDemand","$5.00 per user per month Asia Pacific(Singapore) region Amazon WAM Standard subscription fee","2016-02-01","0","Inf","APS1-WAM-STD","5.0000000000","USD","WorkSpaces Application Manager","AmazonWAM","Asia Pacific (Singapore)","AWS Region","Amazon WAM Standard","APS1-WAM-STD","","Standard"
