"FormatVersion","v1.0"
"Disclaimer","This pricing list is for informational purposes only. All prices are subject to the additional terms included in the pricing pages on http://aws.amazon.com. All Free Tier prices are also subject to the terms included at https://aws.amazon.com/free/"
"Publication Date","2017-05-24T00:47:47Z"
"Version","20170524004747"
"OfferCode","AWSXRay"
"SKU","OfferTermCode","RateCode","TermType","PriceDescription","EffectiveDate","StartingRange","EndingRange","Unit","PricePerUnit","Currency","RelatedTo","Product Family","serviceCode","Location","Location Type","Group","Group Description","usageType","operation"
"XS5XACTKBU2D9HU4","JRTCKXETXF","XS5XACTKBU2D9HU4.JRTCKXETXF.6YS6EN2CT7","OnDemand","AWS X-Ray - Total Traces Accessed - Asia Pacific (Mumbai)","2017-05-01","0","Inf","traces","0.0000005000","USD","EVFTT5KSKWPZ32VT","Developer Tools","AWSXRay","Asia Pacific (Mumbai)","AWS Region","Traces Scanned","Number of X-Ray traces accessed and scanned from the AWS X-Ray service","APS3-XRay-TracesAccessed","XRay-Traces-Scanned"
"TFZU6SC9NCV4GHCW","JRTCKXETXF","TFZU6SC9NCV4GHCW.JRTCKXETXF.6YS6EN2CT7","OnDemand","AWS X-Ray - Total Traces Stored - US West (Oregon)","2017-05-01","0","Inf","traces","0.0000050000","USD","EU3HQZXVTXB5DTVA","Developer Tools","AWSXRay","US West (Oregon)","AWS Region","Traces Stored","Number of X-Ray traces stored in the AWS X-Ray service","USW2-XRay-TracesStored",""
"8SN449SEGQDB996N","JRTCKXETXF","8SN449SEGQDB996N.JRTCKXETXF.6YS6EN2CT7","OnDemand","AWS X-Ray - Total Traces Accessed - US East (Northern California)","2017-05-01","0","Inf","traces","0.0000005000","USD","EVFTT5KSKWPZ32VT","Developer Tools","AWSXRay","US West (N. California)","AWS Region","Traces Scanned","Number of X-Ray traces accessed and scanned from the AWS X-Ray service","USW1-XRay-TracesAccessed","XRay-Traces-Scanned"
"EVFTT5KSKWPZ32VT","A429C66SYZ","EVFTT5KSKWPZ32VT.A429C66SYZ.SB2VSFF4TP","OnDemand","AWS X-Ray - Traces Accessed Free Tier - 1,000,000 traces","2017-05-01","0","1000000","traces","0.0000000000","USD",,"Developer Tools","AWSXRay","Any","AWS Region","Traces Accessed","Number of X-Ray traces accessed from the AWS X-Ray service","Global-XRay-TracesAccessed",""
"W2X5XHWHGSM872KH","JRTCKXETXF","W2X5XHWHGSM872KH.JRTCKXETXF.6YS6EN2CT7","OnDemand","AWS X-Ray - Total Traces Accessed - EU (Frankfurt)","2017-05-01","0","Inf","traces","0.0000005000","USD","EVFTT5KSKWPZ32VT","Developer Tools","AWSXRay","EU (Frankfurt)","AWS Region","Traces Scanned","Number of X-Ray traces accessed and scanned from the AWS X-Ray service","EUC1-XRay-TracesAccessed","XRay-Traces-Scanned"
"EU3HQZXVTXB5DTVA","A429C66SYZ","EU3HQZXVTXB5DTVA.A429C66SYZ.NADQ2ZJX8V","OnDemand","AWS X-Ray - Traces Stored Free Tier - 100,000 traces","2017-05-01","0","100000","Traces","0.0000000000","USD",,"Developer Tools","AWSXRay","Any","AWS Region","Traces Stored","Number of X-Ray traces stored in the AWS X-Ray service","Global-XRay-TracesStored",""
"4B894S482QV26579","JRTCKXETXF","4B894S482QV26579.JRTCKXETXF.6YS6EN2CT7","OnDemand","AWS X-Ray - Total Traces Stored - Canada (Central)","2017-05-01","0","Inf","traces","0.0000050000","USD","EU3HQZXVTXB5DTVA","Developer Tools","AWSXRay","Canada (Central)","AWS Region","Traces Stored","Number of X-Ray traces stored in the AWS X-Ray service","CAN1-XRay-TracesStored",""
"CPAG9SFK8TJEG98T","JRTCKXETXF","CPAG9SFK8TJEG98T.JRTCKXETXF.6YS6EN2CT7","OnDemand","AWS X-Ray - Total Traces Accessed - Canada (Central)","2017-05-01","0","Inf","traces","0.0000005000","USD","EVFTT5KSKWPZ32VT","Developer Tools","AWSXRay","Canada (Central)","AWS Region","Traces Retrieved","Number of X-Ray traces accessed and retrieved from the AWS X-Ray service","CAN1-XRay-TracesAccessed","XRay-Traces-Retrieved"
"SJ5HKY4JRNBZGQF2","JRTCKXETXF","SJ5HKY4JRNBZGQF2.JRTCKXETXF.6YS6EN2CT7","OnDemand","AWS X-Ray - Total Traces Accessed - Asia Pacific (Tokyo)","2017-05-01","0","Inf","traces","0.0000005000","USD","EVFTT5KSKWPZ32VT","Developer Tools","AWSXRay","Asia Pacific (Tokyo)","AWS Region","Traces Scanned","Number of X-Ray traces accessed and scanned from the AWS X-Ray service","APN1-XRay-TracesAccessed","XRay-Traces-Scanned"
"B7PGW93G82R5PSDV","JRTCKXETXF","B7PGW93G82R5PSDV.JRTCKXETXF.6YS6EN2CT7","OnDemand","AWS X-Ray - Total Traces Accessed - EU (Ireland)","2017-05-01","0","Inf","traces","0.0000005000","USD","EVFTT5KSKWPZ32VT","Developer Tools","AWSXRay","EU (Ireland)","AWS Region","Traces Retrieved","Number of X-Ray traces accessed and retrieved from the AWS X-Ray service","EUW1-XRay-TracesAccessed","XRay-Traces-Retrieved"
"FPD8FM7SHEYWQ3EH","JRTCKXETXF","FPD8FM7SHEYWQ3EH.JRTCKXETXF.6YS6EN2CT7","OnDemand","AWS X-Ray - Total Traces Accessed - Asia Pacific (Sydney)","2017-05-01","0","Inf","traces","0.0000005000","USD","EVFTT5KSKWPZ32VT","Developer Tools","AWSXRay","Asia Pacific (Sydney)","AWS Region","Traces Retrieved","Number of X-Ray traces accessed and retrieved from the AWS X-Ray service","APS2-XRay-TracesAccessed","XRay-Traces-Retrieved"
"5FDV6MRM4PK8H733","JRTCKXETXF","5FDV6MRM4PK8H733.JRTCKXETXF.6YS6EN2CT7","OnDemand","AWS X-Ray - Total Traces Accessed - South America (Sao Paulo)","2017-05-01","0","Inf","traces","0.0000005000","USD","EVFTT5KSKWPZ32VT","Developer Tools","AWSXRay","South America (Sao Paulo)","AWS Region","Traces Retrieved","Number of X-Ray traces accessed and retrieved from the AWS X-Ray service","SAE1-XRay-TracesAccessed","XRay-Traces-Retrieved"
"RXRSATDX82R9BH97","JRTCKXETXF","RXRSATDX82R9BH97.JRTCKXETXF.6YS6EN2CT7","OnDemand","AWS X-Ray - Total Traces Accessed - Asia Pacific (Seoul)","2017-05-01","0","Inf","traces","0.0000005000","USD","EVFTT5KSKWPZ32VT","Developer Tools","AWSXRay","Asia Pacific (Seoul)","AWS Region","Traces Scanned","Number of X-Ray traces accessed and scanned from the AWS X-Ray service","APN2-XRay-TracesAccessed","XRay-Traces-Scanned"
"DVCBRC9SAH5Z6MKG","JRTCKXETXF","DVCBRC9SAH5Z6MKG.JRTCKXETXF.6YS6EN2CT7","OnDemand","AWS X-Ray - Total Traces Accessed - Asia Pacific (Seoul)","2017-05-01","0","Inf","traces","0.0000005000","USD","EVFTT5KSKWPZ32VT","Developer Tools","AWSXRay","Asia Pacific (Seoul)","AWS Region","Traces Retrieved","Number of X-Ray traces accessed and retrieved from the AWS X-Ray service","APN2-XRay-TracesAccessed","XRay-Traces-Retrieved"
"WH6YP3V4PCAMNXFR","JRTCKXETXF","WH6YP3V4PCAMNXFR.JRTCKXETXF.6YS6EN2CT7","OnDemand","AWS X-Ray - Total Traces Accessed - Asia Pacific (Singapore)","2017-05-01","0","Inf","traces","0.0000005000","USD","EVFTT5KSKWPZ32VT","Developer Tools","AWSXRay","Asia Pacific (Singapore)","AWS Region","Traces Scanned","Number of X-Ray traces accessed and scanned from the AWS X-Ray service","APS1-XRay-TracesAccessed","XRay-Traces-Scanned"
"3Z8CRKPUVWS4ZNBF","JRTCKXETXF","3Z8CRKPUVWS4ZNBF.JRTCKXETXF.6YS6EN2CT7","OnDemand","AWS X-Ray - Total Traces Accessed - US East (Northern California)","2017-05-01","0","Inf","traces","0.0000005000","USD","EVFTT5KSKWPZ32VT","Developer Tools","AWSXRay","US West (N. California)","AWS Region","Traces Retrieved","Number of X-Ray traces accessed and retrieved from the AWS X-Ray service","USW1-XRay-TracesAccessed","XRay-Traces-Retrieved"
"F2A8B3ECWKWBC3XQ","JRTCKXETXF","F2A8B3ECWKWBC3XQ.JRTCKXETXF.6YS6EN2CT7","OnDemand","AWS X-Ray - Total Traces Accessed - EU (Ireland)","2017-05-01","0","Inf","traces","0.0000005000","USD","EVFTT5KSKWPZ32VT","Developer Tools","AWSXRay","EU (Ireland)","AWS Region","Traces Scanned","Number of X-Ray traces accessed and scanned from the AWS X-Ray service","EUW1-XRay-TracesAccessed","XRay-Traces-Scanned"
"C4ZEZJCBE5MNH2DG","JRTCKXETXF","C4ZEZJCBE5MNH2DG.JRTCKXETXF.6YS6EN2CT7","OnDemand","AWS X-Ray - Total Traces Accessed - EU (London)","2017-05-01","0","Inf","traces","0.0000005000","USD","EVFTT5KSKWPZ32VT","Developer Tools","AWSXRay","EU (London)","AWS Region","Traces Scanned","Number of X-Ray traces accessed and scanned from the AWS X-Ray service","EUW2-XRay-TracesAccessed","XRay-Traces-Scanned"
"RC6BHWQ2UZBDT92F","JRTCKXETXF","RC6BHWQ2UZBDT92F.JRTCKXETXF.6YS6EN2CT7","OnDemand","AWS X-Ray - Total Traces Stored - Asia Pacific (Mumbai)","2017-05-01","0","Inf","traces","0.0000050000","USD","EU3HQZXVTXB5DTVA","Developer Tools","AWSXRay","Asia Pacific (Mumbai)","AWS Region","Traces Stored","Number of X-Ray traces stored in the AWS X-Ray service","APS3-XRay-TracesStored",""
"G7U2U9R3GDETG8JR","JRTCKXETXF","G7U2U9R3GDETG8JR.JRTCKXETXF.6YS6EN2CT7","OnDemand","AWS X-Ray - Total Traces Accessed - US East (North Virginia)","2017-05-01","0","Inf","traces","0.0000005000","USD","EVFTT5KSKWPZ32VT","Developer Tools","AWSXRay","US East (N. Virginia)","AWS Region","Traces Retrieved","Number of X-Ray traces accessed and retrieved from the AWS X-Ray service","USE1-XRay-TracesAccessed","XRay-Traces-Retrieved"
"T5NN4KWAHMGMB62W","JRTCKXETXF","T5NN4KWAHMGMB62W.JRTCKXETXF.6YS6EN2CT7","OnDemand","AWS X-Ray - Total Traces Accessed - Asia Pacific (Mumbai)","2017-05-01","0","Inf","traces","0.0000005000","USD","EVFTT5KSKWPZ32VT","Developer Tools","AWSXRay","Asia Pacific (Mumbai)","AWS Region","Traces Retrieved","Number of X-Ray traces accessed and retrieved from the AWS X-Ray service","APS3-XRay-TracesAccessed","XRay-Traces-Retrieved"
"ZF5AQUZ2PJQESZQR","JRTCKXETXF","ZF5AQUZ2PJQESZQR.JRTCKXETXF.6YS6EN2CT7","OnDemand","AWS X-Ray - Total Traces Accessed - Asia Pacific (Tokyo)","2017-05-01","0","Inf","traces","0.0000005000","USD","EVFTT5KSKWPZ32VT","Developer Tools","AWSXRay","Asia Pacific (Tokyo)","AWS Region","Traces Retrieved","Number of X-Ray traces accessed and retrieved from the AWS X-Ray service","APN1-XRay-TracesAccessed","XRay-Traces-Retrieved"
"EQJEPJHWAPJVAR9C","JRTCKXETXF","EQJEPJHWAPJVAR9C.JRTCKXETXF.6YS6EN2CT7","OnDemand","AWS X-Ray - Total Traces Accessed - Asia Pacific (Singapore)","2017-05-01","0","Inf","traces","0.0000005000","USD","EVFTT5KSKWPZ32VT","Developer Tools","AWSXRay","Asia Pacific (Singapore)","AWS Region","Traces Retrieved","Number of X-Ray traces accessed and retrieved from the AWS X-Ray service","APS1-XRay-TracesAccessed","XRay-Traces-Retrieved"
"HZU3ZQDQ95HA66ZM","JRTCKXETXF","HZU3ZQDQ95HA66ZM.JRTCKXETXF.6YS6EN2CT7","OnDemand","AWS X-Ray - Total Traces Stored - US East (Ohio)","2017-05-01","0","Inf","traces","0.0000050000","USD","EU3HQZXVTXB5DTVA","Developer Tools","AWSXRay","US East (Ohio)","AWS Region","Traces Stored","Number of X-Ray traces stored in the AWS X-Ray service","USE2-XRay-TracesStored",""
"UP6M63VVGUZEHFMD","JRTCKXETXF","UP6M63VVGUZEHFMD.JRTCKXETXF.6YS6EN2CT7","OnDemand","AWS X-Ray - Total Traces Accessed - South America (Sao Paulo)","2017-05-01","0","Inf","traces","0.0000005000","USD","EVFTT5KSKWPZ32VT","Developer Tools","AWSXRay","South America (Sao Paulo)","AWS Region","Traces Scanned","Number of X-Ray traces accessed and scanned from the AWS X-Ray service","SAE1-XRay-TracesAccessed","XRay-Traces-Scanned"
"TNJFMXVEDGSKT3RT","JRTCKXETXF","TNJFMXVEDGSKT3RT.JRTCKXETXF.6YS6EN2CT7","OnDemand","AWS X-Ray - Total Traces Stored - US West (Northern California)","2017-05-01","0","Inf","traces","0.0000050000","USD","EU3HQZXVTXB5DTVA","Developer Tools","AWSXRay","US West (N. California)","AWS Region","Traces Stored","Number of X-Ray traces stored in the AWS X-Ray service","USW1-XRay-TracesStored",""
"P538WA572DYCMYVQ","JRTCKXETXF","P538WA572DYCMYVQ.JRTCKXETXF.6YS6EN2CT7","OnDemand","AWS X-Ray - Total Traces Accessed - US East (Ohio)","2017-05-01","0","Inf","traces","0.0000005000","USD","EVFTT5KSKWPZ32VT","Developer Tools","AWSXRay","US East (Ohio)","AWS Region","Traces Retrieved","Number of X-Ray traces accessed and retrieved from the AWS X-Ray service","USE2-XRay-TracesAccessed","XRay-Traces-Retrieved"
"DCYT282N6STZ2HXC","JRTCKXETXF","DCYT282N6STZ2HXC.JRTCKXETXF.6YS6EN2CT7","OnDemand","AWS X-Ray - Total Traces Accessed - US West (Oregon)","2017-05-01","0","Inf","traces","0.0000005000","USD","EVFTT5KSKWPZ32VT","Developer Tools","AWSXRay","US West (Oregon)","AWS Region","Traces Scanned","Number of X-Ray traces accessed and scanned from the AWS X-Ray service","USW2-XRay-TracesAccessed","XRay-Traces-Scanned"
"Z4AVTSRQNEJWXJ3D","JRTCKXETXF","Z4AVTSRQNEJWXJ3D.JRTCKXETXF.6YS6EN2CT7","OnDemand","AWS X-Ray - Total Traces Stored - South America (Sao Paulo)","2017-05-01","0","Inf","traces","0.0000050000","USD","EU3HQZXVTXB5DTVA","Developer Tools","AWSXRay","South America (Sao Paulo)","AWS Region","Traces Stored","Number of X-Ray traces stored in the AWS X-Ray service","SAE1-XRay-TracesStored",""
"SBEMPJ9H72CWQ5KS","JRTCKXETXF","SBEMPJ9H72CWQ5KS.JRTCKXETXF.6YS6EN2CT7","OnDemand","AWS X-Ray - Total Traces Accessed - US West (Oregon)","2017-05-01","0","Inf","traces","0.0000005000","USD","EVFTT5KSKWPZ32VT","Developer Tools","AWSXRay","US West (Oregon)","AWS Region","Traces Retrieved","Number of X-Ray traces accessed and retrieved from the AWS X-Ray service","USW2-XRay-TracesAccessed","XRay-Traces-Retrieved"
"9GV5555FH2WAUK3F","JRTCKXETXF","9GV5555FH2WAUK3F.JRTCKXETXF.6YS6EN2CT7","OnDemand","AWS X-Ray - Total Traces Stored - EU (Frankfurt)","2017-05-01","0","Inf","traces","0.0000050000","USD","EU3HQZXVTXB5DTVA","Developer Tools","AWSXRay","EU (Frankfurt)","AWS Region","Traces Stored","Number of X-Ray traces stored in the AWS X-Ray service","EUC1-XRay-TracesStored",""
"Y5QPCBKD3Z9TEVCN","JRTCKXETXF","Y5QPCBKD3Z9TEVCN.JRTCKXETXF.6YS6EN2CT7","OnDemand","AWS X-Ray - Total Traces Stored - Asia Pacific (Seoul)","2017-05-01","0","Inf","traces","0.0000050000","USD","EU3HQZXVTXB5DTVA","Developer Tools","AWSXRay","Asia Pacific (Seoul)","AWS Region","Traces Stored","Number of X-Ray traces stored in the AWS X-Ray service","APN2-XRay-TracesStored",""
"SN3AZBTSNTWG9686","JRTCKXETXF","SN3AZBTSNTWG9686.JRTCKXETXF.6YS6EN2CT7","OnDemand","AWS X-Ray - Total Traces Accessed - EU (London)","2017-05-01","0","Inf","traces","0.0000005000","USD","EVFTT5KSKWPZ32VT","Developer Tools","AWSXRay","EU (London)","AWS Region","Traces Retrieved","Number of X-Ray traces accessed and retrieved from the AWS X-Ray service","EUW2-XRay-TracesAccessed","XRay-Traces-Retrieved"
"3TP6FV8W3FH2HE28","JRTCKXETXF","3TP6FV8W3FH2HE28.JRTCKXETXF.6YS6EN2CT7","OnDemand","AWS X-Ray - Total Traces Accessed - US East (North Virginia)","2017-05-01","0","Inf","traces","0.0000005000","USD","EVFTT5KSKWPZ32VT","Developer Tools","AWSXRay","US East (N. Virginia)","AWS Region","Traces Scanned","Number of X-Ray traces accessed and scanned from the AWS X-Ray service","USE1-XRay-TracesAccessed","XRay-Traces-Scanned"
"4DBGN5NRTF52VTTR","JRTCKXETXF","4DBGN5NRTF52VTTR.JRTCKXETXF.6YS6EN2CT7","OnDemand","AWS X-Ray - Total Traces Stored - Asia Pacific (Sydney)","2017-05-01","0","Inf","traces","0.0000050000","USD","EU3HQZXVTXB5DTVA","Developer Tools","AWSXRay","Asia Pacific (Sydney)","AWS Region","Traces Stored","Number of X-Ray traces stored in the AWS X-Ray service","APS2-XRay-TracesStored",""
"G4VHM75ABWMPJK59","JRTCKXETXF","G4VHM75ABWMPJK59.JRTCKXETXF.6YS6EN2CT7","OnDemand","AWS X-Ray - Total Traces Accessed - Asia Pacific (Sydney)","2017-05-01","0","Inf","traces","0.0000005000","USD","EVFTT5KSKWPZ32VT","Developer Tools","AWSXRay","Asia Pacific (Sydney)","AWS Region","Traces Scanned","Number of X-Ray traces accessed and scanned from the AWS X-Ray service","APS2-XRay-TracesAccessed","XRay-Traces-Scanned"
"Q88937KCK76PZFBF","JRTCKXETXF","Q88937KCK76PZFBF.JRTCKXETXF.6YS6EN2CT7","OnDemand","AWS X-Ray - Total Traces Stored - EU (London)","2017-05-01","0","Inf","traces","0.0000050000","USD","EU3HQZXVTXB5DTVA","Developer Tools","AWSXRay","EU (London)","AWS Region","Traces Stored","Number of X-Ray traces stored in the AWS X-Ray service","EUW2-XRay-TracesStored",""
"A2DFYMNB5KZNWKX4","JRTCKXETXF","A2DFYMNB5KZNWKX4.JRTCKXETXF.6YS6EN2CT7","OnDemand","AWS X-Ray - Total Traces Stored - Asia Pacific (Tokyo)","2017-05-01","0","Inf","traces","0.0000050000","USD","EU3HQZXVTXB5DTVA","Developer Tools","AWSXRay","Asia Pacific (Tokyo)","AWS Region","Traces Stored","Number of X-Ray traces stored in the AWS X-Ray service","APN1-XRay-TracesStored",""
"99GQBUPM9P9CRJSF","JRTCKXETXF","99GQBUPM9P9CRJSF.JRTCKXETXF.6YS6EN2CT7","OnDemand","AWS X-Ray - Total Traces Accessed - US East (Ohio)","2017-05-01","0","Inf","traces","0.0000005000","USD","EVFTT5KSKWPZ32VT","Developer Tools","AWSXRay","US East (Ohio)","AWS Region","Traces Scanned","Number of X-Ray traces accessed and scanned from the AWS X-Ray service","USE2-XRay-TracesAccessed","XRay-Traces-Scanned"
"Y6TW3M2TDT7SJYK8","JRTCKXETXF","Y6TW3M2TDT7SJYK8.JRTCKXETXF.6YS6EN2CT7","OnDemand","AWS X-Ray - Total Traces Stored - US East (North Virginia)","2017-05-01","0","Inf","traces","0.0000050000","USD","EU3HQZXVTXB5DTVA","Developer Tools","AWSXRay","US East (N. Virginia)","AWS Region","Traces Stored","Number of X-Ray traces stored in the AWS X-Ray service","USE1-XRay-TracesStored",""
"23UKNCFV8E6T8KAF","JRTCKXETXF","23UKNCFV8E6T8KAF.JRTCKXETXF.6YS6EN2CT7","OnDemand","AWS X-Ray - Total Traces Accessed - Canada (Central)","2017-05-01","0","Inf","traces","0.0000005000","USD","EVFTT5KSKWPZ32VT","Developer Tools","AWSXRay","Canada (Central)","AWS Region","Traces Scanned","Number of X-Ray traces accessed and scanned from the AWS X-Ray service","CAN1-XRay-TracesAccessed","XRay-Traces-Scanned"
"B5ZR8SCHMR6VTCEK","JRTCKXETXF","B5ZR8SCHMR6VTCEK.JRTCKXETXF.6YS6EN2CT7","OnDemand","AWS X-Ray - Total Traces Stored - EU (Ireland)","2017-05-01","0","Inf","traces","0.0000050000","USD","EU3HQZXVTXB5DTVA","Developer Tools","AWSXRay","EU (Ireland)","AWS Region","Traces Stored","Number of X-Ray traces stored in the AWS X-Ray service","EUW1-XRay-TracesStored",""
"9ABHZSA4BDJ24DJR","JRTCKXETXF","9ABHZSA4BDJ24DJR.JRTCKXETXF.6YS6EN2CT7","OnDemand","AWS X-Ray - Total Traces Accessed - EU (Frankfurt)","2017-05-01","0","Inf","traces","0.0000005000","USD","EVFTT5KSKWPZ32VT","Developer Tools","AWSXRay","EU (Frankfurt)","AWS Region","Traces Retrieved","Number of X-Ray traces accessed and retrieved from the AWS X-Ray service","EUC1-XRay-TracesAccessed","XRay-Traces-Retrieved"
"XUCT4WUXRNZDVNN4","JRTCKXETXF","XUCT4WUXRNZDVNN4.JRTCKXETXF.6YS6EN2CT7","OnDemand","AWS X-Ray - Total Traces Stored - Asia Pacific (Singapore)","2017-05-01","0","Inf","traces","0.0000050000","USD","EU3HQZXVTXB5DTVA","Developer Tools","AWSXRay","Asia Pacific (Singapore)","AWS Region","Traces Stored","Number of X-Ray traces stored in the AWS X-Ray service","APS1-XRay-TracesStored",""
